<?xml version="1.0" encoding="UTF-8" standalone="no"?>
<!-- Created with Inkscape (http://www.inkscape.org/) -->

<svg
   width="1920"
   height="1080"
   viewBox="0 0 507.99999 285.75001"
   version="1.1"
   id="svg8"
   inkscape:version="1.2.1 (9c6d41e410, 2022-07-14)"
   sodipodi:docname="title.svg"
   xmlns:inkscape="http://www.inkscape.org/namespaces/inkscape"
   xmlns:sodipodi="http://sodipodi.sourceforge.net/DTD/sodipodi-0.dtd"
   xmlns:xlink="http://www.w3.org/1999/xlink"
   xmlns="http://www.w3.org/2000/svg"
   xmlns:svg="http://www.w3.org/2000/svg"
   xmlns:rdf="http://www.w3.org/1999/02/22-rdf-syntax-ns#"
   xmlns:cc="http://creativecommons.org/ns#"
   xmlns:dc="http://purl.org/dc/elements/1.1/">
  <defs
     id="defs2">
    <linearGradient
       id="linearGradient4094">
      <stop
         style="stop-color:#232323;stop-opacity:1;"
         offset="0"
         id="stop4096" />
      <stop
         style="stop-color:#4d4d4d;stop-opacity:1;"
         offset="1"
         id="stop4098" />
    </linearGradient>
    <linearGradient
       id="linearGradient4014">
      <stop
         style="stop-color:#a0a0a0;stop-opacity:1;"
         offset="0"
         id="stop4016" />
      <stop
         style="stop-color:#ffffff;stop-opacity:1;"
         offset="1"
         id="stop4018" />
    </linearGradient>
    <linearGradient
       id="linearGradient4678">
      <stop
         style="stop-color:#e5e5e5;stop-opacity:1;"
         offset="0"
         id="stop4680" />
      <stop
         style="stop-color:#d3cdcd;stop-opacity:1;"
         offset="1"
         id="stop4682" />
    </linearGradient>
    <linearGradient
       id="linearGradient4341">
      <stop
         id="stop4343"
         offset="0"
         style="stop-color:#333333;stop-opacity:1;" />
      <stop
         id="stop4345"
         offset="1"
         style="stop-color:#484848;stop-opacity:1;" />
    </linearGradient>
    <linearGradient
       id="linearGradient4696-5">
      <stop
         id="stop4698-6"
         offset="0"
         style="stop-color:#ffb638;stop-opacity:1;" />
      <stop
         id="stop4700-2"
         offset="1"
         style="stop-color:#f0ae26;stop-opacity:1;" />
    </linearGradient>
    <linearGradient
       id="linearGradient4702-3">
      <stop
         id="stop4704-1"
         offset="0"
         style="stop-color:#e34646;stop-opacity:1;" />
      <stop
         id="stop4706-8"
         offset="1"
         style="stop-color:#ffbf2d;stop-opacity:1;" />
    </linearGradient>
    <color-profile
       name="Artifex-PS-CMYK-Profile"
       xlink:href="/usr/share/color/icc/ghostscript/ps_cmyk.icc"
       id="color-profile74925" />
    <clipPath
       id="clipPath4501"
       clipPathUnits="userSpaceOnUse">
      <path
         style="clip-rule:evenodd"
         inkscape:connector-curvature="0"
         id="path4499"
         d="M 0,0 H 124.992 V 144 H 0 Z" />
    </clipPath>
    <clipPath
       id="clipPath4525"
       clipPathUnits="userSpaceOnUse">
      <path
         inkscape:connector-curvature="0"
         id="path4523"
         d="M 0,0 H 100 V 125 H 0 Z" />
    </clipPath>
    <clipPath
       id="clipPath4545"
       clipPathUnits="userSpaceOnUse">
      <path
         inkscape:connector-curvature="0"
         id="path4543"
         d="M 0,0 H 100 V 125 H 0 Z" />
    </clipPath>
    <clipPath
       id="clipPath4561"
       clipPathUnits="userSpaceOnUse">
      <path
         inkscape:connector-curvature="0"
         id="path4559"
         d="M 0,0 H 100 V 125 H 0 Z" />
    </clipPath>
    <clipPath
       id="clipPath4577"
       clipPathUnits="userSpaceOnUse">
      <path
         inkscape:connector-curvature="0"
         id="path4575"
         d="M 0,0 H 100 V 125 H 0 Z" />
    </clipPath>
    <clipPath
       id="clipPath4593"
       clipPathUnits="userSpaceOnUse">
      <path
         inkscape:connector-curvature="0"
         id="path4591"
         d="M 0,0 H 100 V 125 H 0 Z" />
    </clipPath>
    <clipPath
       id="clipPath4609"
       clipPathUnits="userSpaceOnUse">
      <path
         inkscape:connector-curvature="0"
         id="path4607"
         d="M 0,0 H 100 V 125 H 0 Z" />
    </clipPath>
    <clipPath
       id="clipPath4625"
       clipPathUnits="userSpaceOnUse">
      <path
         inkscape:connector-curvature="0"
         id="path4623"
         d="M 0,0 H 100 V 125 H 0 Z" />
    </clipPath>
    <clipPath
       id="clipPath4641"
       clipPathUnits="userSpaceOnUse">
      <path
         inkscape:connector-curvature="0"
         id="path4639"
         d="M 0,0 H 100 V 125 H 0 Z" />
    </clipPath>
    <clipPath
       id="clipPath4657"
       clipPathUnits="userSpaceOnUse">
      <path
         inkscape:connector-curvature="0"
         id="path4655"
         d="M 0,0 H 100 V 125 H 0 Z" />
    </clipPath>
    <clipPath
       id="clipPath4673"
       clipPathUnits="userSpaceOnUse">
      <path
         inkscape:connector-curvature="0"
         id="path4671"
         d="M 0,0 H 100 V 125 H 0 Z" />
    </clipPath>
    <clipPath
       id="clipPath4577-3"
       clipPathUnits="userSpaceOnUse">
      <path
         inkscape:connector-curvature="0"
         id="path4575-6"
         d="M 0,0 H 100 V 125 H 0 Z" />
    </clipPath>
    <clipPath
       id="clipPath4577-3-1"
       clipPathUnits="userSpaceOnUse">
      <path
         inkscape:connector-curvature="0"
         id="path4575-6-6"
         d="M 0,0 H 100 V 125 H 0 Z" />
    </clipPath>
    <clipPath
       id="clipPath4577-3-1-0"
       clipPathUnits="userSpaceOnUse">
      <path
         inkscape:connector-curvature="0"
         id="path4575-6-6-0"
         d="M 0,0 H 100 V 125 H 0 Z" />
    </clipPath>
    <clipPath
       id="clipPath4577-3-3"
       clipPathUnits="userSpaceOnUse">
      <path
         inkscape:connector-curvature="0"
         id="path4575-6-4"
         d="M 0,0 H 100 V 125 H 0 Z" />
    </clipPath>
    <clipPath
       id="clipPath4501-6"
       clipPathUnits="userSpaceOnUse">
      <path
         style="clip-rule:evenodd"
         inkscape:connector-curvature="0"
         id="path4499-6"
         d="M 0,0 H 124.992 V 144 H 0 Z" />
    </clipPath>
    <clipPath
       id="clipPath4525-0"
       clipPathUnits="userSpaceOnUse">
      <path
         inkscape:connector-curvature="0"
         id="path4523-2"
         d="M 0,0 H 100 V 125 H 0 Z" />
    </clipPath>
    <clipPath
       id="clipPath4545-5"
       clipPathUnits="userSpaceOnUse">
      <path
         inkscape:connector-curvature="0"
         id="path4543-8"
         d="M 0,0 H 100 V 125 H 0 Z" />
    </clipPath>
    <clipPath
       id="clipPath4561-9"
       clipPathUnits="userSpaceOnUse">
      <path
         inkscape:connector-curvature="0"
         id="path4559-5"
         d="M 0,0 H 100 V 125 H 0 Z" />
    </clipPath>
    <clipPath
       id="clipPath4577-0"
       clipPathUnits="userSpaceOnUse">
      <path
         inkscape:connector-curvature="0"
         id="path4575-60"
         d="M 0,0 H 100 V 125 H 0 Z" />
    </clipPath>
    <clipPath
       id="clipPath4593-8"
       clipPathUnits="userSpaceOnUse">
      <path
         inkscape:connector-curvature="0"
         id="path4591-3"
         d="M 0,0 H 100 V 125 H 0 Z" />
    </clipPath>
    <clipPath
       id="clipPath4609-7"
       clipPathUnits="userSpaceOnUse">
      <path
         inkscape:connector-curvature="0"
         id="path4607-8"
         d="M 0,0 H 100 V 125 H 0 Z" />
    </clipPath>
    <clipPath
       id="clipPath4625-2"
       clipPathUnits="userSpaceOnUse">
      <path
         inkscape:connector-curvature="0"
         id="path4623-1"
         d="M 0,0 H 100 V 125 H 0 Z" />
    </clipPath>
    <clipPath
       id="clipPath4641-0"
       clipPathUnits="userSpaceOnUse">
      <path
         inkscape:connector-curvature="0"
         id="path4639-5"
         d="M 0,0 H 100 V 125 H 0 Z" />
    </clipPath>
    <clipPath
       id="clipPath4657-8"
       clipPathUnits="userSpaceOnUse">
      <path
         inkscape:connector-curvature="0"
         id="path4655-5"
         d="M 0,0 H 100 V 125 H 0 Z" />
    </clipPath>
    <clipPath
       id="clipPath4673-5"
       clipPathUnits="userSpaceOnUse">
      <path
         inkscape:connector-curvature="0"
         id="path4671-0"
         d="M 0,0 H 100 V 125 H 0 Z" />
    </clipPath>
  </defs>
  <sodipodi:namedview
     id="base"
     pagecolor="#ffffff"
     bordercolor="#f70bff"
     borderopacity="1"
     inkscape:pageopacity="0.0"
     inkscape:pageshadow="2"
     inkscape:zoom="0.44852137"
     inkscape:cx="1172.7423"
     inkscape:cy="600.86323"
     inkscape:document-units="px"
     inkscape:current-layer="layer3"
     showgrid="false"
     units="px"
     borderlayer="true"
     inkscape:showpageshadow="false"
     inkscape:pagecheckerboard="true"
     inkscape:window-width="1920"
     inkscape:window-height="1003"
     inkscape:window-x="0"
     inkscape:window-y="40"
     inkscape:window-maximized="1"
     showguides="false"
     inkscape:deskcolor="#d1d1d1" />
  <metadata
     id="metadata5">
    <rdf:RDF>
      <cc:Work
         rdf:about="">
        <dc:format>image/svg+xml</dc:format>
        <dc:type
           rdf:resource="http://purl.org/dc/dcmitype/StillImage" />
        <dc:title />
        <cc:license
           rdf:resource="http://creativecommons.org/licenses/by-sa/4.0/" />
      </cc:Work>
      <cc:License
         rdf:about="http://creativecommons.org/licenses/by-sa/4.0/">
        <cc:permits
           rdf:resource="http://creativecommons.org/ns#Reproduction" />
        <cc:permits
           rdf:resource="http://creativecommons.org/ns#Distribution" />
        <cc:requires
           rdf:resource="http://creativecommons.org/ns#Notice" />
        <cc:requires
           rdf:resource="http://creativecommons.org/ns#Attribution" />
        <cc:permits
           rdf:resource="http://creativecommons.org/ns#DerivativeWorks" />
        <cc:requires
           rdf:resource="http://creativecommons.org/ns#ShareAlike" />
      </cc:License>
    </rdf:RDF>
  </metadata>
  <g
     inkscape:label="background"
     inkscape:groupmode="layer"
     id="layer1"
     transform="translate(0,-11.249975)"
     style="display:inline">
    <rect
       style="color:#000000;clip-rule:nonzero;display:inline;overflow:visible;visibility:visible;opacity:1;isolation:auto;mix-blend-mode:normal;color-interpolation:sRGB;color-interpolation-filters:linearRGB;solid-color:#000000;solid-opacity:1;vector-effect:none;fill:#e6e6e6;fill-opacity:1;fill-rule:nonzero;stroke:none;stroke-width:0.3055087;stroke-linecap:round;stroke-linejoin:round;stroke-miterlimit:4;stroke-dasharray:none;stroke-dashoffset:0;stroke-opacity:1;color-rendering:auto;image-rendering:auto;shape-rendering:auto;text-rendering:auto;enable-background:accumulate"
       id="rect2926"
       width="512.95203"
       height="292.72192"
       x="-2.0354033"
       y="8.4516382" />
    <text
       xml:space="preserve"
       style="font-style:normal;font-variant:normal;font-weight:normal;font-stretch:normal;font-size:9.87778px;line-height:6.61458px;font-family:Arial;-inkscape-font-specification:Arial;letter-spacing:0px;word-spacing:0px;fill:#000000;fill-opacity:1;stroke:none;stroke-width:0.264583px;stroke-linecap:butt;stroke-linejoin:miter;stroke-opacity:1"
       x="269.14041"
       y="219.49182"
       id="text5975" />
    <text
       xml:space="preserve"
       style="font-style:normal;font-variant:normal;font-weight:normal;font-stretch:normal;font-size:9.87778px;line-height:6.61458px;font-family:Arial;-inkscape-font-specification:Arial;letter-spacing:0px;word-spacing:0px;fill:#000000;fill-opacity:1;stroke:none;stroke-width:0.264583px;stroke-linecap:butt;stroke-linejoin:miter;stroke-opacity:1"
       x="50.179855"
       y="256.77591"
       id="text9913" />
  </g>
  <g
     inkscape:groupmode="layer"
     id="layer3"
     inkscape:label="title"
     style="display:inline">
    <text
       xml:space="preserve"
       style="font-style:normal;font-variant:normal;font-weight:normal;font-stretch:normal;font-size:27.8267px;line-height:7.24652px;font-family:'League Gothic';-inkscape-font-specification:'League Gothic';letter-spacing:0px;word-spacing:0px;display:inline;fill:#ff3807;fill-opacity:1;stroke:none;stroke-width:1.05719;stroke-linecap:butt;stroke-linejoin:miter;stroke-miterlimit:4;stroke-dasharray:none;stroke-opacity:1"
       x="203.5061"
       y="173.87288"
       id="text836"><tspan
         sodipodi:role="line"
         id="tspan834"
         x="203.5061"
         y="173.87288"
         style="font-style:normal;font-variant:normal;font-weight:normal;font-stretch:normal;font-size:27.8267px;font-family:Vollkorn;-inkscape-font-specification:'Vollkorn, Normal';font-variant-ligatures:discretionary-ligatures historical-ligatures;font-variant-caps:normal;font-variant-numeric:normal;font-variant-east-asian:normal;fill:#ff3807;fill-opacity:1;stroke:none;stroke-width:1.05719;stroke-miterlimit:4;stroke-dasharray:none;stroke-opacity:1">Scientific Computing</tspan></text>
    <text
       xml:space="preserve"
       style="font-style:normal;font-variant:normal;font-weight:normal;font-stretch:normal;font-size:27.8267px;line-height:1.1em;font-family:'League Gothic';-inkscape-font-specification:'League Gothic';letter-spacing:0px;word-spacing:0px;display:inline;fill:#000000;fill-opacity:1;stroke:none;stroke-width:0.289861px;stroke-linecap:butt;stroke-linejoin:miter;stroke-opacity:1"
       x="203.22227"
       y="109.48367"
       id="text840"><tspan
         sodipodi:role="line"
         id="tspan838"
         x="203.22227"
         y="109.48367"
         style="font-style:normal;font-variant:normal;font-weight:normal;font-stretch:normal;font-size:27.8267px;font-family:Vollkorn;-inkscape-font-specification:Vollkorn;stroke-width:0.289861px">Reproducible</tspan><tspan
         sodipodi:role="line"
         x="203.22227"
         y="141.52841"
         style="font-style:normal;font-variant:normal;font-weight:normal;font-stretch:normal;font-size:27.8267px;font-family:Vollkorn;-inkscape-font-specification:Vollkorn;stroke-width:0.289861px"
         id="tspan842">Software Deployment</tspan></text>
    <text
       xml:space="preserve"
       style="font-style:normal;font-variant:normal;font-weight:normal;font-stretch:normal;font-size:21.643px;line-height:5.63618px;font-family:'League Gothic';-inkscape-font-specification:'League Gothic';letter-spacing:0px;word-spacing:0px;display:inline;fill:#000000;fill-opacity:1;stroke:none;stroke-width:0.289861px;stroke-linecap:butt;stroke-linejoin:miter;stroke-opacity:1"
       x="178.81313"
       y="172.2003"
       id="text2933"><tspan
         sodipodi:role="line"
         id="tspan2931"
         x="178.81313"
         y="172.2003"
         style="font-style:italic;font-variant:normal;font-weight:normal;font-stretch:normal;font-size:21.643px;font-family:Vollkorn;-inkscape-font-specification:'Vollkorn Italic';fill:#000000;stroke-width:0.289861px">in</tspan></text>
    <g
       style="display:inline"
       transform="matrix(2.0040175,0,0,-2.0040175,-24.7841,300.80454)"
       inkscape:label="Logo_PiGx"
       id="g4493">
      <g
         id="g4495">
        <g
           clip-path="url(#clipPath4501-6)"
           id="g4497">
          <path
             inkscape:connector-curvature="0"
             id="path4515"
             style="fill:#ffffff;fill-opacity:1;fill-rule:evenodd;stroke:none"
             d="m 62.407,121.03588 c 18.4892,0 33.5,-15.018 33.5,-33.516496 0,-18.4979 -15.0108,-33.516 -33.5,-33.516 -18.4891,0 -33.5,15.0181 -33.5,33.516 0,18.498496 15.0109,33.516496 33.5,33.516496 z" />
          <path
             inkscape:connector-curvature="0"
             id="path4681"
             style="fill:#ff3807;fill-opacity:1;fill-rule:evenodd;stroke:none"
             d="m 43.3283,54.003384 -3.7739,8.3871 3.7739,8.387 h 38.3354 l 3.7739,-8.387 -3.7739,-8.3871 z" />
          <g
             transform="rotate(30.167519,-211.16598,41.285893)"
             id="g4711">
            <g
               transform="translate(9.27267,-130.341)"
               id="g4713" />
          </g>
          <g
             id="g3811"
             transform="matrix(0.227955,0,0,-0.227955,39.862467,289.34855)"
             style="fill:#ffffff">
            <path
               d="m 63.453738,1016.2686 c -3.150167,1.5313 -6.420601,2.6798 -9.811311,3.4454 -3.390792,0.7657 -6.890921,1.1485 -10.5004,1.1485 -8.159708,0 -14.62401,-2.2751 -19.392927,-6.8253 -4.768937,-4.572 -7.153401,-10.7629 -7.153397,-18.57256 -4e-6,-7.89714 2.428211,-14.10987 7.284652,-18.63821 4.85642,-4.52825 11.506666,-6.79239 19.95076,-6.79244 3.259466,5e-5 6.376769,0.30631 9.351919,0.91878 2.996946,0.61258 5.818926,1.52042 8.465948,2.72354 v 10.13945 c -2.734525,-1.55314 -5.458064,-2.71256 -8.170624,-3.47825 -2.690765,-0.76562 -5.392428,-1.14844 -8.104996,-1.14849 -5.031469,5e-5 -8.914426,1.41104 -11.648882,4.23298 -2.712621,2.80014 -4.068921,6.81435 -4.068905,12.04264 -1.6e-5,5.18456 1.312533,9.18786 3.93765,12.00986 2.625077,2.822 6.354903,4.233 11.189489,4.233 1.312517,0 2.526625,-0.077 3.642326,-0.2297 1.137507,-0.175 2.154733,-0.4376 3.051679,-0.7876 v -9.516 h -7.711231 v -8.46591 h 19.68825 v 23.56031"
               style="font-style:normal;font-weight:bold;font-size:67.2026px;line-height:125%;font-family:Sans;-inkscape-font-specification:'Sans Bold';letter-spacing:0px;word-spacing:0px;fill:#ffffff;fill-opacity:1;stroke:none"
               id="path3240"
               inkscape:connector-curvature="0" />
            <path
               d="m 73.626002,1005.6041 v -22.44461 h 11.81295 v 3.67514 c -1.7e-5,1.99073 -0.01095,4.49551 -0.03281,7.51435 -0.02189,2.99701 -0.03283,4.99865 -0.03281,6.00492 -1.7e-5,2.9532 0.07655,5.0861 0.229696,6.3987 0.153113,1.2907 0.415623,2.2313 0.78753,2.822 0.48125,0.7656 1.10471,1.3563 1.870384,1.7719 0.787509,0.4156 1.684417,0.6235 2.690727,0.6235 2.450069,0 4.37514,-0.9407 5.77522,-2.822 1.400024,-1.8813 2.10005,-4.4955 2.10008,-7.8425 v -18.14601 h 11.747321 v 36.75141 H 98.826969 v -5.3158 c -1.771971,2.1438 -3.653291,3.7298 -5.643965,4.758 -1.968848,1.0062 -4.145491,1.5094 -6.529936,1.5094 -4.243926,0 -7.481546,-1.3016 -9.71287,-3.9048 -2.209466,-2.6033 -3.314194,-6.3878 -3.314189,-11.3536"
               style="font-style:normal;font-weight:bold;font-size:67.2026px;line-height:125%;font-family:Sans;-inkscape-font-specification:'Sans Bold';letter-spacing:0px;word-spacing:0px;fill:#ffffff;fill-opacity:1;stroke:none"
               id="path3242"
               inkscape:connector-curvature="0" />
            <path
               d="m 121.92784,983.15949 h 11.74732 v 36.75141 h -11.74732 v -36.75141 m 0,-14.3068 h 11.74732 v 9.58162 h -11.74732 v -9.58162"
               style="font-style:normal;font-weight:bold;font-size:67.2026px;line-height:125%;font-family:Sans;-inkscape-font-specification:'Sans Bold';letter-spacing:0px;word-spacing:0px;fill:#ffffff;fill-opacity:1;stroke:none"
               id="path3244"
               inkscape:connector-curvature="0" />
            <path
               d="m 154.31501,1001.1086 -13.25675,-17.94911 h 12.43641 l 7.51435,10.89416 7.61279,-10.89416 h 12.43641 l -13.25676,17.88351 13.91303,18.8679 h -12.43641 l -8.26906,-11.6161 -8.17063,11.6161 h -12.43641 l 13.91303,-18.8023"
               style="font-style:normal;font-weight:bold;font-size:67.2026px;line-height:125%;font-family:Sans;-inkscape-font-specification:'Sans Bold';letter-spacing:0px;word-spacing:0px;fill:#ffffff;fill-opacity:1;stroke:none"
               id="path3246"
               inkscape:connector-curvature="0" />
          </g>
          <path
             id="path3143"
             d="m 85.739424,105.29941 c -0.521056,-0.9523 -1.050053,-1.7276 -1.589079,-2.33848 -0.521056,-0.59293 -1.09564,-1.06721 -1.724505,-1.42656 -0.610901,-0.34138 -1.304031,-0.5876 -2.076637,-0.73133 -0.754636,-0.12577 -1.621119,-0.18963 -2.609334,-0.1896 -0.728969,0 -1.384087,0.0374 -1.95926,0.10834 -0.0026,0 -0.0068,0 -0.009,0 -0.07286,0.005 -0.223534,0.0298 -0.379214,0.0542 -0.163979,0.0257 -0.331597,0.0505 -0.595904,0.0993 -4.844804,0.8964 -6.45159,-2.466929 -6.79873,-3.394849 -0.05436,-0.145239 -0.08129,-0.234739 -0.08129,-0.234739 L 62.02965,80.831177 58.41811,74.691533 h 7.214056 c 2.962872,6.596971 5.811401,20.371299 8.857303,21.588049 0.660196,-0.0923 1.478526,-0.13542 2.464875,-0.13542 1.29367,0 2.451957,0.15509 3.476106,0.47852 1.024148,0.32342 1.945354,0.825059 2.771864,1.507829 0.826511,0.70073 1.574355,1.59447 2.239152,2.672539 0.682768,1.07805 1.330294,2.37312 1.941204,3.88241 l -1.643239,0.61396 z"
             style="font-style:normal;font-weight:bold;font-size:144px;line-height:125%;font-family:Sans;-inkscape-font-specification:'Sans Bold';letter-spacing:0px;word-spacing:0px;fill:#ff3807;fill-opacity:1;stroke:none;stroke-width:0.194242"
             inkscape:connector-curvature="0" />
          <path
             inkscape:connector-curvature="0"
             id="path3145"
             d="m 85.739245,105.29874 c -0.521064,-0.9523 -1.050027,-1.72653 -1.589045,-2.33741 -0.521055,-0.59294 -1.09587,-1.06744 -1.724726,-1.42679 -0.151292,-0.0845 -0.307262,-0.16224 -0.4686,-0.235 -0.0017,-4.8e-4 -0.0026,-0.003 -0.0043,-0.003 -0.203083,-0.14282 -0.464288,-0.26542 -0.818313,-0.3497 -4.083131,-0.972189 -6.864283,-4.610958 -7.125514,-4.962968 0.118443,0.0974 0.237679,0.17688 0.356701,0.23779 0.01789,0.009 0.03519,0.0181 0.05317,0.0266 0.0026,0.002 0.006,0.003 0.0085,0.004 0.02071,0.01 0.04218,0.0182 0.06289,0.0266 0.660188,-0.0923 1.478348,-0.13567 2.464697,-0.13567 1.29367,0 2.45188,0.15636 3.476037,0.47978 1.024149,0.32343 1.944519,0.823749 2.771038,1.506529 0.826502,0.70071 1.574687,1.59504 2.239493,2.673109 0.68276,1.07805 1.330634,2.3738 1.941536,3.88309 l -1.643622,0.61268 z"
             style="font-style:normal;font-weight:bold;font-size:144px;line-height:125%;font-family:Sans;-inkscape-font-specification:'Sans Bold';letter-spacing:0px;word-spacing:0px;fill:#ff3807;fill-opacity:1;stroke:none;stroke-width:0.194242" />
          <path
             id="path3147"
             d="m 38.31082,105.29941 c 0.521064,-0.9523 1.050053,-1.7276 1.58907,-2.33848 0.521064,-0.59293 1.095658,-1.06721 1.724513,-1.42656 0.610902,-0.34138 1.304041,-0.5876 2.076638,-0.73133 0.754644,-0.12581 1.621118,-0.18963 2.609342,-0.1896 0.72897,0 1.384087,0.0374 1.95926,0.10834 0.0026,0 0.0068,0 0.009,0 0.07294,0.005 0.223525,0.0298 0.379214,0.0542 0.16398,0.0257 0.331598,0.0505 0.595904,0.0993 4.844796,0.8964 6.451573,-2.466929 6.798722,-3.394849 0.05436,-0.145239 0.08129,-0.234739 0.08129,-0.234739 l 5.886821,-16.414515 3.61154,-6.139644 h -7.214056 c -2.962881,6.596971 -5.811392,20.371299 -8.857303,21.588049 -0.660196,-0.0923 -1.478527,-0.13542 -2.464884,-0.13542 -1.293653,0 -2.451949,0.15509 -3.476106,0.47852 -1.02414,0.32341 -1.945345,0.825049 -2.771847,1.507829 -0.826502,0.70073 -1.574354,1.59447 -2.23916,2.672539 -0.68276,1.07803 -1.330294,2.37311 -1.941196,3.8824 z"
             style="font-style:normal;font-weight:bold;font-size:144px;line-height:125%;font-family:Sans;-inkscape-font-specification:'Sans Bold';letter-spacing:0px;word-spacing:0px;fill:#ffffff;fill-opacity:1;stroke:none;stroke-width:0.194242"
             inkscape:connector-curvature="0" />
          <path
             inkscape:connector-curvature="0"
             style="font-style:normal;font-weight:bold;font-size:144px;line-height:125%;font-family:Sans;-inkscape-font-specification:'Sans Bold';letter-spacing:0px;word-spacing:0px;fill:#ff3807;fill-opacity:1;stroke:none;stroke-width:0.194242"
             d="m 38.310522,105.29965 c 0.521064,-0.9523 1.050052,-1.72759 1.589079,-2.33847 0.521064,-0.59295 1.095648,-1.06723 1.724513,-1.42656 0.610893,-0.3414 1.304031,-0.58761 2.076638,-0.73135 0.754635,-0.12579 1.621118,-0.18962 2.609333,-0.18958 0.728969,0 1.384087,0.0374 1.95926,0.10833 0.0026,0 0.0068,0 0.009,0 0.07286,0.005 0.223525,0.0298 0.379214,0.0542 0.163979,0.0256 0.331597,0.0504 0.595896,0.0993 4.844804,0.8964 6.451581,-2.466939 6.79873,-3.394859 0.05428,-0.145229 0.08129,-0.234739 0.08129,-0.234739 l 5.886804,-16.414508 3.033691,-6.139646 h -6.63619 c -2.962881,6.596976 -5.811401,20.371304 -8.857312,21.588054 -0.660187,-0.0923 -1.478526,-0.13542 -2.464875,-0.13542 -1.293662,0 -2.451958,0.15509 -3.476106,0.47852 -1.024148,0.32341 -1.945354,0.825059 -2.771856,1.507829 -0.82651,0.70072 -1.574354,1.59446 -2.239152,2.672529 -0.682768,1.07805 -1.33031,2.37311 -1.941212,3.88241 l 1.643247,0.61396 z"
             id="path3149"
             sodipodi:nodetypes="ccccccccsscccccccccccc" />
          <path
             sodipodi:nodetypes="ccc"
             d="M 62.019068,80.833743 58.42169,74.691522 h 7.21046"
             style="font-style:normal;font-weight:bold;font-size:144px;line-height:125%;font-family:Sans;-inkscape-font-specification:'Sans Bold';letter-spacing:0px;word-spacing:0px;fill:#ff3807;fill-opacity:1;stroke:none;stroke-width:0.194242"
             id="path3151"
             inkscape:connector-curvature="0" />
          <path
             inkscape:connector-curvature="0"
             id="path3154"
             d="m 38.311306,105.29874 -1.643597,-0.61268 c 0.190906,-0.47165 0.385281,-0.92291 0.583302,-1.35265 0.03954,-0.0859 0.07899,-0.17032 0.118895,-0.25458 1.61e-4,-3.9e-4 -1.54e-4,-0.002 0,-0.002 0.03971,-0.0838 0.08035,-0.16678 0.1203,-0.24898 0.01329,-0.0273 0.02727,-0.0539 0.04056,-0.0811 0.06706,-0.13666 0.133585,-0.27229 0.20143,-0.40426 3.15e-4,-4.9e-4 7.33e-4,-4.9e-4 0.0017,-0.002 0.04048,-0.0787 0.08095,-0.15663 0.121698,-0.23361 0.164227,-0.3105 0.330695,-0.60765 0.49937,-0.89104 0.04218,-0.0708 0.08351,-0.13935 0.125899,-0.20842 0.01644,-0.0268 0.03247,-0.0533 0.049,-0.0798 0.02616,-0.0422 0.05334,-0.0843 0.07976,-0.1259 0.04158,-0.0674 0.08231,-0.1341 0.124493,-0.20004 0.06723,-0.10504 0.136755,-0.20775 0.205622,-0.30913 0.01738,-0.0256 0.03425,-0.0516 0.05172,-0.0769 0.04371,-0.0633 0.08714,-0.12555 0.131489,-0.18744 0.08825,-0.123169 0.177758,-0.243569 0.268567,-0.360889 0.04533,-0.0586 0.09105,-0.11626 0.137087,-0.17345 0.09208,-0.1144 0.185155,-0.22582 0.279764,-0.33432 0.07175,-0.0822 0.145038,-0.16314 0.218217,-0.242 0.02309,-0.0249 0.04669,-0.0496 0.06996,-0.0741 0.09735,-0.10283 0.195303,-0.20251 0.295161,-0.29934 0.04976,-0.0483 0.09924,-0.0959 0.149665,-0.14268 0.05062,-0.047 0.101179,-0.093 0.152467,-0.13849 0.05104,-0.0452 0.102219,-0.0891 0.153874,-0.13289 0.154964,-0.12802 0.313908,-0.24978 0.475587,-0.36508 0.431158,-0.30747 0.886337,-0.569989 1.366645,-0.787539 0.06007,-0.0272 0.119618,-0.0539 0.180442,-0.0798 0.12203,-0.0517 0.245458,-0.10073 0.370684,-0.14688 0.06237,-0.0229 0.124229,-0.0441 0.187438,-0.0658 0.06323,-0.0216 0.127629,-0.0428 0.191639,-0.0629 0.06399,-0.0202 0.12797,-0.0399 0.193037,-0.0587 0.130116,-0.0378 0.262943,-0.0737 0.397252,-0.10631 0.06715,-0.0163 0.134625,-0.0312 0.202836,-0.0462 0.06817,-0.0151 0.136363,-0.0297 0.205622,-0.0434 0.0697,-0.0138 0.139056,-0.0267 0.209823,-0.0391 0.140615,-0.0249 0.283207,-0.0474 0.428031,-0.0671 0.217245,-0.0297 0.439117,-0.0544 0.665837,-0.0728 0.151138,-0.0124 0.304833,-0.022 0.460198,-0.0293 0.155373,-0.008 0.313209,-0.0116 0.472801,-0.014 0.07976,-0.002 0.159744,-0.002 0.240601,-0.002 0.123291,0 0.244231,4e-5 0.362282,0.002 0.236136,0.003 0.461595,0.009 0.677025,0.0168 0.107238,0.004 0.212558,0.009 0.314735,0.014 0.102602,0.006 0.20321,0.0126 0.300734,0.0196 0.292571,0.021 0.56234,0.0479 0.80992,0.0826 0.02079,-0.009 0.04218,-0.0169 0.06289,-0.0266 0.0026,-0.002 0.0051,-0.003 0.0085,-0.004 0.01789,-0.009 0.03528,-0.0171 0.05317,-0.0266 0.119082,-0.0609 0.238173,-0.14033 0.356684,-0.2378 -0.260677,0.3513 -3.041906,3.990699 -7.125513,4.962958 -0.354017,0.0843 -0.615231,0.20689 -0.818305,0.34971 -0.0017,4.9e-4 -0.0026,0.003 -0.0043,0.003 -0.160972,0.0726 -0.317624,0.15067 -0.4686,0.23499 -3.15e-4,1.6e-4 -7.24e-4,-1.4e-4 -0.0017,0 -0.03894,0.0222 -0.07754,0.0453 -0.116109,0.0686 -3.15e-4,1.6e-4 -7.32e-4,-1.6e-4 -0.0017,0 -0.03894,0.0233 -0.07626,0.0471 -0.114702,0.0713 -0.0772,0.0487 -0.153882,0.0987 -0.229404,0.15107 -0.03758,0.0261 -0.07473,0.0527 -0.111899,0.0798 -0.0749,0.0543 -0.147832,0.10986 -0.22102,0.16786 -0.0363,0.0287 -0.07183,0.057 -0.107706,0.0867 -0.03621,0.03 -0.07192,0.0601 -0.107707,0.0909 -0.03545,0.0306 -0.06979,0.0622 -0.104911,0.0937 -0.175407,0.15773 -0.345632,0.32579 -0.510558,0.50644 -0.03298,0.0361 -0.06672,0.0735 -0.09931,0.11051 -0.119857,0.13583 -0.239212,0.28 -0.35809,0.43223 -0.01483,0.0189 -0.02854,0.0382 -0.04337,0.0573 -0.0334,0.0434 -0.0674,0.0868 -0.100719,0.13149 -0.166545,0.2234 -0.331794,0.46373 -0.496575,0.72039 -0.06595,0.10267 -0.131582,0.20806 -0.197228,0.31613 -0.03281,0.054 -0.06519,0.10826 -0.09792,0.16366 -0.09795,0.16567 -0.196351,0.33821 -0.293738,0.51616 z"
             style="font-style:normal;font-weight:bold;font-size:144px;line-height:125%;font-family:Sans;-inkscape-font-specification:'Sans Bold';letter-spacing:0px;word-spacing:0px;fill:#ff3807;fill-opacity:1;stroke:none;stroke-width:0.194242" />
        </g>
      </g>
    </g>
  </g>
  <g
     inkscape:groupmode="layer"
     id="layer2"
     inkscape:label="attributions"
     style="display:inline">
    <g
       id="g9407"
       transform="translate(-323.85015,-0.52915818)">
      <path
         d="m 364.65236,280.8872 v -8.14804 c 0,-0.40378 0.0365,-2.15199 0.0365,-3.43979 h -0.0365 l -3.71423,11.58783 h -1.76445 l -3.71314,-11.56849 h -0.0367 c 0,1.26846 0.0367,3.01667 0.0367,3.42045 v 8.14804 h -1.72824 v -13.79818 h 2.55593 l 3.76744,11.66444 h 0.037 l 3.75043,-11.66444 h 2.53611 v 13.79818 z"
         style="display:inline;fill:#000000;fill-opacity:1;fill-rule:nonzero;stroke:none;stroke-width:0.15602092;stroke-linecap:round;stroke-linejoin:round;stroke-miterlimit:10"
         id="path5038"
         inkscape:connector-curvature="0" />
      <g
         id="g5040"
         transform="matrix(0.15602093,0,0,-0.15602093,370.35886,268.57785)"
         style="display:inline;fill:#000000;fill-opacity:1">
        <path
           d="m 0,0 h 21.489 c 15.674,0 25.526,-11.156 25.526,-33.35 0,-22.189 -9.735,-34.328 -24.696,-34.328 H 0 Z m -11.516,-77.852 h 34.073 c 28.022,0 36.333,25.498 36.333,45.236 0,25.382 -13.655,42.789 -35.857,42.789 h -34.549 z"
           style="fill:#000000;fill-opacity:1;fill-rule:nonzero;stroke:none;stroke-linecap:round;stroke-linejoin:round;stroke-miterlimit:10"
           id="path5042"
           inkscape:connector-curvature="0" />
      </g>
      <g
         id="g5044"
         transform="matrix(0.15602093,0,0,-0.15602093,390.84621,271.21618)"
         style="display:inline;fill:#000000;fill-opacity:1">
        <path
           d="m 0,0 c -3.204,14.648 -15.67,17.318 -23.865,17.318 -15.429,0 -27.899,-11.158 -27.899,-33.12 0,-19.644 7.124,-34.752 28.259,-34.752 7.477,0 20.418,3.491 24.341,22.899 h 11.158 c -4.75,-31.497 -30.872,-32.893 -37.279,-32.893 -19.355,0 -38.351,12.322 -38.351,44.395 0,25.686 14.959,43.465 39.771,43.465 C -1.897,27.312 9.505,13.95 11.161,0 Z"
           style="fill:#000000;fill-opacity:1;fill-rule:nonzero;stroke:none;stroke-linecap:round;stroke-linejoin:round;stroke-miterlimit:10"
           id="path5046"
           inkscape:connector-curvature="0" />
      </g>
      <g
         id="g5048"
         transform="matrix(0.15602093,0,0,-0.15602093,397.50146,266.86923)"
         style="display:inline;fill:#000000;fill-opacity:1">
        <path
           d="M 0,0 5.957,-15.552 11.946,0 h 3.442 V -18.505 H 13.003 V -3.109 H 12.949 L 7.046,-18.505 H 4.901 L -1.007,-3.109 H -1.058 V -18.505 H -3.442 V 0 Z"
           style="fill:#000000;fill-opacity:1;fill-rule:nonzero;stroke:none;stroke-linecap:round;stroke-linejoin:round;stroke-miterlimit:10"
           id="path5050"
           inkscape:connector-curvature="0" />
      </g>
      <g
         id="g5052"
         transform="matrix(0.15602093,0,0,-0.15602093,402.45132,268.56322)"
         style="display:inline;fill:#000000;fill-opacity:1">
        <path
           d="M 0,0 -3.151,8.63 H -3.204 L -6.408,0 Z M -1.747,10.857 5.642,-7.647 H 2.859 l -2.065,5.572 h -7.997 l -2.12,-5.572 h -2.568 l 7.363,18.504 z"
           style="fill:#000000;fill-opacity:1;fill-rule:nonzero;stroke:none;stroke-linecap:round;stroke-linejoin:round;stroke-miterlimit:10"
           id="path5054"
           inkscape:connector-curvature="0" />
      </g>
      <g
         id="g5056"
         transform="matrix(0.15602093,0,0,-0.15602093,403.74047,266.86923)"
         style="display:inline;fill:#000000;fill-opacity:1">
        <path
           d="M 0,0 H 3.018 L 7.732,-7.231 12.661,0 h 2.806 l -6.252,-8.992 6.648,-9.513 h -3.071 l -5.085,7.648 -5.245,-7.648 h -2.806 l 6.568,9.513 z"
           style="fill:#000000;fill-opacity:1;fill-rule:nonzero;stroke:none;stroke-linecap:round;stroke-linejoin:round;stroke-miterlimit:10"
           id="path5058"
           inkscape:connector-curvature="0" />
      </g>
      <g
         id="g5060"
         transform="matrix(0.15602093,0,0,-0.15602093,410.07715,269.43291)"
         style="display:inline;fill:#000000;fill-opacity:1">
        <path
           d="m 0,0 c 0.282,0 0.635,0.021 1.06,0.062 0.422,0.042 0.873,0.148 1.348,0.312 0.478,0.165 0.951,0.4 1.415,0.712 0.473,0.31 0.89,0.736 1.261,1.272 0.371,0.536 0.677,1.205 0.913,2.009 0.237,0.804 0.357,1.774 0.357,2.915 0,1.106 -0.112,2.095 -0.332,2.969 -0.218,0.872 -0.58,1.616 -1.085,2.228 -0.5,0.615 -1.151,1.082 -1.943,1.401 -0.8,0.32 -1.776,0.481 -2.94,0.481 H -4.183 V 0 Z m -0.213,16.432 c 2.913,0 5.154,-0.725 6.728,-2.176 C 8.083,12.805 8.872,10.591 8.872,7.62 8.872,6.066 8.695,4.686 8.341,3.485 7.988,2.285 7.441,1.271 6.699,0.451 5.958,-0.367 5.015,-0.996 3.866,-1.428 2.718,-1.858 1.359,-2.073 -0.213,-2.073 H -6.7 v 18.505 z"
           style="fill:#000000;fill-opacity:1;fill-rule:nonzero;stroke:none;stroke-linecap:round;stroke-linejoin:round;stroke-miterlimit:10"
           id="path5062"
           inkscape:connector-curvature="0" />
      </g>
      <g
         id="g5064"
         transform="matrix(0.15602093,0,0,-0.15602093,414.36604,266.86923)"
         style="display:inline;fill:#000000;fill-opacity:1">
        <path
           d="m 0,0 v -2.07 h -10.541 v -5.886 h 9.824 v -2.075 h -9.824 v -6.401 H 0.078 v -2.073 H -13.055 V 0 Z"
           style="fill:#000000;fill-opacity:1;fill-rule:nonzero;stroke:none;stroke-linecap:round;stroke-linejoin:round;stroke-miterlimit:10"
           id="path5066"
           inkscape:connector-curvature="0" />
      </g>
      <g
         id="g5068"
         transform="matrix(0.15602093,0,0,-0.15602093,415.63418,266.86923)"
         style="display:inline;fill:#000000;fill-opacity:1">
        <path
           d="m 0,0 v -16.432 h 10.009 v -2.073 H -2.518 V 0 Z"
           style="fill:#000000;fill-opacity:1;fill-rule:nonzero;stroke:none;stroke-linecap:round;stroke-linejoin:round;stroke-miterlimit:10"
           id="path5070"
           inkscape:connector-curvature="0" />
      </g>
      <g
         id="g5072"
         transform="matrix(0.15602093,0,0,-0.15602093,419.30326,269.43291)"
         style="display:inline;fill:#000000;fill-opacity:1">
        <path
           d="m 0,0 c 1.113,0 1.982,0.292 2.609,0.88 0.625,0.586 0.94,1.401 0.94,2.437 0,0.604 -0.116,1.106 -0.345,1.503 C 2.975,5.219 2.668,5.531 2.29,5.767 1.911,5.998 1.475,6.162 0.979,6.259 0.484,6.352 -0.027,6.4 -0.556,6.4 H -6.304 V 0 Z m -1.271,8.476 c 1.428,0 2.458,0.246 3.085,0.737 0.626,0.493 0.941,1.231 0.941,2.216 0,0.656 -0.109,1.175 -0.318,1.558 -0.211,0.38 -0.504,0.675 -0.876,0.881 -0.371,0.206 -0.797,0.34 -1.285,0.4 -0.484,0.059 -1,0.093 -1.547,0.093 H -6.304 V 8.476 Z m -0.69,7.956 c 0.406,0 0.844,-0.004 1.311,-0.012 0.469,-0.007 0.931,-0.035 1.392,-0.08 C 1.2,16.299 1.627,16.235 2.027,16.146 2.423,16.062 2.763,15.933 3.043,15.76 3.663,15.397 4.188,14.896 4.621,14.256 5.054,13.615 5.27,12.829 5.27,11.897 5.27,10.911 5.027,10.059 4.54,9.343 4.056,8.627 3.363,8.097 2.462,7.748 V 7.695 C 3.629,7.455 4.517,6.937 5.137,6.141 5.754,5.347 6.064,4.381 6.064,3.238 6.064,2.565 5.939,1.908 5.695,1.268 5.445,0.63 5.079,0.062 4.595,-0.429 4.108,-0.922 3.51,-1.319 2.794,-1.623 2.079,-1.925 1.253,-2.073 0.319,-2.073 h -9.137 v 18.505 z"
           style="fill:#000000;fill-opacity:1;fill-rule:nonzero;stroke:none;stroke-linecap:round;stroke-linejoin:round;stroke-miterlimit:10"
           id="path5074"
           inkscape:connector-curvature="0" />
      </g>
      <g
         id="g5076"
         transform="matrix(0.15602093,0,0,-0.15602093,422.61688,268.17941)"
         style="display:inline;fill:#000000;fill-opacity:1">
        <path
           d="m 0,0 c 0.529,0.088 0.995,0.256 1.393,0.504 0.395,0.253 0.713,0.59 0.951,1.013 0.239,0.424 0.359,0.97 0.359,1.645 0,0.934 -0.265,1.694 -0.798,2.28 C 1.379,6.032 0.52,6.327 -0.661,6.327 H -6.91 v -6.455 h 5.242 c 0.58,0 1.136,0.042 1.668,0.128 M -0.532,8.397 C 1.272,8.397 2.681,7.968 3.692,7.102 4.711,6.239 5.216,5.056 5.216,3.553 5.216,2.428 4.955,1.443 4.435,0.597 3.916,-0.25 3.081,-0.832 1.935,-1.142 v -0.052 c 0.547,-0.101 0.993,-0.274 1.336,-0.516 0.344,-0.242 0.618,-0.533 0.821,-0.869 0.203,-0.338 0.354,-0.713 0.45,-1.13 0.098,-0.412 0.173,-0.847 0.225,-1.293 0.035,-0.45 0.062,-0.91 0.079,-1.374 0.019,-0.467 0.063,-0.926 0.131,-1.374 0.074,-0.45 0.172,-0.879 0.306,-1.284 0.135,-0.405 0.333,-0.762 0.596,-1.073 H 3.072 c -0.176,0.188 -0.296,0.446 -0.356,0.774 -0.064,0.328 -0.102,0.695 -0.121,1.104 -0.018,0.405 -0.034,0.839 -0.052,1.307 -0.017,0.467 -0.069,0.926 -0.16,1.375 -0.07,0.448 -0.16,0.878 -0.264,1.281 -0.107,0.409 -0.275,0.763 -0.502,1.065 -0.229,0.302 -0.53,0.546 -0.902,0.727 -0.371,0.18 -0.864,0.27 -1.484,0.27 H -6.91 v -7.903 H -9.429 V 8.397 Z"
           style="fill:#000000;fill-opacity:1;fill-rule:nonzero;stroke:none;stroke-linecap:round;stroke-linejoin:round;stroke-miterlimit:10"
           id="path5078"
           inkscape:connector-curvature="0" />
      </g>
      <path
         d="m 426.10834,267.32031 h -0.37164 v -0.42048 h 0.37164 z m -0.77667,0 h -0.37212 v -0.42048 h 0.37212 z m 1.08652,2.22408 c -0.20095,0.18441 -0.48803,0.27709 -0.85967,0.27709 -0.38022,0 -0.67682,-0.0883 -0.89025,-0.26492 -0.21344,-0.17662 -0.32016,-0.4573 -0.32016,-0.84314 v -1.84417 h 0.39224 v 1.84417 c 0,0.25868 0.0702,0.45464 0.21094,0.58804 0.14026,0.1334 0.34308,0.20065 0.60723,0.20065 0.25073,0 0.44154,-0.0673 0.57244,-0.20065 0.13075,-0.1334 0.19627,-0.32936 0.19627,-0.58804 v -1.84417 h 0.3924 v 1.84417 c 0,0.3693 -0.10063,0.64639 -0.30144,0.83097"
         style="display:inline;fill:#000000;fill-opacity:1;fill-rule:nonzero;stroke:none;stroke-width:0.15602092;stroke-linecap:round;stroke-linejoin:round;stroke-miterlimit:10"
         id="path5080"
         inkscape:connector-curvature="0" />
      <g
         id="g5082"
         transform="matrix(0.15602093,0,0,-0.15602093,429.51928,267.27757)"
         style="display:inline;fill:#000000;fill-opacity:1">
        <path
           d="m 0,0 c -0.965,0.658 -2.104,0.985 -3.431,0.985 -1.13,0 -2.097,-0.208 -2.898,-0.622 -0.806,-0.416 -1.465,-0.971 -1.987,-1.671 -0.52,-0.7 -0.903,-1.499 -1.151,-2.396 -0.248,-0.901 -0.375,-1.833 -0.375,-2.802 0,-1.053 0.127,-2.053 0.375,-2.996 0.248,-0.937 0.631,-1.761 1.151,-2.459 0.522,-0.699 1.185,-1.26 2.001,-1.673 0.809,-0.416 1.78,-0.624 2.913,-0.624 0.829,0 1.565,0.136 2.211,0.403 0.643,0.267 1.199,0.638 1.667,1.114 0.468,0.476 0.835,1.042 1.099,1.698 0.266,0.656 0.425,1.365 0.478,2.127 h 2.513 c -0.245,-2.333 -1.065,-4.148 -2.461,-5.443 -1.396,-1.298 -3.301,-1.946 -5.721,-1.946 -1.462,0 -2.746,0.246 -3.841,0.739 -1.096,0.494 -2.002,1.171 -2.727,2.036 -0.722,0.862 -1.267,1.882 -1.626,3.057 -0.362,1.176 -0.543,2.437 -0.543,3.786 0,1.348 0.194,2.612 0.582,3.797 0.387,1.183 0.958,2.216 1.707,3.1 0.751,0.88 1.684,1.574 2.808,2.085 1.12,0.51 2.404,0.764 3.854,0.764 0.986,0 1.923,-0.128 2.805,-0.39 C 0.287,2.413 1.072,2.029 1.76,1.529 2.449,1.028 3.021,0.403 3.483,-0.351 3.942,-1.102 4.241,-1.968 4.381,-2.954 H 1.865 C 1.585,-1.642 0.962,-0.656 0,0"
           style="fill:#000000;fill-opacity:1;fill-rule:nonzero;stroke:none;stroke-linecap:round;stroke-linejoin:round;stroke-miterlimit:10"
           id="path5084"
           inkscape:connector-curvature="0" />
      </g>
      <g
         id="g5086"
         transform="matrix(0.15602093,0,0,-0.15602093,431.50047,266.86923)"
         style="display:inline;fill:#000000;fill-opacity:1">
        <path
           d="M 0,0 V -9.229 L 9.586,0 h 3.259 L 4.872,-7.464 13.161,-18.505 H 9.983 L 3.15,-9.149 0,-12.025 v -6.48 H -2.519 V 0 Z"
           style="fill:#000000;fill-opacity:1;fill-rule:nonzero;stroke:none;stroke-linecap:round;stroke-linejoin:round;stroke-miterlimit:10"
           id="path5088"
           inkscape:connector-curvature="0" />
      </g>
      <g
         id="g5090"
         transform="matrix(0.15602093,0,0,-0.15602093,438.14491,267.27757)"
         style="display:inline;fill:#000000;fill-opacity:1">
        <path
           d="m 0,0 c -0.965,0.658 -2.105,0.985 -3.432,0.985 -1.13,0 -2.095,-0.208 -2.899,-0.622 -0.805,-0.416 -1.465,-0.971 -1.987,-1.671 -0.519,-0.7 -0.905,-1.499 -1.15,-2.396 -0.251,-0.901 -0.373,-1.833 -0.373,-2.802 0,-1.053 0.122,-2.053 0.373,-2.996 0.245,-0.937 0.631,-1.761 1.15,-2.459 0.522,-0.699 1.187,-1.26 2.001,-1.673 0.811,-0.416 1.781,-0.624 2.915,-0.624 0.828,0 1.565,0.136 2.21,0.403 0.643,0.267 1.2,0.638 1.667,1.114 0.468,0.476 0.835,1.042 1.098,1.698 0.265,0.656 0.422,1.365 0.477,2.127 h 2.514 c -0.244,-2.333 -1.067,-4.148 -2.46,-5.443 -1.396,-1.298 -3.302,-1.946 -5.72,-1.946 -1.466,0 -2.744,0.246 -3.841,0.739 -1.095,0.494 -2.002,1.171 -2.727,2.036 -0.724,0.862 -1.268,1.882 -1.629,3.057 -0.362,1.176 -0.542,2.437 -0.542,3.786 0,1.348 0.192,2.612 0.583,3.797 0.385,1.183 0.957,2.216 1.706,3.1 0.751,0.88 1.686,1.574 2.807,2.085 1.122,0.51 2.407,0.764 3.857,0.764 0.984,0 1.923,-0.128 2.804,-0.39 C 0.284,2.413 1.07,2.029 1.76,1.529 2.447,1.028 3.02,0.403 3.479,-0.351 3.942,-1.102 4.24,-1.968 4.379,-2.954 H 1.864 C 1.583,-1.642 0.961,-0.656 0,0"
           style="fill:#000000;fill-opacity:1;fill-rule:nonzero;stroke:none;stroke-linecap:round;stroke-linejoin:round;stroke-miterlimit:10"
           id="path5092"
           inkscape:connector-curvature="0" />
      </g>
      <g
         id="g5094"
         transform="matrix(0.15602093,0,0,-0.15602093,441.77013,266.86923)"
         style="display:inline;fill:#000000;fill-opacity:1">
        <path
           d="m 0,0 v -2.07 h -10.539 v -5.886 h 9.824 v -2.075 h -9.824 v -6.401 H 0.08 v -2.073 H -13.056 V 0 Z"
           style="fill:#000000;fill-opacity:1;fill-rule:nonzero;stroke:none;stroke-linecap:round;stroke-linejoin:round;stroke-miterlimit:10"
           id="path5096"
           inkscape:connector-curvature="0" />
      </g>
      <g
         id="g5098"
         transform="matrix(0.15602093,0,0,-0.15602093,443.05957,266.86923)"
         style="display:inline;fill:#000000;fill-opacity:1">
        <path
           d="m 0,0 9.956,-15.009 h 0.051 V 0 h 2.385 V -18.505 H 9.637 l -9.877,14.85 h -0.054 v -14.85 H -2.676 V 0 Z"
           style="fill:#000000;fill-opacity:1;fill-rule:nonzero;stroke:none;stroke-linecap:round;stroke-linejoin:round;stroke-miterlimit:10"
           id="path5100"
           inkscape:connector-curvature="0" />
      </g>
      <g
         id="g5102"
         transform="matrix(0.15602093,0,0,-0.15602093,445.70387,267.19224)"
         style="display:inline;fill:#000000;fill-opacity:1">
        <path
           d="M 0,0 V 2.07 H 15.121 V 0 H 8.816 V -16.435 H 6.303 V 0 Z"
           style="fill:#000000;fill-opacity:1;fill-rule:nonzero;stroke:none;stroke-linecap:round;stroke-linejoin:round;stroke-miterlimit:10"
           id="path5104"
           inkscape:connector-curvature="0" />
      </g>
      <g
         id="g5106"
         transform="matrix(0.15602093,0,0,-0.15602093,450.81477,266.86923)"
         style="display:inline;fill:#000000;fill-opacity:1">
        <path
           d="m 0,0 v -2.07 h -10.541 v -5.886 h 9.825 v -2.075 h -9.825 v -6.401 h 10.62 v -2.073 H -13.056 V 0 Z"
           style="fill:#000000;fill-opacity:1;fill-rule:nonzero;stroke:none;stroke-linecap:round;stroke-linejoin:round;stroke-miterlimit:10"
           id="path5108"
           inkscape:connector-curvature="0" />
      </g>
      <g
         id="g5110"
         transform="matrix(0.15602093,0,0,-0.15602093,453.16163,268.17941)"
         style="display:inline;fill:#000000;fill-opacity:1">
        <path
           d="m 0,0 c 0.528,0.088 0.994,0.256 1.389,0.504 0.397,0.253 0.715,0.59 0.955,1.013 0.236,0.424 0.355,0.97 0.355,1.645 0,0.934 -0.262,1.694 -0.794,2.28 -0.528,0.59 -1.385,0.885 -2.568,0.885 h -6.249 v -6.455 h 5.244 C -1.088,-0.128 -0.53,-0.086 0,0 M -0.53,8.397 C 1.271,8.397 2.678,7.968 3.693,7.102 4.709,6.239 5.217,5.056 5.217,3.553 5.217,2.428 4.956,1.443 4.435,0.597 3.916,-0.25 3.079,-0.832 1.932,-1.142 v -0.052 c 0.549,-0.101 0.994,-0.274 1.339,-0.516 0.341,-0.242 0.618,-0.533 0.819,-0.869 0.204,-0.338 0.353,-0.713 0.45,-1.13 0.098,-0.412 0.173,-0.847 0.227,-1.293 0.034,-0.45 0.06,-0.91 0.079,-1.374 0.017,-0.467 0.059,-0.926 0.132,-1.374 0.071,-0.45 0.173,-0.879 0.305,-1.284 0.133,-0.405 0.33,-0.762 0.595,-1.073 H 3.069 c -0.175,0.188 -0.294,0.446 -0.354,0.774 -0.063,0.328 -0.104,0.695 -0.121,1.104 -0.017,0.405 -0.032,0.839 -0.05,1.307 -0.02,0.467 -0.071,0.926 -0.159,1.375 -0.072,0.448 -0.16,0.878 -0.268,1.281 -0.105,0.409 -0.273,0.763 -0.502,1.065 -0.23,0.302 -0.527,0.546 -0.9,0.727 -0.371,0.18 -0.865,0.27 -1.484,0.27 h -6.143 v -7.903 H -9.43 V 8.397 Z"
           style="fill:#000000;fill-opacity:1;fill-rule:nonzero;stroke:none;stroke-linecap:round;stroke-linejoin:round;stroke-miterlimit:10"
           id="path5112"
           inkscape:connector-curvature="0" />
      </g>
      <g
         id="g5114"
         transform="matrix(0.15602093,0,0,-0.15602093,398.89347,272.2614)"
         style="display:inline;fill:#000000;fill-opacity:1">
        <path
           d="m 0,0 v -2.074 h -9.899 v -5.883 h 8.686 v -2.077 h -8.686 v -8.476 h -2.517 V 0 Z"
           style="fill:#000000;fill-opacity:1;fill-rule:nonzero;stroke:none;stroke-linecap:round;stroke-linejoin:round;stroke-miterlimit:10"
           id="path5116"
           inkscape:connector-curvature="0" />
      </g>
      <g
         id="g5118"
         transform="matrix(0.15602093,0,0,-0.15602093,399.6955,274.1358)"
         style="display:inline;fill:#000000;fill-opacity:1">
        <path
           d="m 0,0 c 0.246,-0.909 0.636,-1.724 1.165,-2.451 0.53,-0.728 1.21,-1.308 2.039,-1.751 0.829,-0.441 1.819,-0.66 2.967,-0.66 1.147,0 2.136,0.219 2.966,0.66 0.828,0.443 1.508,1.023 2.04,1.751 0.529,0.727 0.916,1.542 1.165,2.451 0.246,0.904 0.368,1.828 0.368,2.758 0,0.933 -0.122,1.853 -0.368,2.763 -0.249,0.906 -0.636,1.721 -1.165,2.448 -0.532,0.725 -1.212,1.308 -2.04,1.748 -0.83,0.442 -1.819,0.662 -2.966,0.662 -1.148,0 -2.138,-0.22 -2.967,-0.662 C 2.375,9.277 1.695,8.694 1.165,7.969 0.636,7.242 0.246,6.427 0,5.521 -0.246,4.611 -0.371,3.691 -0.371,2.758 -0.371,1.828 -0.246,0.904 0,0 m -2.317,6.402 c 0.379,1.164 0.95,2.196 1.71,3.097 0.757,0.897 1.702,1.615 2.832,2.152 1.129,0.535 2.443,0.803 3.946,0.803 1.5,0 2.814,-0.268 3.944,-0.803 1.13,-0.537 2.077,-1.255 2.834,-2.152 0.763,-0.901 1.33,-1.933 1.709,-3.097 0.382,-1.167 0.571,-2.382 0.571,-3.644 0,-1.263 -0.189,-2.474 -0.571,-3.64 -0.379,-1.167 -0.946,-2.199 -1.709,-3.098 -0.757,-0.9 -1.704,-1.612 -2.834,-2.138 -1.13,-0.528 -2.444,-0.792 -3.944,-0.792 -1.503,0 -2.817,0.264 -3.946,0.792 -1.13,0.526 -2.075,1.238 -2.832,2.138 -0.76,0.899 -1.331,1.931 -1.71,3.098 -0.38,1.166 -0.57,2.377 -0.57,3.64 0,1.262 0.19,2.477 0.57,3.644"
           style="fill:#000000;fill-opacity:1;fill-rule:nonzero;stroke:none;stroke-linecap:round;stroke-linejoin:round;stroke-miterlimit:10"
           id="path5120"
           inkscape:connector-curvature="0" />
      </g>
      <g
         id="g5122"
         transform="matrix(0.15602093,0,0,-0.15602093,404.10462,273.57204)"
         style="display:inline;fill:#000000;fill-opacity:1">
        <path
           d="m 0,0 c 0.529,0.087 0.989,0.256 1.386,0.506 0.399,0.25 0.716,0.59 0.955,1.012 0.237,0.424 0.356,0.971 0.356,1.645 0,0.934 -0.263,1.695 -0.794,2.281 C 1.374,6.032 0.518,6.326 -0.666,6.326 H -6.915 V -0.13 h 5.244 C -1.088,-0.13 -0.533,-0.086 0,0 M -0.533,8.4 C 1.269,8.4 2.674,7.966 3.691,7.103 4.705,6.239 5.213,5.055 5.213,3.551 5.213,2.429 4.955,1.443 4.434,0.598 3.911,-0.249 3.078,-0.83 1.93,-1.14 V -1.193 C 2.477,-1.296 2.926,-1.468 3.269,-1.71 3.612,-1.951 3.886,-2.241 4.088,-2.579 4.292,-2.915 4.443,-3.291 4.54,-3.707 4.637,-4.12 4.711,-4.555 4.766,-5.002 4.8,-5.45 4.825,-5.91 4.843,-6.376 4.86,-6.842 4.906,-7.3 4.976,-7.752 c 0.07,-0.447 0.172,-0.876 0.305,-1.281 0.13,-0.405 0.328,-0.766 0.598,-1.076 H 3.07 c -0.176,0.19 -0.298,0.449 -0.361,0.778 -0.061,0.326 -0.1,0.693 -0.117,1.103 -0.017,0.405 -0.036,0.841 -0.054,1.305 -0.017,0.469 -0.071,0.927 -0.157,1.375 -0.072,0.451 -0.159,0.88 -0.266,1.284 -0.103,0.407 -0.271,0.761 -0.503,1.064 -0.228,0.303 -0.528,0.546 -0.899,0.727 -0.371,0.18 -0.866,0.27 -1.484,0.27 h -6.144 v -7.906 H -9.431 V 8.4 Z"
           style="fill:#000000;fill-opacity:1;fill-rule:nonzero;stroke:none;stroke-linecap:round;stroke-linejoin:round;stroke-miterlimit:10"
           id="path5124"
           inkscape:connector-curvature="0" />
      </g>
      <g
         id="g5126"
         transform="matrix(0.15602093,0,0,-0.15602093,407.42038,272.2614)"
         style="display:inline;fill:#000000;fill-opacity:1">
        <path
           d="M 0,0 5.956,-15.555 11.943,0 h 3.444 V -18.51 H 13.002 V -3.111 H 12.947 L 7.043,-18.51 H 4.898 L -1.01,-3.111 H -1.061 V -18.51 H -3.443 V 0 Z"
           style="fill:#000000;fill-opacity:1;fill-rule:nonzero;stroke:none;stroke-linecap:round;stroke-linejoin:round;stroke-miterlimit:10"
           id="path5128"
           inkscape:connector-curvature="0" />
      </g>
      <g
         id="g5130"
         transform="matrix(0.15602093,0,0,-0.15602093,410.84125,274.1358)"
         style="display:inline;fill:#000000;fill-opacity:1">
        <path
           d="m 0,0 c 0.245,-0.909 0.636,-1.724 1.164,-2.451 0.529,-0.728 1.213,-1.308 2.039,-1.751 0.833,-0.441 1.82,-0.66 2.967,-0.66 1.149,0 2.137,0.219 2.966,0.66 0.831,0.443 1.511,1.023 2.042,1.751 0.527,0.727 0.914,1.542 1.165,2.451 0.245,0.904 0.37,1.828 0.37,2.758 0,0.933 -0.125,1.853 -0.37,2.763 C 12.092,6.427 11.705,7.242 11.178,7.969 10.647,8.694 9.967,9.277 9.136,9.717 8.307,10.159 7.319,10.379 6.17,10.379 5.023,10.379 4.036,10.159 3.203,9.717 2.377,9.277 1.693,8.694 1.164,7.969 0.636,7.242 0.245,6.427 0,5.521 -0.248,4.611 -0.369,3.691 -0.369,2.758 -0.369,1.828 -0.248,0.904 0,0 m -2.317,6.402 c 0.379,1.164 0.95,2.196 1.709,3.097 0.759,0.897 1.704,1.615 2.833,2.152 1.129,0.535 2.443,0.803 3.945,0.803 1.5,0 2.816,-0.268 3.947,-0.803 1.13,-0.537 2.071,-1.255 2.832,-2.152 0.762,-0.901 1.33,-1.933 1.709,-3.097 0.38,-1.167 0.572,-2.382 0.572,-3.644 0,-1.263 -0.192,-2.474 -0.572,-3.64 C 14.279,-2.049 13.711,-3.081 12.949,-3.98 12.188,-4.88 11.247,-5.592 10.117,-6.118 8.986,-6.646 7.67,-6.91 6.17,-6.91 c -1.502,0 -2.816,0.264 -3.945,0.792 -1.129,0.526 -2.074,1.238 -2.833,2.138 -0.759,0.899 -1.33,1.931 -1.709,3.098 -0.38,1.166 -0.57,2.377 -0.57,3.64 0,1.262 0.19,2.477 0.57,3.644"
           style="fill:#000000;fill-opacity:1;fill-rule:nonzero;stroke:none;stroke-linecap:round;stroke-linejoin:round;stroke-miterlimit:10"
           id="path5132"
           inkscape:connector-curvature="0" />
      </g>
      <g
         id="g5134"
         transform="matrix(0.15602093,0,0,-0.15602093,414.1718,272.2614)"
         style="display:inline;fill:#000000;fill-opacity:1">
        <path
           d="M 0,0 V -16.434 H 10.008 V -18.51 H -2.52 V 0 Z"
           style="fill:#000000;fill-opacity:1;fill-rule:nonzero;stroke:none;stroke-linecap:round;stroke-linejoin:round;stroke-miterlimit:10"
           id="path5136"
           inkscape:connector-curvature="0" />
      </g>
      <g
         id="g5138"
         transform="matrix(0.15602093,0,0,-0.15602093,418.19572,272.2614)"
         style="display:inline;fill:#000000;fill-opacity:1">
        <path
           d="m 0,0 v -2.074 h -10.539 v -5.883 h 9.824 v -2.077 h -9.824 v -6.4 H 0.081 V -18.51 H -13.057 V 0 Z"
           style="fill:#000000;fill-opacity:1;fill-rule:nonzero;stroke:none;stroke-linecap:round;stroke-linejoin:round;stroke-miterlimit:10"
           id="path5140"
           inkscape:connector-curvature="0" />
      </g>
      <g
         id="g5142"
         transform="matrix(0.15602093,0,0,-0.15602093,420.54898,272.67019)"
         style="display:inline;fill:#000000;fill-opacity:1">
        <path
           d="m 0,0 c -0.963,0.657 -2.105,0.985 -3.431,0.985 -1.13,0 -2.095,-0.206 -2.898,-0.62 -0.806,-0.417 -1.466,-0.971 -1.986,-1.671 -0.521,-0.703 -0.906,-1.502 -1.152,-2.399 -0.25,-0.899 -0.372,-1.831 -0.372,-2.801 0,-1.052 0.122,-2.05 0.372,-2.994 0.246,-0.939 0.631,-1.761 1.152,-2.46 0.52,-0.7 1.186,-1.261 2,-1.674 0.81,-0.414 1.783,-0.622 2.91,-0.622 0.831,0 1.569,0.135 2.215,0.402 0.641,0.267 1.199,0.637 1.668,1.114 0.464,0.476 0.833,1.041 1.099,1.697 0.262,0.658 0.421,1.365 0.474,2.128 h 2.517 c -0.248,-2.332 -1.069,-4.148 -2.464,-5.444 -1.394,-1.296 -3.301,-1.945 -5.719,-1.945 -1.465,0 -2.746,0.246 -3.84,0.738 -1.096,0.492 -2.003,1.17 -2.727,2.034 -0.723,0.865 -1.267,1.886 -1.629,3.06 -0.363,1.174 -0.543,2.439 -0.543,3.785 0,1.35 0.194,2.612 0.582,3.797 0.387,1.184 0.957,2.215 1.709,3.101 0.75,0.879 1.686,1.574 2.809,2.085 1.121,0.51 2.402,0.765 3.849,0.765 0.99,0 1.926,-0.128 2.808,-0.39 C 0.287,2.414 1.073,2.031 1.762,1.529 2.449,1.029 3.023,0.404 3.481,-0.35 3.939,-1.1 4.242,-1.968 4.383,-2.953 H 1.865 C 1.586,-1.641 0.959,-0.657 0,0"
           style="fill:#000000;fill-opacity:1;fill-rule:nonzero;stroke:none;stroke-linecap:round;stroke-linejoin:round;stroke-miterlimit:10"
           id="path5144"
           inkscape:connector-curvature="0" />
      </g>
      <g
         id="g5146"
         transform="matrix(0.15602093,0,0,-0.15602093,423.88485,274.93693)"
         style="display:inline;fill:#000000;fill-opacity:1">
        <path
           d="m 0,0 c -1.287,-1.185 -3.123,-1.775 -5.506,-1.775 -2.435,0 -4.336,0.564 -5.706,1.698 -1.367,1.132 -2.055,2.932 -2.055,5.404 v 11.821 h 2.519 V 5.327 c 0,-1.66 0.447,-2.916 1.349,-3.77 0.903,-0.855 2.198,-1.285 3.893,-1.285 1.608,0 2.832,0.43 3.667,1.285 0.841,0.854 1.26,2.11 1.26,3.77 V 17.148 H 1.938 V 5.327 C 1.938,2.959 1.289,1.183 0,0"
           style="fill:#000000;fill-opacity:1;fill-rule:nonzero;stroke:none;stroke-linecap:round;stroke-linejoin:round;stroke-miterlimit:10"
           id="path5148"
           inkscape:connector-curvature="0" />
      </g>
      <g
         id="g5150"
         transform="matrix(0.15602093,0,0,-0.15602093,425.2901,272.2614)"
         style="display:inline;fill:#000000;fill-opacity:1">
        <path
           d="M 0,0 V -16.434 H 10.009 V -18.51 H -2.515 V 0 Z"
           style="fill:#000000;fill-opacity:1;fill-rule:nonzero;stroke:none;stroke-linecap:round;stroke-linejoin:round;stroke-miterlimit:10"
           id="path5152"
           inkscape:connector-curvature="0" />
      </g>
      <g
         id="g5154"
         transform="matrix(0.15602093,0,0,-0.15602093,428.78579,273.95601)"
         style="display:inline;fill:#000000;fill-opacity:1">
        <path
           d="M 0,0 -3.151,8.633 H -3.205 L -6.41,0 Z M -1.748,10.861 5.639,-7.648 H 2.858 l -2.065,5.574 h -7.996 l -2.12,-5.574 h -2.568 l 7.363,18.509 z"
           style="fill:#000000;fill-opacity:1;fill-rule:nonzero;stroke:none;stroke-linecap:round;stroke-linejoin:round;stroke-miterlimit:10"
           id="path5156"
           inkscape:connector-curvature="0" />
      </g>
      <g
         id="g5158"
         transform="matrix(0.15602093,0,0,-0.15602093,431.50855,273.57204)"
         style="display:inline;fill:#000000;fill-opacity:1">
        <path
           d="m 0,0 c 0.53,0.087 0.994,0.256 1.39,0.506 0.396,0.25 0.714,0.59 0.954,1.012 0.238,0.424 0.357,0.971 0.357,1.645 0,0.934 -0.265,1.695 -0.794,2.281 -0.529,0.588 -1.386,0.882 -2.57,0.882 H -6.912 V -0.13 h 5.244 C -1.086,-0.13 -0.529,-0.086 0,0 M -0.529,8.4 C 1.271,8.4 2.68,7.966 3.693,7.103 4.708,6.239 5.216,5.055 5.216,3.551 5.216,2.429 4.955,1.443 4.436,0.598 3.917,-0.249 3.08,-0.83 1.933,-1.14 V -1.193 C 2.48,-1.296 2.927,-1.468 3.271,-1.71 3.613,-1.951 3.889,-2.241 4.091,-2.579 4.296,-2.915 4.444,-3.291 4.54,-3.707 4.638,-4.12 4.714,-4.555 4.766,-5.002 4.801,-5.45 4.827,-5.91 4.847,-6.376 4.863,-6.842 4.906,-7.3 4.977,-7.752 5.048,-8.199 5.149,-8.628 5.283,-9.033 5.417,-9.438 5.615,-9.799 5.879,-10.109 H 3.072 c -0.178,0.19 -0.296,0.449 -0.356,0.778 -0.063,0.326 -0.104,0.693 -0.12,1.103 -0.018,0.405 -0.035,0.841 -0.053,1.305 -0.019,0.469 -0.07,0.927 -0.158,1.375 -0.074,0.451 -0.161,0.88 -0.267,1.284 -0.105,0.407 -0.273,0.761 -0.502,1.064 -0.23,0.303 -0.529,0.546 -0.901,0.727 -0.37,0.18 -0.865,0.27 -1.482,0.27 h -6.145 v -7.906 H -9.43 V 8.4 Z"
           style="fill:#000000;fill-opacity:1;fill-rule:nonzero;stroke:none;stroke-linecap:round;stroke-linejoin:round;stroke-miterlimit:10"
           id="path5160"
           inkscape:connector-curvature="0" />
      </g>
      <g
         id="g5162"
         transform="matrix(0.15602093,0,0,-0.15602093,434.8246,272.2614)"
         style="display:inline;fill:#000000;fill-opacity:1">
        <path
           d="M 0,0 5.959,-15.555 11.945,0 h 3.443 V -18.51 H 13.004 V -3.111 H 12.949 L 7.044,-18.51 H 4.9 L -1.003,-3.111 H -1.057 V -18.51 H -3.442 V 0 Z"
           style="fill:#000000;fill-opacity:1;fill-rule:nonzero;stroke:none;stroke-linecap:round;stroke-linejoin:round;stroke-miterlimit:10"
           id="path5164"
           inkscape:connector-curvature="0" />
      </g>
      <g
         id="g5166"
         transform="matrix(0.15602093,0,0,-0.15602093,439.99797,272.2614)"
         style="display:inline;fill:#000000;fill-opacity:1">
        <path
           d="m 0,0 v -2.074 h -10.539 v -5.883 h 9.825 v -2.077 h -9.825 v -6.4 H 0.077 V -18.51 H -13.058 V 0 Z"
           style="fill:#000000;fill-opacity:1;fill-rule:nonzero;stroke:none;stroke-linecap:round;stroke-linejoin:round;stroke-miterlimit:10"
           id="path5168"
           inkscape:connector-curvature="0" />
      </g>
      <g
         id="g5170"
         transform="matrix(0.15602093,0,0,-0.15602093,441.61304,274.82539)"
         style="display:inline;fill:#000000;fill-opacity:1">
        <path
           d="m 0,0 c 0.282,0 0.636,0.021 1.061,0.062 0.422,0.043 0.873,0.148 1.352,0.312 0.475,0.165 0.948,0.4 1.415,0.713 0.469,0.31 0.889,0.732 1.259,1.269 0.372,0.539 0.673,1.207 0.912,2.01 0.237,0.803 0.358,1.776 0.358,2.917 0,1.105 -0.11,2.094 -0.332,2.967 -0.22,0.873 -0.58,1.617 -1.084,2.228 C 4.437,13.092 3.79,13.56 2.993,13.881 2.199,14.201 1.22,14.359 0.055,14.359 H -4.183 V 0 Z m -0.21,16.434 c 2.913,0 5.155,-0.728 6.727,-2.178 C 8.088,12.805 8.872,10.591 8.872,7.62 8.872,6.065 8.695,4.686 8.343,3.484 7.99,2.282 7.44,1.271 6.702,0.452 5.958,-0.366 5.017,-0.994 3.867,-1.43 2.72,-1.859 1.36,-2.076 -0.21,-2.076 h -6.489 v 18.51 z"
           style="fill:#000000;fill-opacity:1;fill-rule:nonzero;stroke:none;stroke-linecap:round;stroke-linejoin:round;stroke-miterlimit:10"
           id="path5172"
           inkscape:connector-curvature="0" />
      </g>
      <path
         d="m 443.96852,275.14928 h -0.39239 v -2.88795 h 0.39239 z"
         style="display:inline;fill:#000000;fill-opacity:1;fill-rule:nonzero;stroke:none;stroke-width:0.15602092;stroke-linecap:round;stroke-linejoin:round;stroke-miterlimit:10"
         id="path5174"
         inkscape:connector-curvature="0" />
      <g
         id="g5176"
         transform="matrix(0.15602093,0,0,-0.15602093,446.49524,272.67019)"
         style="display:inline;fill:#000000;fill-opacity:1">
        <path
           d="m 0,0 c -0.964,0.657 -2.107,0.985 -3.433,0.985 -1.129,0 -2.093,-0.206 -2.898,-0.62 -0.805,-0.417 -1.466,-0.971 -1.987,-1.671 -0.518,-0.703 -0.906,-1.502 -1.152,-2.399 -0.246,-0.899 -0.37,-1.831 -0.37,-2.801 0,-1.052 0.124,-2.05 0.37,-2.994 0.246,-0.939 0.634,-1.761 1.152,-2.46 0.521,-0.7 1.188,-1.261 2,-1.674 0.813,-0.414 1.784,-0.622 2.915,-0.622 0.829,0 1.564,0.135 2.211,0.402 0.642,0.267 1.201,0.637 1.669,1.114 0.465,0.476 0.834,1.041 1.098,1.697 0.266,0.658 0.422,1.365 0.475,2.128 h 2.515 c -0.244,-2.332 -1.067,-4.148 -2.461,-5.444 -1.398,-1.296 -3.3,-1.945 -5.721,-1.945 -1.466,0 -2.744,0.246 -3.837,0.738 -1.096,0.492 -2.006,1.17 -2.729,2.034 -0.726,0.865 -1.268,1.886 -1.63,3.06 -0.364,1.174 -0.543,2.439 -0.543,3.785 0,1.35 0.192,2.612 0.585,3.797 0.388,1.184 0.955,2.215 1.707,3.101 0.748,0.879 1.686,1.574 2.808,2.085 1.121,0.51 2.403,0.765 3.853,0.765 0.986,0 1.924,-0.128 2.804,-0.39 C 0.287,2.414 1.069,2.031 1.761,1.529 2.446,1.029 3.022,0.404 3.481,-0.35 3.94,-1.1 4.242,-1.968 4.382,-2.953 H 1.866 C 1.584,-1.641 0.959,-0.657 0,0"
           style="fill:#000000;fill-opacity:1;fill-rule:nonzero;stroke:none;stroke-linecap:round;stroke-linejoin:round;stroke-miterlimit:10"
           id="path5178"
           inkscape:connector-curvature="0" />
      </g>
      <path
         d="m 448.18717,275.14928 h -0.3927 v -2.88795 h 0.3927 z"
         style="display:inline;fill:#000000;fill-opacity:1;fill-rule:nonzero;stroke:none;stroke-width:0.15602092;stroke-linecap:round;stroke-linejoin:round;stroke-miterlimit:10"
         id="path5180"
         inkscape:connector-curvature="0" />
      <g
         id="g5182"
         transform="matrix(0.15602093,0,0,-0.15602093,449.34338,272.2614)"
         style="display:inline;fill:#000000;fill-opacity:1">
        <path
           d="m 0,0 9.959,-15.011 h 0.053 V 0 h 2.384 V -18.51 H 9.641 L -0.236,-3.656 H -0.291 V -18.51 H -2.676 V 0 Z"
           style="fill:#000000;fill-opacity:1;fill-rule:nonzero;stroke:none;stroke-linecap:round;stroke-linejoin:round;stroke-miterlimit:10"
           id="path5184"
           inkscape:connector-curvature="0" />
      </g>
      <g
         id="g5186"
         transform="matrix(0.15602093,0,0,-0.15602093,454.03315,272.2614)"
         style="display:inline;fill:#000000;fill-opacity:1">
        <path
           d="m 0,0 v -2.074 h -10.539 v -5.883 h 9.825 v -2.077 h -9.825 v -6.4 H 0.079 V -18.51 H -13.057 V 0 Z"
           style="fill:#000000;fill-opacity:1;fill-rule:nonzero;stroke:none;stroke-linecap:round;stroke-linejoin:round;stroke-miterlimit:10"
           id="path5188"
           inkscape:connector-curvature="0" />
      </g>
      <path
         d="m 397.24368,280.71034 h -0.3278 v -2.40631 h 0.3278 z"
         style="display:inline;fill:#000000;fill-opacity:1;fill-rule:nonzero;stroke:none;stroke-width:0.15602092;stroke-linecap:round;stroke-linejoin:round;stroke-miterlimit:10"
         id="path5190"
         inkscape:connector-curvature="0" />
      <g
         id="g5192"
         transform="matrix(0.15602093,0,0,-0.15602093,398.17628,278.30401)"
         style="display:inline;fill:#000000;fill-opacity:1">
        <path
           d="M 0,0 8.297,-12.508 H 8.343 V 0 h 1.985 V -15.423 H 8.034 l -8.231,12.378 h -0.042 v -12.378 h -1.99 V 0 Z"
           style="fill:#000000;fill-opacity:1;fill-rule:nonzero;stroke:none;stroke-linecap:round;stroke-linejoin:round;stroke-miterlimit:10"
           id="path5194"
           inkscape:connector-curvature="0" />
      </g>
      <g
         id="g5196"
         transform="matrix(0.15602093,0,0,-0.15602093,401.37944,278.57324)"
         style="display:inline;fill:#000000;fill-opacity:1">
        <path
           d="M 0,0 V 1.726 H 12.598 V 0 H 7.35 V -13.697 H 5.25 V 0 Z"
           style="fill:#000000;fill-opacity:1;fill-rule:nonzero;stroke:none;stroke-linecap:round;stroke-linejoin:round;stroke-miterlimit:10"
           id="path5198"
           inkscape:connector-curvature="0" />
      </g>
      <g
         id="g5200"
         transform="matrix(0.15602093,0,0,-0.15602093,403.98198,278.30401)"
         style="display:inline;fill:#000000;fill-opacity:1">
        <path
           d="M 0,0 V -6.63 H 8.3 V 0 h 2.096 V -15.423 H 8.3 v 7.066 H 0 v -7.066 H -2.094 V 0 Z"
           style="fill:#000000;fill-opacity:1;fill-rule:nonzero;stroke:none;stroke-linecap:round;stroke-linejoin:round;stroke-miterlimit:10"
           id="path5202"
           inkscape:connector-curvature="0" />
      </g>
      <g
         id="g5204"
         transform="matrix(0.15602093,0,0,-0.15602093,407.87625,278.30401)"
         style="display:inline;fill:#000000;fill-opacity:1">
        <path
           d="M 0,0 V -1.726 H -8.784 V -6.63 h 8.188 v -1.727 h -8.188 v -5.34 h 8.849 v -1.726 H -10.881 V 0 Z"
           style="fill:#000000;fill-opacity:1;fill-rule:nonzero;stroke:none;stroke-linecap:round;stroke-linejoin:round;stroke-miterlimit:10"
           id="path5206"
           inkscape:connector-curvature="0" />
      </g>
      <g
         id="g5208"
         transform="matrix(0.15602093,0,0,-0.15602093,409.93255,278.30401)"
         style="display:inline;fill:#000000;fill-opacity:1">
        <path
           d="M 0,0 V -6.63 H 8.299 V 0 h 2.095 V -15.423 H 8.299 v 7.066 H 0 v -7.066 H -2.097 V 0 Z"
           style="fill:#000000;fill-opacity:1;fill-rule:nonzero;stroke:none;stroke-linecap:round;stroke-linejoin:round;stroke-miterlimit:10"
           id="path5210"
           inkscape:connector-curvature="0" />
      </g>
      <g
         id="g5212"
         transform="matrix(0.15602093,0,0,-0.15602093,413.82653,278.30401)"
         style="display:inline;fill:#000000;fill-opacity:1">
        <path
           d="M 0,0 V -1.726 H -8.784 V -6.63 h 8.19 v -1.727 h -8.19 v -5.34 h 8.849 v -1.726 H -10.879 V 0 Z"
           style="fill:#000000;fill-opacity:1;fill-rule:nonzero;stroke:none;stroke-linecap:round;stroke-linejoin:round;stroke-miterlimit:10"
           id="path5214"
           inkscape:connector-curvature="0" />
      </g>
      <g
         id="g5216"
         transform="matrix(0.15602093,0,0,-0.15602093,414.59811,278.30401)"
         style="display:inline;fill:#000000;fill-opacity:1">
        <path
           d="m 0,0 v -13.697 h 8.339 v -1.726 H -2.101 V 0 Z"
           style="fill:#000000;fill-opacity:1;fill-rule:nonzero;stroke:none;stroke-linecap:round;stroke-linejoin:round;stroke-miterlimit:10"
           id="path5218"
           inkscape:connector-curvature="0" />
      </g>
      <g
         id="g5220"
         transform="matrix(0.15602093,0,0,-0.15602093,416.67786,278.30401)"
         style="display:inline;fill:#000000;fill-opacity:1">
        <path
           d="M 0,0 4.965,-12.958 9.953,0 H 12.82 V -15.423 H 10.832 V -2.591 H 10.788 L 5.868,-15.423 H 4.084 L -0.841,-2.591 H -0.884 V -15.423 H -2.87 V 0 Z"
           style="fill:#000000;fill-opacity:1;fill-rule:nonzero;stroke:none;stroke-linecap:round;stroke-linejoin:round;stroke-miterlimit:10"
           id="path5222"
           inkscape:connector-curvature="0" />
      </g>
      <g
         id="g5224"
         transform="matrix(0.15602093,0,0,-0.15602093,419.58727,278.30401)"
         style="display:inline;fill:#000000;fill-opacity:1">
        <path
           d="M 0,0 V -6.63 H 8.297 V 0 h 2.096 V -15.423 H 8.297 v 7.066 H 0 v -7.066 H -2.1 V 0 Z"
           style="fill:#000000;fill-opacity:1;fill-rule:nonzero;stroke:none;stroke-linecap:round;stroke-linejoin:round;stroke-miterlimit:10"
           id="path5226"
           inkscape:connector-curvature="0" />
      </g>
      <g
         id="g5228"
         transform="matrix(0.15602093,0,0,-0.15602093,422.02129,279.86621)"
         style="display:inline;fill:#000000;fill-opacity:1">
        <path
           d="m 0,0 c 0.203,-0.754 0.529,-1.436 0.972,-2.039 0.439,-0.607 1.007,-1.092 1.697,-1.458 0.692,-0.369 1.516,-0.554 2.472,-0.554 0.955,0 1.779,0.185 2.471,0.554 0.692,0.366 1.26,0.851 1.701,1.458 0.442,0.603 0.763,1.285 0.968,2.039 0.207,0.758 0.31,1.523 0.31,2.301 0,0.778 -0.103,1.546 -0.31,2.302 C 10.076,5.358 9.755,6.039 9.313,6.643 8.872,7.25 8.304,7.735 7.612,8.102 6.92,8.47 6.096,8.653 5.141,8.653 4.185,8.653 3.361,8.47 2.669,8.102 1.979,7.735 1.411,7.25 0.972,6.643 0.529,6.039 0.203,5.358 0,4.603 -0.207,3.847 -0.309,3.079 -0.309,2.301 -0.309,1.523 -0.207,0.758 0,0 m -1.931,5.337 c 0.317,0.972 0.791,1.833 1.426,2.583 0.627,0.748 1.418,1.346 2.36,1.79 0.941,0.447 2.036,0.669 3.286,0.669 1.252,0 2.347,-0.222 3.288,-0.669 0.945,-0.444 1.727,-1.042 2.363,-1.79 0.633,-0.75 1.105,-1.611 1.423,-2.583 0.318,-0.974 0.475,-1.985 0.475,-3.036 0,-1.05 -0.157,-2.061 -0.475,-3.036 -0.318,-0.972 -0.79,-1.832 -1.423,-2.579 -0.636,-0.75 -1.418,-1.344 -2.363,-1.783 -0.941,-0.439 -2.036,-0.659 -3.288,-0.659 -1.25,0 -2.345,0.22 -3.286,0.659 -0.942,0.439 -1.733,1.033 -2.36,1.783 -0.635,0.747 -1.109,1.607 -1.426,2.579 -0.316,0.975 -0.476,1.986 -0.476,3.036 0,1.051 0.16,2.062 0.476,3.036"
           style="fill:#000000;fill-opacity:1;fill-rule:nonzero;stroke:none;stroke-linecap:round;stroke-linejoin:round;stroke-miterlimit:10"
           id="path5230"
           inkscape:connector-curvature="0" />
      </g>
      <g
         id="g5232"
         transform="matrix(0.15602093,0,0,-0.15602093,424.76522,278.30401)"
         style="display:inline;fill:#000000;fill-opacity:1">
        <path
           d="m 0,0 v -13.697 h 8.343 v -1.726 H -2.095 V 0 Z"
           style="fill:#000000;fill-opacity:1;fill-rule:nonzero;stroke:none;stroke-linecap:round;stroke-linejoin:round;stroke-miterlimit:10"
           id="path5234"
           inkscape:connector-curvature="0" />
      </g>
      <g
         id="g5236"
         transform="matrix(0.15602093,0,0,-0.15602093,425.81257,278.57324)"
         style="display:inline;fill:#000000;fill-opacity:1">
        <path
           d="M 0,0 V 1.726 H 12.6 V 0 H 7.348 v -13.697 h -2.1 L 5.248,0 Z"
           style="fill:#000000;fill-opacity:1;fill-rule:nonzero;stroke:none;stroke-linecap:round;stroke-linejoin:round;stroke-miterlimit:10"
           id="path5238"
           inkscape:connector-curvature="0" />
      </g>
      <g
         id="g5240"
         transform="matrix(0.15602093,0,0,-0.15602093,429.4242,278.57324)"
         style="display:inline;fill:#000000;fill-opacity:1">
        <path
           d="M 0,0 H -9.049 V 1.726 H 2.471 V 0 l -9.774,-11.972 h 10.04 v -1.725 H -9.799 v 1.725 z"
           style="fill:#000000;fill-opacity:1;fill-rule:nonzero;stroke:none;stroke-linecap:round;stroke-linejoin:round;stroke-miterlimit:10"
           id="path5242"
           inkscape:connector-curvature="0" />
      </g>
      <g
         id="g5244"
         transform="matrix(0.15602093,0,0,-0.15602093,432.77134,279.71581)"
         style="display:inline;fill:#000000;fill-opacity:1">
        <path
           d="M 0,0 -2.623,7.191 H -2.668 L -5.339,0 Z M -1.457,9.049 4.701,-6.374 H 2.384 l -1.719,4.645 h -6.667 l -1.765,-4.645 h -2.138 l 6.134,15.423 z"
           style="fill:#000000;fill-opacity:1;fill-rule:nonzero;stroke:none;stroke-linecap:round;stroke-linejoin:round;stroke-miterlimit:10"
           id="path5246"
           inkscape:connector-curvature="0" />
      </g>
      <g
         id="g5248"
         transform="matrix(0.15602093,0,0,-0.15602093,435.01491,278.63252)"
         style="display:inline;fill:#000000;fill-opacity:1">
        <path
           d="m 0,0 c -0.7,0.497 -1.595,0.746 -2.685,0.746 -0.437,0 -0.873,-0.043 -1.298,-0.13 -0.43,-0.086 -0.808,-0.231 -1.137,-0.431 -0.332,-0.202 -0.6,-0.472 -0.796,-0.812 -0.198,-0.339 -0.296,-0.761 -0.296,-1.264 0,-0.472 0.143,-0.86 0.43,-1.156 0.287,-0.294 0.669,-0.534 1.146,-0.722 0.478,-0.188 1.021,-0.343 1.622,-0.465 0.606,-0.122 1.218,-0.255 1.843,-0.401 0.625,-0.141 1.239,-0.311 1.845,-0.505 0.601,-0.196 1.145,-0.46 1.619,-0.788 0.478,-0.332 0.861,-0.75 1.149,-1.256 0.287,-0.502 0.43,-1.136 0.43,-1.899 0,-0.821 -0.187,-1.521 -0.561,-2.107 -0.378,-0.583 -0.859,-1.056 -1.445,-1.423 -0.591,-0.368 -1.249,-0.638 -1.978,-0.802 -0.727,-0.162 -1.453,-0.248 -2.171,-0.248 -0.886,0 -1.718,0.111 -2.508,0.325 -0.787,0.214 -1.478,0.543 -2.073,0.982 -0.597,0.44 -1.067,1.002 -1.41,1.684 -0.35,0.685 -0.521,1.497 -0.521,2.431 h 1.985 c 0,-0.649 0.13,-1.205 0.388,-1.673 0.257,-0.469 0.594,-0.855 1.016,-1.157 0.418,-0.301 0.905,-0.525 1.467,-0.669 0.557,-0.146 1.129,-0.218 1.72,-0.218 0.47,0 0.945,0.044 1.425,0.133 0.477,0.085 0.906,0.231 1.29,0.441 0.382,0.208 0.691,0.494 0.927,0.854 0.234,0.359 0.355,0.819 0.355,1.384 0,0.531 -0.146,0.961 -0.434,1.292 -0.286,0.333 -0.668,0.603 -1.147,0.812 -0.477,0.208 -1.016,0.377 -1.622,0.508 -0.602,0.129 -1.218,0.263 -1.843,0.4 -0.623,0.134 -1.239,0.296 -1.84,0.476 -0.606,0.179 -1.146,0.418 -1.624,0.712 -0.48,0.295 -0.861,0.678 -1.147,1.145 -0.286,0.468 -0.431,1.054 -0.431,1.762 0,0.774 0.162,1.449 0.486,2.018 0.324,0.569 0.753,1.036 1.291,1.405 0.538,0.366 1.148,0.639 1.83,0.818 0.686,0.183 1.389,0.27 2.107,0.27 0.812,0 1.564,-0.092 2.252,-0.277 C 0.351,2.005 0.954,1.71 1.479,1.308 2,0.905 2.411,0.396 2.714,-0.215 3.016,-0.825 3.18,-1.559 3.211,-2.409 H 1.225 C 1.105,-1.299 0.699,-0.499 0,0"
           style="fill:#000000;fill-opacity:1;fill-rule:nonzero;stroke:none;stroke-linecap:round;stroke-linejoin:round;stroke-miterlimit:10"
           id="path5250"
           inkscape:connector-curvature="0" />
      </g>
      <g
         id="g5252"
         transform="matrix(0.15602093,0,0,-0.15602093,437.28391,278.63252)"
         style="display:inline;fill:#000000;fill-opacity:1">
        <path
           d="m 0,0 c -0.699,0.497 -1.596,0.746 -2.685,0.746 -0.439,0 -0.872,-0.043 -1.301,-0.13 C -4.413,0.53 -4.79,0.385 -5.12,0.185 c -0.333,-0.202 -0.599,-0.472 -0.796,-0.812 -0.197,-0.339 -0.297,-0.761 -0.297,-1.264 0,-0.472 0.145,-0.86 0.431,-1.156 0.285,-0.294 0.669,-0.534 1.147,-0.722 0.477,-0.188 1.02,-0.343 1.621,-0.465 0.606,-0.122 1.218,-0.255 1.843,-0.401 0.627,-0.141 1.24,-0.311 1.844,-0.505 0.602,-0.196 1.143,-0.46 1.62,-0.788 0.478,-0.332 0.86,-0.75 1.149,-1.256 0.287,-0.502 0.431,-1.136 0.431,-1.899 0,-0.821 -0.187,-1.521 -0.563,-2.107 -0.376,-0.583 -0.857,-1.056 -1.448,-1.423 -0.587,-0.368 -1.244,-0.638 -1.974,-0.802 -0.728,-0.162 -1.453,-0.248 -2.171,-0.248 -0.884,0 -1.721,0.111 -2.507,0.325 -0.789,0.214 -1.48,0.543 -2.073,0.982 -0.597,0.44 -1.068,1.002 -1.412,1.684 -0.348,0.685 -0.52,1.497 -0.52,2.431 h 1.985 c 0,-0.649 0.129,-1.205 0.388,-1.673 0.256,-0.469 0.595,-0.855 1.016,-1.157 0.418,-0.301 0.905,-0.525 1.468,-0.669 0.557,-0.146 1.129,-0.218 1.72,-0.218 0.47,0 0.945,0.044 1.423,0.133 0.478,0.085 0.907,0.231 1.292,0.441 0.38,0.208 0.69,0.494 0.926,0.854 0.233,0.359 0.352,0.819 0.352,1.384 0,0.531 -0.144,0.961 -0.43,1.292 -0.286,0.333 -0.67,0.603 -1.147,0.812 -0.478,0.208 -1.018,0.377 -1.623,0.508 -0.602,0.129 -1.218,0.263 -1.842,0.4 -0.625,0.134 -1.24,0.296 -1.842,0.476 -0.605,0.179 -1.145,0.418 -1.622,0.712 -0.481,0.295 -0.862,0.678 -1.148,1.145 -0.286,0.468 -0.432,1.054 -0.432,1.762 0,0.774 0.163,1.449 0.486,2.018 0.326,0.569 0.754,1.036 1.291,1.405 0.539,0.366 1.15,0.639 1.832,0.818 0.686,0.183 1.388,0.27 2.106,0.27 0.811,0 1.563,-0.092 2.253,-0.277 C 0.349,2.005 0.955,1.71 1.479,1.308 2.001,0.905 2.411,0.396 2.713,-0.215 3.015,-0.825 3.18,-1.559 3.208,-2.409 H 1.224 C 1.105,-1.299 0.698,-0.499 0,0"
           style="fill:#000000;fill-opacity:1;fill-rule:nonzero;stroke:none;stroke-linecap:round;stroke-linejoin:round;stroke-miterlimit:10"
           id="path5254"
           inkscape:connector-curvature="0" />
      </g>
      <g
         id="g5256"
         transform="matrix(0.15602093,0,0,-0.15602093,438.55904,279.86621)"
         style="display:inline;fill:#000000;fill-opacity:1">
        <path
           d="m 0,0 c 0.207,-0.754 0.529,-1.436 0.973,-2.039 0.44,-0.607 1.004,-1.092 1.698,-1.458 0.69,-0.369 1.516,-0.554 2.471,-0.554 0.956,0 1.78,0.185 2.471,0.554 0.694,0.366 1.26,0.851 1.7,1.458 0.44,0.603 0.764,1.285 0.971,2.039 0.207,0.758 0.308,1.523 0.308,2.301 0,0.778 -0.101,1.546 -0.308,2.302 C 10.077,5.358 9.753,6.039 9.313,6.643 8.873,7.25 8.307,7.735 7.613,8.102 6.922,8.47 6.098,8.653 5.142,8.653 4.187,8.653 3.361,8.47 2.671,8.102 1.977,7.735 1.413,7.25 0.973,6.643 0.529,6.039 0.207,5.358 0,4.603 -0.205,3.847 -0.309,3.079 -0.309,2.301 -0.309,1.523 -0.205,0.758 0,0 m -1.933,5.337 c 0.319,0.972 0.791,1.833 1.424,2.583 0.634,0.748 1.422,1.346 2.362,1.79 0.944,0.447 2.039,0.669 3.289,0.669 1.249,0 2.347,-0.222 3.289,-0.669 0.941,-0.444 1.729,-1.042 2.36,-1.79 0.634,-0.75 1.107,-1.611 1.422,-2.583 0.317,-0.974 0.476,-1.985 0.476,-3.036 0,-1.05 -0.159,-2.061 -0.476,-3.036 -0.315,-0.972 -0.788,-1.832 -1.422,-2.579 -0.631,-0.75 -1.419,-1.344 -2.36,-1.783 -0.942,-0.439 -2.04,-0.659 -3.289,-0.659 -1.25,0 -2.345,0.22 -3.289,0.659 -0.94,0.439 -1.728,1.033 -2.362,1.783 -0.633,0.747 -1.105,1.607 -1.424,2.579 -0.317,0.975 -0.473,1.986 -0.473,3.036 0,1.051 0.156,2.062 0.473,3.036"
           style="fill:#000000;fill-opacity:1;fill-rule:nonzero;stroke:none;stroke-linecap:round;stroke-linejoin:round;stroke-miterlimit:10"
           id="path5258"
           inkscape:connector-curvature="0" />
      </g>
      <g
         id="g5260"
         transform="matrix(0.15602093,0,0,-0.15602093,442.46202,278.64455)"
         style="display:inline;fill:#000000;fill-opacity:1">
        <path
           d="m 0,0 c -0.805,0.549 -1.755,0.823 -2.858,0.823 -0.943,0 -1.749,-0.174 -2.416,-0.519 -0.672,-0.346 -1.222,-0.809 -1.657,-1.395 -0.434,-0.58 -0.752,-1.246 -0.96,-1.996 -0.207,-0.75 -0.309,-1.527 -0.309,-2.334 0,-0.876 0.102,-1.711 0.309,-2.494 0.208,-0.784 0.526,-1.468 0.96,-2.052 0.435,-0.584 0.991,-1.049 1.667,-1.393 0.676,-0.347 1.485,-0.521 2.427,-0.521 0.691,0 1.307,0.113 1.841,0.339 0.54,0.221 1.004,0.53 1.392,0.927 0.39,0.396 0.697,0.867 0.918,1.415 0.219,0.547 0.35,1.137 0.395,1.768 h 2.1 c -0.21,-1.941 -0.893,-3.454 -2.057,-4.534 -1.162,-1.081 -2.75,-1.62 -4.764,-1.62 -1.222,0 -2.289,0.206 -3.201,0.615 -0.914,0.41 -1.668,0.978 -2.273,1.699 -0.602,0.717 -1.057,1.567 -1.359,2.548 -0.301,0.978 -0.451,2.028 -0.451,3.15 0,1.127 0.161,2.178 0.486,3.168 0.323,0.987 0.798,1.846 1.423,2.579 0.626,0.735 1.406,1.315 2.341,1.74 0.932,0.426 2.004,0.636 3.209,0.636 0.825,0 1.603,-0.107 2.341,-0.321 C 0.237,2.012 0.894,1.694 1.467,1.278 2.039,0.859 2.52,0.338 2.901,-0.29 3.283,-0.918 3.532,-1.638 3.652,-2.458 H 1.555 C 1.32,-1.366 0.801,-0.547 0,0"
           style="fill:#000000;fill-opacity:1;fill-rule:nonzero;stroke:none;stroke-linecap:round;stroke-linejoin:round;stroke-miterlimit:10"
           id="path5262"
           inkscape:connector-curvature="0" />
      </g>
      <path
         d="m 443.84074,280.71034 h -0.32655 v -2.40631 h 0.32655 z"
         style="display:inline;fill:#000000;fill-opacity:1;fill-rule:nonzero;stroke:none;stroke-width:0.15602092;stroke-linecap:round;stroke-linejoin:round;stroke-miterlimit:10"
         id="path5264"
         inkscape:connector-curvature="0" />
      <g
         id="g5266"
         transform="matrix(0.15602093,0,0,-0.15602093,445.68603,279.71581)"
         style="display:inline;fill:#000000;fill-opacity:1">
        <path
           d="M 0,0 -2.625,7.191 H -2.671 L -5.34,0 Z M -1.457,9.049 4.699,-6.374 H 2.384 l -1.72,4.645 h -6.666 l -1.765,-4.645 h -2.14 l 6.135,15.423 z"
           style="fill:#000000;fill-opacity:1;fill-rule:nonzero;stroke:none;stroke-linecap:round;stroke-linejoin:round;stroke-miterlimit:10"
           id="path5268"
           inkscape:connector-curvature="0" />
      </g>
      <g
         id="g5270"
         transform="matrix(0.15602093,0,0,-0.15602093,446.11981,278.57324)"
         style="display:inline;fill:#000000;fill-opacity:1">
        <path
           d="M 0,0 V 1.726 H 12.604 V 0 H 7.349 V -13.697 H 5.256 V 0 Z"
           style="fill:#000000;fill-opacity:1;fill-rule:nonzero;stroke:none;stroke-linecap:round;stroke-linejoin:round;stroke-miterlimit:10"
           id="path5272"
           inkscape:connector-curvature="0" />
      </g>
      <path
         d="m 448.73668,280.71034 h -0.32702 v -2.40631 h 0.32702 z"
         style="display:inline;fill:#000000;fill-opacity:1;fill-rule:nonzero;stroke:none;stroke-width:0.15602092;stroke-linecap:round;stroke-linejoin:round;stroke-miterlimit:10"
         id="path5274"
         inkscape:connector-curvature="0" />
      <g
         id="g5276"
         transform="matrix(0.15602093,0,0,-0.15602093,449.56295,279.86621)"
         style="display:inline;fill:#000000;fill-opacity:1">
        <path
           d="m 0,0 c 0.207,-0.754 0.53,-1.436 0.973,-2.039 0.441,-0.607 1.007,-1.092 1.698,-1.458 0.691,-0.369 1.516,-0.554 2.473,-0.554 0.955,0 1.779,0.185 2.469,0.554 0.695,0.366 1.26,0.851 1.703,1.458 0.44,0.603 0.761,1.285 0.967,2.039 0.207,0.758 0.31,1.523 0.31,2.301 0,0.778 -0.103,1.546 -0.31,2.302 C 10.077,5.358 9.756,6.039 9.316,6.643 8.873,7.25 8.308,7.735 7.613,8.102 6.923,8.47 6.099,8.653 5.144,8.653 4.187,8.653 3.362,8.47 2.671,8.102 1.98,7.735 1.414,7.25 0.973,6.643 0.53,6.039 0.207,5.358 0,4.603 -0.205,3.847 -0.309,3.079 -0.309,2.301 -0.309,1.523 -0.205,0.758 0,0 m -1.931,5.337 c 0.317,0.972 0.79,1.833 1.424,2.583 0.632,0.748 1.419,1.346 2.361,1.79 0.942,0.447 2.039,0.669 3.29,0.669 1.25,0 2.344,-0.222 3.288,-0.669 0.942,-0.444 1.727,-1.042 2.363,-1.79 0.629,-0.75 1.102,-1.611 1.422,-2.583 0.315,-0.974 0.472,-1.985 0.472,-3.036 0,-1.05 -0.157,-2.061 -0.472,-3.036 -0.32,-0.972 -0.793,-1.832 -1.422,-2.579 -0.636,-0.75 -1.421,-1.344 -2.363,-1.783 -0.944,-0.439 -2.038,-0.659 -3.288,-0.659 -1.251,0 -2.348,0.22 -3.29,0.659 -0.942,0.439 -1.729,1.033 -2.361,1.783 -0.634,0.747 -1.107,1.607 -1.424,2.579 -0.315,0.975 -0.474,1.986 -0.474,3.036 0,1.051 0.159,2.062 0.474,3.036"
           style="fill:#000000;fill-opacity:1;fill-rule:nonzero;stroke:none;stroke-linecap:round;stroke-linejoin:round;stroke-miterlimit:10"
           id="path5278"
           inkscape:connector-curvature="0" />
      </g>
      <g
         id="g5280"
         transform="matrix(0.15602093,0,0,-0.15602093,452.32468,278.30401)"
         style="display:inline;fill:#000000;fill-opacity:1">
        <path
           d="M 0,0 8.297,-12.508 H 8.339 V 0 h 1.987 V -15.423 H 8.032 l -8.23,12.378 H -0.244 V -15.423 H -2.23 V 0 Z"
           style="fill:#000000;fill-opacity:1;fill-rule:nonzero;stroke:none;stroke-linecap:round;stroke-linejoin:round;stroke-miterlimit:10"
           id="path5282"
           inkscape:connector-curvature="0" />
      </g>
    </g>
  </g>
  <style
     id="style10096"
     type="text/css">
	.st0{fill:#020202;}
	.st1{fill:#030303;}
	.st2{fill:#119549;}
	.st3{fill:#1D9A52;}
</style>
</svg>
