<?xml version="1.0" encoding="UTF-8" standalone="no"?>
<!-- Created with Inkscape (http://www.inkscape.org/) -->

<svg
   xmlns:dc="http://purl.org/dc/elements/1.1/"
   xmlns:cc="http://creativecommons.org/ns#"
   xmlns:rdf="http://www.w3.org/1999/02/22-rdf-syntax-ns#"
   xmlns:svg="http://www.w3.org/2000/svg"
   xmlns="http://www.w3.org/2000/svg"
   xmlns:sodipodi="http://sodipodi.sourceforge.net/DTD/sodipodi-0.dtd"
   xmlns:inkscape="http://www.inkscape.org/namespaces/inkscape"
   width="483.77951"
   height="362.83463"
   id="svg2"
   sodipodi:version="0.32"
   inkscape:version="0.92.1 r15371"
   sodipodi:docname="solution3.svg"
   version="1.0"
   viewBox="0 0 128 95.999997">
  <defs
     id="defs4">
    <filter
       style="color-interpolation-filters:sRGB"
       inkscape:label="Roughen"
       id="filter13391-1">
      <feTurbulence
         type="fractalNoise"
         numOctaves="5"
         seed="1"
         baseFrequency="0.013 0.013"
         result="turbulence"
         id="feTurbulence13393-2" />
      <feDisplacementMap
         in="SourceGraphic"
         in2="turbulence"
         scale="10.2094"
         yChannelSelector="G"
         xChannelSelector="R"
         id="feDisplacementMap13395-8" />
    </filter>
    <marker
       inkscape:stockid="Arrow2Send"
       orient="auto"
       refY="0"
       refX="0"
       id="Arrow2Send-3"
       style="overflow:visible"
       inkscape:isstock="true">
      <path
         inkscape:connector-curvature="0"
         id="path6389-4"
         style="fill:#f34eaf;fill-opacity:1;fill-rule:evenodd;stroke:#f34eaf;stroke-width:0.625;stroke-linejoin:round;stroke-opacity:1"
         d="M 8.7185878,4.0337352 -2.2072895,0.01601326 8.7185884,-4.0017078 c -1.7454984,2.3720609 -1.7354408,5.6174519 -6e-7,8.035443 z"
         transform="matrix(-0.3,0,0,-0.3,0.69,0)" />
    </marker>
    <filter
       y="-0.2"
       height="1.4"
       inkscape:label="Rough and Dilate"
       inkscape:menu="Distort"
       inkscape:menu-tooltip="Create a turbulent contour around"
       style="color-interpolation-filters:sRGB"
       id="filter6525">
      <feMorphology
         radius="7"
         operator="dilate"
         result="result8"
         in="SourceGraphic"
         id="feMorphology6527" />
      <feComposite
         in2="result8"
         result="result10"
         in="SourceGraphic"
         operator="arithmetic"
         k1="0.5"
         k3="0.5"
         id="feComposite6529"
         k2="0"
         k4="0" />
      <feTurbulence
         result="result11"
         type="fractalNoise"
         numOctaves="3"
         baseFrequency="0.07"
         id="feTurbulence6531" />
      <feDisplacementMap
         result="result12"
         in2="result11"
         in="result10"
         xChannelSelector="R"
         scale="10"
         id="feDisplacementMap6533"
         yChannelSelector="A" />
      <feComposite
         operator="arithmetic"
         result="result13"
         in="SourceGraphic"
         in2="result12"
         k1="0.25"
         k2="0.25"
         k3="0.75"
         id="feComposite6535"
         k4="0" />
    </filter>
    <filter
       style="color-interpolation-filters:sRGB"
       inkscape:label="Roughen"
       id="filter6597">
      <feTurbulence
         type="fractalNoise"
         numOctaves="5"
         seed="69"
         baseFrequency="0.013 0.001"
         result="turbulence"
         id="feTurbulence6599" />
      <feDisplacementMap
         in="SourceGraphic"
         in2="turbulence"
         scale="41.4"
         yChannelSelector="G"
         xChannelSelector="R"
         id="feDisplacementMap6601" />
    </filter>
    <marker
       inkscape:stockid="TriangleInM"
       orient="auto"
       refY="0"
       refX="0"
       id="TriangleInM"
       style="overflow:visible"
       inkscape:isstock="true">
      <path
         inkscape:connector-curvature="0"
         id="path6492"
         d="M 5.77,0 -2.88,5 V -5 Z"
         style="fill:#ffffff;fill-opacity:1;fill-rule:evenodd;stroke:#000000;stroke-width:1.00000003pt;stroke-opacity:1"
         transform="scale(-0.4)" />
    </marker>
    <path
       d="m 425,25 c 110.4,0 200,89.6 200,200 0,110.4 -89.6,200 -200,200 -110.4,0 -200,89.6 -200,200 0,110.4 89.6,200 200,200 C 645.8,825 825,645.8 825,425 825,204.2 645.8,25 425,25 z m 0,537.5 c 34.5,0 62.5,28 62.5,62.5 0,34.5 -28,62.5 -62.5,62.5 -34.5,0 -62.5,-28 -62.5,-62.5 0,-34.5 28,-62.5 62.5,-62.5 z"
       id="y" />
    <path
       d="m 450,200 c 0,27.61424 -22.38576,50 -50,50 -27.61424,0 -50,-22.38576 -50,-50 0,-27.61424 22.38576,-50 50,-50 27.61424,0 50,22.38576 50,50 z"
       id="d" />
    <filter
       id="f">
      <feGaussianBlur
         id="feGaussianBlur4882"
         stdDeviation="12.375" />
    </filter>
    <mask
       id="mask-2"
       fill="white">
      <path
         inkscape:connector-curvature="0"
         id="use6996"
         d="m 405.23451,435.51255 c 2.31111,6.13888 10.4,14.29999 20.36666,14.29999 5.48889,0 10.47222,-1.95 14.37221,-5.27222 0.28889,-0.14445 2.96111,2.88889 4.04445,4.04444 0.21666,0.28889 0.21666,0.36111 0.21666,0.36111 -13.14443,11.48333 -35.46109,9.82222 -46.00553,-10.03888 0.86667,-2.88889 2.09444,-4.62222 2.09444,-4.62222 2.81667,1.15555 4.91111,1.22778 4.91111,1.22778 z"
         style="stroke-width:0.6254155" />
    </mask>
    <mask
       id="mask-4"
       fill="white">
      <rect
         height="64.999969"
         width="56.622196"
         y="434.64587"
         x="397.94006"
         id="use7000"
         style="stroke-width:0.6254155" />
    </mask>
    <path
       d="m 425,25 c 110.4,0 200,89.6 200,200 0,110.4 -89.6,200 -200,200 -110.4,0 -200,89.6 -200,200 0,110.4 89.6,200 200,200 C 645.8,825 825,645.8 825,425 825,204.2 645.8,25 425,25 z m 0,537.5 c 34.5,0 62.5,28 62.5,62.5 0,34.5 -28,62.5 -62.5,62.5 -34.5,0 -62.5,-28 -62.5,-62.5 0,-34.5 28,-62.5 62.5,-62.5 z"
       id="y-6" />
    <path
       d="m 450,200 c 0,27.61424 -22.38576,50 -50,50 -27.61424,0 -50,-22.38576 -50,-50 0,-27.61424 22.38576,-50 50,-50 27.61424,0 50,22.38576 50,50 z"
       id="d-4" />
    <filter
       id="f-3">
      <feGaussianBlur
         id="feGaussianBlur9052"
         stdDeviation="12.375" />
    </filter>
    <clipPath
       id="clipPath8">
      <path
         id="path10"
         d="m 76,2 0,46 -22,0 0,23 -18.419263,0 c -0.07818,0.665694 -0.141485,1.332869 -0.205737,2 -1.151162,12.530963 1.036422,24.087546 6.0625,33.96875 L 43.125,110 c 1.011403,1.81678 2.191241,3.52297 3.4375,5.1875 1.244725,1.66248 1.685716,2.58262 2.46875,3.6875 C 62.319911,133.81083 82.129473,141 105,141 155.64836,141 198.63299,118.56201 217.65625,68.15625 231.15302,69.54122 244.09968,66.080358 250,54.5625 240.60137,49.138835 228.52163,50.877226 221.5625,54.375 L 240,2 168,48 145,48 145,2 z" />
    </clipPath>
    <linearGradient
       id="linearGradient4614"
       spreadMethod="pad"
       gradientTransform="matrix(0.599312,0,0,-0.599312,-8.258654,91.962509)"
       gradientUnits="userSpaceOnUse"
       y2="70.667412"
       x2="176.60477"
       y1="63.65625"
       x1="142.96875">
      <stop
         id="stop4610"
         offset="0"
         style="stop-opacity:1;stop-color:#e34646" />
      <stop
         id="stop4612"
         offset="1"
         style="stop-opacity:1;stop-color:#ffbf2d" />
    </linearGradient>
    <clipPath
       id="clipPath4626"
       clipPathUnits="userSpaceOnUse">
      <path
         inkscape:connector-curvature="0"
         id="path4624"
         d="m 3.41,63.497 c 1.078,-1.977 2.176,-3.586 3.293,-4.852 1.082,-1.23 2.274,-2.214 3.578,-2.96 1.27,-0.708 2.707,-1.219 4.309,-1.516 1.566,-0.262 3.363,-0.395 5.414,-0.395 1.512,0 2.867,0.078 4.062,0.227 0.004,0 0.012,0 0.02,0 0.148,0.012 0.461,0.062 0.785,0.113 0.34,0.051 0.688,0.102 1.238,0.203 10.047,1.86 13.379,-5.117 14.102,-7.039 0.113,-0.301 0.168,-0.488 0.168,-0.488 L 52.59,12.743 58.883,0.005 H 45.117 c -6.144,13.683 -12.055,42.258 -18.371,44.781 -1.371,-0.191 -3.07,-0.281 -5.113,-0.281 -2.684,0 -5.086,0.32 -7.211,0.992 -2.125,0.672 -4.035,1.711 -5.75,3.129 C 6.957,50.079 5.406,51.935 4.027,54.169 2.609,56.403 1.266,59.091 0,62.224 Z" />
    </clipPath>
    <linearGradient
       id="linearGradient4634"
       spreadMethod="pad"
       gradientTransform="matrix(0.599312,0,0,-0.599312,-8.278026,602.79412)"
       gradientUnits="userSpaceOnUse"
       y2="922.07178"
       x2="78.000107"
       y1="1004.8033"
       x1="113.5146">
      <stop
         id="stop4630"
         offset="0"
         style="stop-opacity:1;stop-color:#e34646" />
      <stop
         id="stop4632"
         offset="1"
         style="stop-opacity:1;stop-color:#ffbf2d" />
    </linearGradient>
    <clipPath
       id="clipPath4644"
       clipPathUnits="userSpaceOnUse">
      <path
         inkscape:connector-curvature="0"
         id="path4642"
         d="M 52.586,12.747 45.125,0.005 h 14.957" />
    </clipPath>
    <linearGradient
       id="linearGradient4652"
       spreadMethod="pad"
       gradientTransform="matrix(-0.335594,0,0,-0.335594,86.28744,351.26907)"
       gradientUnits="userSpaceOnUse"
       y2="1043.709"
       x2="80.655251"
       y1="1025.709"
       x1="108.08774">
      <stop
         id="stop4648"
         offset="0"
         style="stop-opacity:1;stop-color:#ffb638" />
      <stop
         id="stop4650"
         offset="1"
         style="stop-opacity:1;stop-color:#f0ae26" />
    </linearGradient>
    <clipPath
       id="clipPath4662"
       clipPathUnits="userSpaceOnUse">
      <path
         inkscape:connector-curvature="0"
         id="path4660"
         d="M 3.41,63.493 0,62.224 c 0.398,-0.981 0.801,-1.914 1.211,-2.805 0.082,-0.18 0.164,-0.356 0.246,-0.531 0.082,-0.172 0.168,-0.344 0.25,-0.516 0.027,-0.055 0.055,-0.109 0.086,-0.168 0.137,-0.281 0.273,-0.562 0.414,-0.84 0.004,0 0.004,0 0.004,0 C 2.297,57.204 2.379,57.04 2.465,56.88 2.805,56.235 3.148,55.622 3.5,55.032 3.586,54.888 3.672,54.743 3.762,54.602 3.797,54.544 3.828,54.489 3.863,54.435 3.918,54.349 3.973,54.259 4.027,54.173 4.113,54.036 4.199,53.895 4.285,53.759 4.426,53.54 4.57,53.329 4.715,53.118 4.75,53.063 4.785,53.013 4.82,52.958 4.91,52.825 5,52.696 5.094,52.571 5.277,52.313 5.461,52.063 5.648,51.821 5.746,51.7 5.84,51.579 5.934,51.462 6.125,51.224 6.32,50.993 6.516,50.767 c 0.148,-0.168 0.3,-0.336 0.453,-0.5 0.047,-0.051 0.093,-0.102 0.144,-0.157 0.203,-0.211 0.407,-0.418 0.614,-0.621 0.101,-0.097 0.203,-0.195 0.308,-0.293 0.106,-0.097 0.211,-0.195 0.317,-0.289 0.105,-0.094 0.21,-0.183 0.32,-0.273 0.32,-0.266 0.648,-0.52 0.984,-0.758 0.895,-0.641 1.84,-1.184 2.836,-1.633 0.125,-0.058 0.246,-0.113 0.375,-0.168 0.254,-0.105 0.508,-0.207 0.77,-0.305 0.129,-0.046 0.258,-0.089 0.386,-0.136 0.133,-0.043 0.266,-0.086 0.399,-0.129 0.133,-0.043 0.266,-0.082 0.398,-0.121 0.274,-0.078 0.547,-0.153 0.825,-0.223 0.14,-0.031 0.281,-0.062 0.421,-0.094 0.141,-0.031 0.286,-0.062 0.426,-0.09 0.145,-0.031 0.289,-0.054 0.438,-0.082 0.289,-0.05 0.586,-0.097 0.886,-0.14 0.45,-0.059 0.911,-0.113 1.383,-0.149 0.313,-0.027 0.629,-0.046 0.953,-0.062 0.321,-0.016 0.649,-0.024 0.981,-0.027 0.164,0 0.332,0 0.5,0 0.254,0 0.504,0 0.75,0 0.492,0.007 0.957,0.015 1.406,0.035 0.223,0.008 0.441,0.015 0.652,0.027 0.211,0.012 0.422,0.027 0.625,0.039 0.606,0.047 1.164,0.102 1.68,0.172 0.043,-0.016 0.086,-0.035 0.129,-0.055 0.008,0 0.012,-0.008 0.016,-0.008 0.039,-0.019 0.074,-0.035 0.113,-0.054 0.246,-0.129 0.492,-0.293 0.738,-0.496 -0.539,0.73 -6.308,8.277 -14.781,10.297 -0.734,0.171 -1.273,0.429 -1.695,0.722 -0.004,0 -0.008,0.008 -0.008,0.008 -0.336,0.152 -0.66,0.313 -0.973,0.488 0,0 -0.004,0 -0.004,0 -0.082,0.047 -0.16,0.094 -0.242,0.145 0,0 0,-0.004 0,0 -0.082,0.047 -0.16,0.098 -0.238,0.144 C 9.641,56.083 9.48,56.188 9.324,56.298 9.246,56.349 9.168,56.407 9.09,56.462 8.938,56.575 8.785,56.688 8.633,56.81 8.559,56.868 8.484,56.927 8.41,56.989 8.336,57.052 8.262,57.114 8.188,57.177 8.113,57.243 8.043,57.306 7.969,57.372 7.605,57.7 7.25,58.048 6.91,58.423 c -0.07,0.074 -0.14,0.152 -0.207,0.23 -0.25,0.282 -0.496,0.578 -0.742,0.895 -0.031,0.039 -0.059,0.082 -0.09,0.121 -0.07,0.09 -0.141,0.18 -0.211,0.273 -0.344,0.461 -0.687,0.961 -1.027,1.493 -0.137,0.214 -0.274,0.433 -0.41,0.656 -0.067,0.113 -0.137,0.222 -0.203,0.34 -0.204,0.343 -0.407,0.699 -0.61,1.07 z" />
    </clipPath>
    <linearGradient
       id="linearGradient4670"
       spreadMethod="pad"
       gradientTransform="matrix(-0.599312,0,0,-0.599312,113.45784,91.962734)"
       gradientUnits="userSpaceOnUse"
       y2="69.791016"
       x2="177.04297"
       y1="63.65625"
       x1="142.96875">
      <stop
         id="stop4666"
         offset="0"
         style="stop-opacity:1;stop-color:#e34646" />
      <stop
         id="stop4668"
         offset="1"
         style="stop-opacity:1;stop-color:#ffbf2d" />
    </linearGradient>
  </defs>
  <sodipodi:namedview
     id="base"
     pagecolor="#ffffff"
     bordercolor="#666666"
     borderopacity="1.0"
     inkscape:pageopacity="0"
     inkscape:pageshadow="2"
     inkscape:zoom="1.3673064"
     inkscape:cx="257.05824"
     inkscape:cy="185.78807"
     inkscape:document-units="mm"
     inkscape:current-layer="layer1"
     inkscape:window-width="1278"
     inkscape:window-height="798"
     inkscape:window-x="1"
     inkscape:window-y="1"
     width="12.8cm"
     height="9.6cm"
     units="cm"
     showgrid="false"
     grid_units="mm"
     inkscape:object-paths="false"
     inkscape:grid-points="true"
     inkscape:grid-bbox="true"
     inkscape:guide-points="true"
     showguides="true"
     inkscape:guide-bbox="true"
     inkscape:window-maximized="0">
    <sodipodi:guide
       orientation="vertical"
       position="15.938931,0"
       id="guide3573"
       inkscape:locked="false" />
    <sodipodi:guide
       orientation="horizontal"
       position="0,3.1145038"
       id="guide3579"
       inkscape:locked="false" />
    <sodipodi:guide
       orientation="horizontal"
       position="0,80.610687"
       id="guide3988"
       inkscape:locked="false" />
    <sodipodi:guide
       orientation="horizontal"
       position="0,85.557253"
       id="guide4081"
       inkscape:locked="false" />
    <inkscape:grid
       id="GridFromPre046Settings"
       type="xygrid"
       originx="0"
       originy="0"
       spacingx="2.1333334"
       spacingy="2.1333334"
       color="#3f3fff"
       empcolor="#3f3fff"
       opacity="0.15"
       empopacity="0.38"
       empspacing="5" />
  </sodipodi:namedview>
  <metadata
     id="metadata7">
    <rdf:RDF>
      <cc:Work
         rdf:about="">
        <dc:format>image/svg+xml</dc:format>
        <dc:type
           rdf:resource="http://purl.org/dc/dcmitype/StillImage" />
        <dc:title></dc:title>
      </cc:Work>
    </rdf:RDF>
  </metadata>
  <g
     inkscape:label="Layer 1"
     inkscape:groupmode="layer"
     id="layer1"
     transform="translate(4.149475e-6,-698.0315)">
    <g
       transform="matrix(0.5154513,0,0,-0.5154513,14.181237,757.53917)"
       inkscape:label="Guix-horizontal-print"
       id="g4594">
      <g
         id="g4596">
        <path
           inkscape:connector-curvature="0"
           id="path4598"
           style="fill:#ffbf2d;fill-opacity:1;fill-rule:nonzero;stroke:none"
           d="m 101.789,63.497 c -1.078,-1.977 -2.176,-3.586 -3.297,-4.852 -1.078,-1.23 -2.269,-2.214 -3.574,-2.96 -1.27,-0.708 -2.707,-1.219 -4.309,-1.516 -1.566,-0.262 -3.363,-0.395 -5.414,-0.395 -1.511,0 -2.871,0.078 -4.062,0.227 -0.004,0 -0.016,0 -0.02,0 -0.152,0.008 -0.465,0.062 -0.785,0.113 -0.34,0.051 -0.687,0.102 -1.238,0.203 C 69.043,56.177 65.707,49.2 64.988,47.278 64.875,46.974 64.82,46.79 64.82,46.79 L 52.609,12.739 45.117,0.005 h 14.965 c 6.145,13.683 12.055,42.258 18.371,44.781 1.371,-0.191 3.067,-0.281 5.113,-0.281 2.684,0 5.086,0.32 7.211,0.992 2.125,0.672 4.035,1.711 5.75,3.129 1.715,1.453 3.266,3.305 4.645,5.543 1.418,2.234 2.758,4.922 4.027,8.055 z" />
        <g
           id="g4600">
          <g
             id="g4602">
            <g
               id="g4608">
              <path
                 inkscape:connector-curvature="0"
                 id="path4616"
                 style="fill:url(#linearGradient4614);stroke:none"
                 d="m 101.789,63.493 c -1.082,-1.973 -2.176,-3.582 -3.297,-4.848 -1.078,-1.23 -2.273,-2.214 -3.578,-2.96 -0.312,-0.176 -0.637,-0.336 -0.969,-0.485 -0.004,0 -0.007,-0.008 -0.011,-0.008 -0.418,-0.297 -0.961,-0.55 -1.696,-0.726 C 83.77,52.45 78,44.899 77.457,44.173 c 0.246,0.199 0.492,0.363 0.742,0.492 0.035,0.02 0.071,0.035 0.11,0.055 0.003,0 0.011,0.007 0.015,0.007 0.043,0.02 0.09,0.04 0.133,0.059 1.367,-0.195 3.066,-0.285 5.109,-0.285 2.684,0 5.086,0.324 7.211,0.996 2.125,0.672 4.035,1.711 5.75,3.125 1.715,1.453 3.266,3.309 4.645,5.547 1.418,2.234 2.762,4.922 4.027,8.055 z" />
            </g>
          </g>
        </g>
        <path
           inkscape:connector-curvature="0"
           id="path4618"
           style="fill:#ffbf2d;fill-opacity:1;fill-rule:nonzero;stroke:none"
           d="m 3.41,63.497 c 1.078,-1.977 2.176,-3.586 3.297,-4.852 1.078,-1.23 2.27,-2.214 3.574,-2.96 1.27,-0.708 2.707,-1.219 4.309,-1.516 1.566,-0.262 3.363,-0.395 5.414,-0.395 1.512,0 2.871,0.078 4.062,0.227 0.004,0 0.016,0 0.02,0 0.152,0.008 0.465,0.062 0.785,0.113 0.34,0.051 0.688,0.102 1.238,0.203 10.047,1.86 13.383,-5.117 14.102,-7.039 0.113,-0.304 0.168,-0.488 0.168,-0.488 L 52.59,12.739 60.082,0.005 H 45.117 C 38.973,13.688 33.062,42.263 26.746,44.786 25.375,44.595 23.68,44.505 21.633,44.505 c -2.684,0 -5.086,0.32 -7.211,0.992 -2.125,0.672 -4.035,1.711 -5.75,3.129 C 6.957,50.079 5.406,51.931 4.027,54.169 2.609,56.403 1.27,59.091 0,62.224 Z" />
        <g
           id="g4620">
          <g
             clip-path="url(#clipPath4626)"
             id="g4622">
            <g
               id="g4628">
              <path
                 inkscape:connector-curvature="0"
                 id="path4636"
                 style="fill:url(#linearGradient4634);stroke:none"
                 d="m 3.41,63.497 c 1.078,-1.977 2.176,-3.586 3.293,-4.852 1.082,-1.23 2.274,-2.214 3.578,-2.96 1.27,-0.708 2.707,-1.219 4.309,-1.516 1.566,-0.262 3.363,-0.395 5.414,-0.395 1.512,0 2.867,0.078 4.062,0.227 0.004,0 0.012,0 0.02,0 0.148,0.012 0.461,0.062 0.785,0.113 0.34,0.051 0.688,0.102 1.238,0.203 10.047,1.86 13.379,-5.117 14.102,-7.039 0.113,-0.301 0.168,-0.488 0.168,-0.488 L 52.59,12.743 58.883,0.005 H 45.117 c -6.144,13.683 -12.055,42.258 -18.371,44.781 -1.371,-0.191 -3.07,-0.281 -5.113,-0.281 -2.684,0 -5.086,0.32 -7.211,0.992 -2.125,0.672 -4.035,1.711 -5.75,3.129 C 6.957,50.079 5.406,51.935 4.027,54.169 2.609,56.403 1.266,59.091 0,62.224 Z" />
            </g>
          </g>
        </g>
        <g
           id="g4638">
          <g
             clip-path="url(#clipPath4644)"
             id="g4640">
            <g
               id="g4646">
              <path
                 inkscape:connector-curvature="0"
                 id="path4654"
                 style="fill:url(#linearGradient4652);stroke:none"
                 d="M 52.586,12.747 45.125,0.005 h 14.957" />
            </g>
          </g>
        </g>
        <g
           id="g4656">
          <g
             clip-path="url(#clipPath4662)"
             id="g4658">
            <g
               id="g4664">
              <path
                 inkscape:connector-curvature="0"
                 id="path4672"
                 style="fill:url(#linearGradient4670);stroke:none"
                 d="M 3.41,63.493 0,62.224 c 0.398,-0.981 0.801,-1.914 1.211,-2.805 0.082,-0.18 0.164,-0.356 0.246,-0.531 0.082,-0.172 0.168,-0.344 0.25,-0.516 0.027,-0.055 0.055,-0.109 0.086,-0.168 0.137,-0.281 0.273,-0.562 0.414,-0.84 0.004,0 0.004,0 0.004,0 C 2.297,57.204 2.379,57.04 2.465,56.88 2.805,56.235 3.148,55.622 3.5,55.032 3.586,54.888 3.672,54.743 3.762,54.602 3.797,54.544 3.828,54.489 3.863,54.435 3.918,54.349 3.973,54.259 4.027,54.173 4.113,54.036 4.199,53.895 4.285,53.759 4.426,53.54 4.57,53.329 4.715,53.118 4.75,53.063 4.785,53.013 4.82,52.958 4.91,52.825 5,52.696 5.094,52.571 5.277,52.313 5.461,52.063 5.648,51.821 5.746,51.7 5.84,51.579 5.934,51.462 6.125,51.224 6.32,50.993 6.516,50.767 c 0.148,-0.168 0.3,-0.336 0.453,-0.5 0.047,-0.051 0.093,-0.102 0.144,-0.157 0.203,-0.211 0.407,-0.418 0.614,-0.621 0.101,-0.097 0.203,-0.195 0.308,-0.293 0.106,-0.097 0.211,-0.195 0.317,-0.289 0.105,-0.094 0.21,-0.183 0.32,-0.273 0.32,-0.266 0.648,-0.52 0.984,-0.758 0.895,-0.641 1.84,-1.184 2.836,-1.633 0.125,-0.058 0.246,-0.113 0.375,-0.168 0.254,-0.105 0.508,-0.207 0.77,-0.305 0.129,-0.046 0.258,-0.089 0.386,-0.136 0.133,-0.043 0.266,-0.086 0.399,-0.129 0.133,-0.043 0.266,-0.082 0.398,-0.121 0.274,-0.078 0.547,-0.153 0.825,-0.223 0.14,-0.031 0.281,-0.062 0.421,-0.094 0.141,-0.031 0.286,-0.062 0.426,-0.09 0.145,-0.031 0.289,-0.054 0.438,-0.082 0.289,-0.05 0.586,-0.097 0.886,-0.14 0.45,-0.059 0.911,-0.113 1.383,-0.149 0.313,-0.027 0.629,-0.046 0.953,-0.062 0.321,-0.016 0.649,-0.024 0.981,-0.027 0.164,0 0.332,0 0.5,0 0.254,0 0.504,0 0.75,0 0.492,0.007 0.957,0.015 1.406,0.035 0.223,0.008 0.441,0.015 0.652,0.027 0.211,0.012 0.422,0.027 0.625,0.039 0.606,0.047 1.164,0.102 1.68,0.172 0.043,-0.016 0.086,-0.035 0.129,-0.055 0.008,0 0.012,-0.008 0.016,-0.008 0.039,-0.019 0.074,-0.035 0.113,-0.054 0.246,-0.129 0.492,-0.293 0.738,-0.496 -0.539,0.73 -6.308,8.277 -14.781,10.297 -0.734,0.171 -1.273,0.429 -1.695,0.722 -0.004,0 -0.008,0.008 -0.008,0.008 -0.336,0.152 -0.66,0.313 -0.973,0.488 0,0 -0.004,0 -0.004,0 -0.082,0.047 -0.16,0.094 -0.242,0.145 0,0 0,-0.004 0,0 -0.082,0.047 -0.16,0.098 -0.238,0.144 C 9.641,56.083 9.48,56.188 9.324,56.298 9.246,56.349 9.168,56.407 9.09,56.462 8.938,56.575 8.785,56.688 8.633,56.81 8.559,56.868 8.484,56.927 8.41,56.989 8.336,57.052 8.262,57.114 8.188,57.177 8.113,57.243 8.043,57.306 7.969,57.372 7.605,57.7 7.25,58.048 6.91,58.423 c -0.07,0.074 -0.14,0.152 -0.207,0.23 -0.25,0.282 -0.496,0.578 -0.742,0.895 -0.031,0.039 -0.059,0.082 -0.09,0.121 -0.07,0.09 -0.141,0.18 -0.211,0.273 -0.344,0.461 -0.687,0.961 -1.027,1.493 -0.137,0.214 -0.274,0.433 -0.41,0.656 -0.067,0.113 -0.137,0.222 -0.203,0.34 -0.204,0.343 -0.407,0.699 -0.61,1.07 z" />
            </g>
          </g>
        </g>
        <path
           inkscape:connector-curvature="0"
           id="path4674"
           style="fill:#333333;fill-opacity:1;fill-rule:nonzero;stroke:none"
           d="M 111.191,3.087 C 109.074,2.06 106.879,1.286 104.602,0.77 102.32,0.259 99.969,0.001 97.547,0.001 c -5.485,0 -9.828,1.527 -13.031,4.586 -3.204,3.07 -4.805,7.23 -4.805,12.476 0,5.309 1.629,9.481 4.894,12.524 3.262,3.043 7.731,4.562 13.403,4.562 2.191,0 4.285,-0.203 6.285,-0.617 2.012,-0.41 3.91,-1.019 5.687,-1.828 v -6.812 c -1.839,1.043 -3.668,1.82 -5.492,2.335 -1.804,0.516 -3.621,0.774 -5.445,0.774 -3.379,0 -5.988,-0.949 -7.824,-2.844 -1.824,-1.883 -2.735,-4.582 -2.735,-8.094 0,-3.484 0.883,-6.171 2.645,-8.07 1.766,-1.894 4.269,-2.844 7.519,-2.844 0.883,0 1.696,0.051 2.446,0.157 0.765,0.117 1.449,0.293 2.051,0.527 v 6.394 h -5.18 v 5.688 h 13.226 V 3.087" />
        <path
           inkscape:connector-curvature="0"
           id="path4676"
           style="fill:#333333;fill-opacity:1;fill-rule:nonzero;stroke:none"
           d="m 114.891,10.251 v 15.082 h 7.937 v -2.469 c 0,-1.34 -0.008,-3.023 -0.023,-5.051 -0.012,-2.011 -0.02,-3.359 -0.02,-4.035 0,-1.984 0.051,-3.418 0.153,-4.297 0.105,-0.867 0.281,-1.5 0.531,-1.898 0.32,-0.512 0.742,-0.91 1.254,-1.188 0.531,-0.281 1.132,-0.421 1.808,-0.421 1.649,0 2.942,0.632 3.883,1.898 0.938,1.262 1.41,3.02 1.41,5.27 v 12.191 h 7.891 V 0.638 h -7.891 v 3.574 c -1.191,-1.442 -2.457,-2.508 -3.793,-3.199 -1.324,-0.676 -2.785,-1.012 -4.386,-1.012 -2.852,0 -5.028,0.875 -6.528,2.621 -1.484,1.75 -2.226,4.293 -2.226,7.629" />
        <path
           inkscape:connector-curvature="0"
           id="path4678"
           style="fill:#333333;fill-opacity:1;fill-rule:nonzero;stroke:none"
           d="m 144.207,25.333 h 7.895 V 0.638 h -7.895 v 24.695 m 0,9.609 h 7.895 v -6.437 h -7.895 v 6.437" />
        <path
           inkscape:connector-curvature="0"
           id="path4680"
           style="fill:#333333;fill-opacity:1;fill-rule:nonzero;stroke:none"
           d="m 165.969,13.27 -8.907,12.063 h 8.356 l 5.047,-7.32 5.117,7.32 h 8.356 l -8.907,-12.016 9.348,-12.679 h -8.356 l -5.558,7.804 -5.488,-7.804 h -8.356 l 9.348,12.632" />
      </g>
    </g>
  </g>
</svg>
