<?xml version="1.0" encoding="UTF-8" standalone="no"?>
<!-- Created with Inkscape (http://www.inkscape.org/) -->

<svg
   xmlns:dc="http://purl.org/dc/elements/1.1/"
   xmlns:cc="http://creativecommons.org/ns#"
   xmlns:rdf="http://www.w3.org/1999/02/22-rdf-syntax-ns#"
   xmlns:svg="http://www.w3.org/2000/svg"
   xmlns="http://www.w3.org/2000/svg"
   xmlns:xlink="http://www.w3.org/1999/xlink"
   xmlns:sodipodi="http://sodipodi.sourceforge.net/DTD/sodipodi-0.dtd"
   xmlns:inkscape="http://www.inkscape.org/namespaces/inkscape"
   width="1920"
   height="1080"
   viewBox="0 0 507.99999 285.75001"
   version="1.1"
   id="svg8"
   inkscape:version="0.92.3 (2405546, 2018-03-11)"
   sodipodi:docname="docker-5.svg">
  <defs
     id="defs2">
    <inkscape:path-effect
       effect="bspline"
       id="path-effect10907"
       is_visible="true"
       weight="33.333333"
       steps="2"
       helper_size="0"
       apply_no_weight="true"
       apply_with_weight="true"
       only_selected="false" />
    <inkscape:perspective
       sodipodi:type="inkscape:persp3d"
       inkscape:vp_x="0 : 142.875 : 1"
       inkscape:vp_y="0 : 1000 : 0"
       inkscape:vp_z="507.99999 : 142.875 : 1"
       inkscape:persp3d-origin="254 : 95.250003 : 1"
       id="perspective9456" />
    <inkscape:path-effect
       effect="bspline"
       id="path-effect4268"
       is_visible="true"
       weight="33.333333"
       steps="2"
       helper_size="0"
       apply_no_weight="true"
       apply_with_weight="true"
       only_selected="false" />
    <linearGradient
       id="linearGradient4094">
      <stop
         style="stop-color:#232323;stop-opacity:1;"
         offset="0"
         id="stop4096" />
      <stop
         style="stop-color:#4d4d4d;stop-opacity:1;"
         offset="1"
         id="stop4098" />
    </linearGradient>
    <linearGradient
       id="linearGradient4014">
      <stop
         style="stop-color:#a0a0a0;stop-opacity:1;"
         offset="0"
         id="stop4016" />
      <stop
         style="stop-color:#ffffff;stop-opacity:1;"
         offset="1"
         id="stop4018" />
    </linearGradient>
    <linearGradient
       id="linearGradient4678">
      <stop
         style="stop-color:#e5e5e5;stop-opacity:1;"
         offset="0"
         id="stop4680" />
      <stop
         style="stop-color:#d3cdcd;stop-opacity:1;"
         offset="1"
         id="stop4682" />
    </linearGradient>
    <linearGradient
       id="linearGradient4341">
      <stop
         id="stop4343"
         offset="0"
         style="stop-color:#333333;stop-opacity:1;" />
      <stop
         id="stop4345"
         offset="1"
         style="stop-color:#484848;stop-opacity:1;" />
    </linearGradient>
    <linearGradient
       id="linearGradient4696-5">
      <stop
         id="stop4698-6"
         offset="0"
         style="stop-color:#ffb638;stop-opacity:1;" />
      <stop
         id="stop4700-2"
         offset="1"
         style="stop-color:#f0ae26;stop-opacity:1;" />
    </linearGradient>
    <linearGradient
       id="linearGradient4702-3">
      <stop
         id="stop4704-1"
         offset="0"
         style="stop-color:#e34646;stop-opacity:1;" />
      <stop
         id="stop4706-8"
         offset="1"
         style="stop-color:#ffbf2d;stop-opacity:1;" />
    </linearGradient>
    <color-profile
       name="Artifex-PS-CMYK-Profile"
       xlink:href="/usr/share/color/icc/ghostscript/ps_cmyk.icc"
       id="color-profile31715" />
    <clipPath
       id="clipPath4501"
       clipPathUnits="userSpaceOnUse">
      <path
         style="clip-rule:evenodd"
         inkscape:connector-curvature="0"
         id="path4499"
         d="M 0,0 H 124.992 V 144 H 0 Z" />
    </clipPath>
    <clipPath
       id="clipPath4525"
       clipPathUnits="userSpaceOnUse">
      <path
         inkscape:connector-curvature="0"
         id="path4523"
         d="M 0,0 H 100 V 125 H 0 Z" />
    </clipPath>
    <clipPath
       id="clipPath4545"
       clipPathUnits="userSpaceOnUse">
      <path
         inkscape:connector-curvature="0"
         id="path4543"
         d="M 0,0 H 100 V 125 H 0 Z" />
    </clipPath>
    <clipPath
       id="clipPath4561"
       clipPathUnits="userSpaceOnUse">
      <path
         inkscape:connector-curvature="0"
         id="path4559"
         d="M 0,0 H 100 V 125 H 0 Z" />
    </clipPath>
    <clipPath
       id="clipPath4577"
       clipPathUnits="userSpaceOnUse">
      <path
         inkscape:connector-curvature="0"
         id="path4575"
         d="M 0,0 H 100 V 125 H 0 Z" />
    </clipPath>
    <clipPath
       id="clipPath4593"
       clipPathUnits="userSpaceOnUse">
      <path
         inkscape:connector-curvature="0"
         id="path4591"
         d="M 0,0 H 100 V 125 H 0 Z" />
    </clipPath>
    <clipPath
       id="clipPath4609"
       clipPathUnits="userSpaceOnUse">
      <path
         inkscape:connector-curvature="0"
         id="path4607"
         d="M 0,0 H 100 V 125 H 0 Z" />
    </clipPath>
    <clipPath
       id="clipPath4625"
       clipPathUnits="userSpaceOnUse">
      <path
         inkscape:connector-curvature="0"
         id="path4623"
         d="M 0,0 H 100 V 125 H 0 Z" />
    </clipPath>
    <clipPath
       id="clipPath4641"
       clipPathUnits="userSpaceOnUse">
      <path
         inkscape:connector-curvature="0"
         id="path4639"
         d="M 0,0 H 100 V 125 H 0 Z" />
    </clipPath>
    <clipPath
       id="clipPath4657"
       clipPathUnits="userSpaceOnUse">
      <path
         inkscape:connector-curvature="0"
         id="path4655"
         d="M 0,0 H 100 V 125 H 0 Z" />
    </clipPath>
    <clipPath
       id="clipPath4673"
       clipPathUnits="userSpaceOnUse">
      <path
         inkscape:connector-curvature="0"
         id="path4671"
         d="M 0,0 H 100 V 125 H 0 Z" />
    </clipPath>
    <style
       id="style3894"
       type="text/css"><![CDATA[
    line, polyline, path, rect, circle {
      fill: none;
      stroke: #000000;
      stroke-linecap: round;
      stroke-linejoin: round;
      stroke-miterlimit: 10.00;
    }
  ]]></style>
    <clipPath
       id="cpNzMuMDYyM3w1NDYuMzIzfDM5My4wNzJ8MzEuMDU2Nw==">
      <rect
         id="rect3902"
         height="362.02"
         width="473.26"
         y="31.06"
         x="73.06" />
    </clipPath>
    <clipPath
       id="cpMHw3MDguNjYxfDUwMy40MjV8MA==">
      <rect
         id="rect3995"
         height="503.43"
         width="708.66"
         y="0.00"
         x="0.00" />
    </clipPath>
    <marker
       inkscape:stockid="Arrow2Send"
       orient="auto"
       refY="0"
       refX="0"
       id="Arrow2Send-3-3"
       style="overflow:visible"
       inkscape:isstock="true">
      <path
         inkscape:connector-curvature="0"
         id="path6389-4-7"
         style="fill:#ffbf2d;fill-opacity:1;fill-rule:evenodd;stroke:#ffbf2d;stroke-width:0.625;stroke-linejoin:round;stroke-opacity:1"
         d="M 8.7185878,4.0337352 -2.2072895,0.01601326 8.7185884,-4.0017078 c -1.7454984,2.3720609 -1.7354408,5.6174519 -6e-7,8.035443 z"
         transform="matrix(-0.3,0,0,-0.3,0.69,0)" />
    </marker>
    <marker
       inkscape:stockid="Arrow2Send"
       orient="auto"
       refY="0"
       refX="0"
       id="Arrow2Send-3-3-6"
       style="overflow:visible"
       inkscape:isstock="true">
      <path
         inkscape:connector-curvature="0"
         id="path6389-4-7-3"
         style="fill:#ffbf2d;fill-opacity:1;fill-rule:evenodd;stroke:#ffbf2d;stroke-width:0.625;stroke-linejoin:round;stroke-opacity:1"
         d="M 8.7185878,4.0337352 -2.2072895,0.01601326 8.7185884,-4.0017078 c -1.7454984,2.3720609 -1.7354408,5.6174519 -6e-7,8.035443 z"
         transform="matrix(-0.3,0,0,-0.3,0.69,0)" />
    </marker>
    <inkscape:path-effect
       effect="bspline"
       id="path-effect10907-2"
       is_visible="true"
       weight="33.333333"
       steps="2"
       helper_size="0"
       apply_no_weight="true"
       apply_with_weight="true"
       only_selected="false" />
    <inkscape:path-effect
       effect="bspline"
       id="path-effect10907-7"
       is_visible="true"
       weight="33.333333"
       steps="2"
       helper_size="0"
       apply_no_weight="true"
       apply_with_weight="true"
       only_selected="false" />
    <inkscape:path-effect
       effect="bspline"
       id="path-effect10907-1"
       is_visible="true"
       weight="33.333333"
       steps="2"
       helper_size="0"
       apply_no_weight="true"
       apply_with_weight="true"
       only_selected="false" />
    <clipPath
       id="clipPath8-8">
      <path
         inkscape:connector-curvature="0"
         id="path10-0"
         d="M 76,2 V 48 H 54 V 71 H 35.580737 c -0.07818,0.665694 -0.141485,1.332869 -0.205737,2 -1.151162,12.530963 1.036422,24.087546 6.0625,33.96875 L 43.125,110 c 1.011403,1.81678 2.191241,3.52297 3.4375,5.1875 1.244725,1.66248 1.685716,2.58262 2.46875,3.6875 C 62.319911,133.81083 82.129473,141 105,141 155.64836,141 198.63299,118.56201 217.65625,68.15625 231.15302,69.54122 244.09968,66.080358 250,54.5625 240.60137,49.138835 228.52163,50.877226 221.5625,54.375 L 240,2 168,48 H 145 V 2 Z" />
    </clipPath>
    <clipPath
       id="clipPath8-8-1">
      <path
         inkscape:connector-curvature="0"
         id="path10-0-9"
         d="M 76,2 V 48 H 54 V 71 H 35.580737 c -0.07818,0.665694 -0.141485,1.332869 -0.205737,2 -1.151162,12.530963 1.036422,24.087546 6.0625,33.96875 L 43.125,110 c 1.011403,1.81678 2.191241,3.52297 3.4375,5.1875 1.244725,1.66248 1.685716,2.58262 2.46875,3.6875 C 62.319911,133.81083 82.129473,141 105,141 155.64836,141 198.63299,118.56201 217.65625,68.15625 231.15302,69.54122 244.09968,66.080358 250,54.5625 240.60137,49.138835 228.52163,50.877226 221.5625,54.375 L 240,2 168,48 H 145 V 2 Z" />
    </clipPath>
    <clipPath
       id="clipPath15565"
       clipPathUnits="userSpaceOnUse">
      <path
         inkscape:connector-curvature="0"
         id="path15563"
         d="m 101.789,63.493 c -1.082,-1.973 -2.176,-3.582 -3.297,-4.848 -1.078,-1.23 -2.273,-2.214 -3.578,-2.96 -0.312,-0.176 -0.637,-0.336 -0.969,-0.485 -0.004,0 -0.007,-0.008 -0.011,-0.008 -0.418,-0.297 -0.961,-0.55 -1.696,-0.726 C 83.77,52.45 78,44.899 77.457,44.173 c 0.246,0.199 0.492,0.363 0.742,0.492 0.035,0.02 0.071,0.035 0.11,0.055 0.003,0 0.011,0.007 0.015,0.007 0.043,0.02 0.09,0.04 0.133,0.059 1.367,-0.195 3.066,-0.285 5.109,-0.285 2.684,0 5.086,0.324 7.211,0.996 2.125,0.672 4.035,1.711 5.75,3.125 1.715,1.453 3.266,3.309 4.645,5.547 1.418,2.234 2.762,4.922 4.027,8.055 z" />
    </clipPath>
    <linearGradient
       id="linearGradient15573"
       spreadMethod="pad"
       gradientTransform="matrix(0.599312,0,0,-0.599312,-8.258654,91.962509)"
       gradientUnits="userSpaceOnUse"
       y2="70.667412"
       x2="176.60477"
       y1="63.65625"
       x1="142.96875">
      <stop
         id="stop15569"
         offset="0"
         style="stop-opacity:1;stop-color:#e34646" />
      <stop
         id="stop15571"
         offset="1"
         style="stop-opacity:1;stop-color:#ffbf2d" />
    </linearGradient>
    <clipPath
       id="clipPath15585"
       clipPathUnits="userSpaceOnUse">
      <path
         inkscape:connector-curvature="0"
         id="path15583"
         d="m 3.41,63.497 c 1.078,-1.977 2.176,-3.586 3.293,-4.852 1.082,-1.23 2.274,-2.214 3.578,-2.96 1.27,-0.708 2.707,-1.219 4.309,-1.516 1.566,-0.262 3.363,-0.395 5.414,-0.395 1.512,0 2.867,0.078 4.062,0.227 0.004,0 0.012,0 0.02,0 0.148,0.012 0.461,0.062 0.785,0.113 0.34,0.051 0.688,0.102 1.238,0.203 10.047,1.86 13.379,-5.117 14.102,-7.039 0.113,-0.301 0.168,-0.488 0.168,-0.488 L 52.59,12.743 58.883,0.005 H 45.117 c -6.144,13.683 -12.055,42.258 -18.371,44.781 -1.371,-0.191 -3.07,-0.281 -5.113,-0.281 -2.684,0 -5.086,0.32 -7.211,0.992 -2.125,0.672 -4.035,1.711 -5.75,3.129 C 6.957,50.079 5.406,51.935 4.027,54.169 2.609,56.403 1.266,59.091 0,62.224 Z" />
    </clipPath>
    <linearGradient
       id="linearGradient15593"
       spreadMethod="pad"
       gradientTransform="matrix(0.599312,0,0,-0.599312,-8.278026,602.79412)"
       gradientUnits="userSpaceOnUse"
       y2="922.07178"
       x2="78.000107"
       y1="1004.8033"
       x1="113.5146">
      <stop
         id="stop15589"
         offset="0"
         style="stop-opacity:1;stop-color:#e34646" />
      <stop
         id="stop15591"
         offset="1"
         style="stop-opacity:1;stop-color:#ffbf2d" />
    </linearGradient>
    <clipPath
       id="clipPath15603"
       clipPathUnits="userSpaceOnUse">
      <path
         inkscape:connector-curvature="0"
         id="path15601"
         d="M 52.586,12.747 45.125,0.005 h 14.957" />
    </clipPath>
    <linearGradient
       id="linearGradient15611"
       spreadMethod="pad"
       gradientTransform="matrix(-0.335594,0,0,-0.335594,86.28744,351.26907)"
       gradientUnits="userSpaceOnUse"
       y2="1043.709"
       x2="80.655251"
       y1="1025.709"
       x1="108.08774">
      <stop
         id="stop15607"
         offset="0"
         style="stop-opacity:1;stop-color:#ffb638" />
      <stop
         id="stop15609"
         offset="1"
         style="stop-opacity:1;stop-color:#f0ae26" />
    </linearGradient>
    <clipPath
       id="clipPath15621"
       clipPathUnits="userSpaceOnUse">
      <path
         inkscape:connector-curvature="0"
         id="path15619"
         d="M 3.41,63.493 0,62.224 c 0.398,-0.981 0.801,-1.914 1.211,-2.805 0.082,-0.18 0.164,-0.356 0.246,-0.531 0.082,-0.172 0.168,-0.344 0.25,-0.516 0.027,-0.055 0.055,-0.109 0.086,-0.168 0.137,-0.281 0.273,-0.562 0.414,-0.84 0.004,0 0.004,0 0.004,0 C 2.297,57.204 2.379,57.04 2.465,56.88 2.805,56.235 3.148,55.622 3.5,55.032 3.586,54.888 3.672,54.743 3.762,54.602 3.797,54.544 3.828,54.489 3.863,54.435 3.918,54.349 3.973,54.259 4.027,54.173 4.113,54.036 4.199,53.895 4.285,53.759 4.426,53.54 4.57,53.329 4.715,53.118 4.75,53.063 4.785,53.013 4.82,52.958 4.91,52.825 5,52.696 5.094,52.571 5.277,52.313 5.461,52.063 5.648,51.821 5.746,51.7 5.84,51.579 5.934,51.462 6.125,51.224 6.32,50.993 6.516,50.767 c 0.148,-0.168 0.3,-0.336 0.453,-0.5 0.047,-0.051 0.093,-0.102 0.144,-0.157 0.203,-0.211 0.407,-0.418 0.614,-0.621 0.101,-0.097 0.203,-0.195 0.308,-0.293 0.106,-0.097 0.211,-0.195 0.317,-0.289 0.105,-0.094 0.21,-0.183 0.32,-0.273 0.32,-0.266 0.648,-0.52 0.984,-0.758 0.895,-0.641 1.84,-1.184 2.836,-1.633 0.125,-0.058 0.246,-0.113 0.375,-0.168 0.254,-0.105 0.508,-0.207 0.77,-0.305 0.129,-0.046 0.258,-0.089 0.386,-0.136 0.133,-0.043 0.266,-0.086 0.399,-0.129 0.133,-0.043 0.266,-0.082 0.398,-0.121 0.274,-0.078 0.547,-0.153 0.825,-0.223 0.14,-0.031 0.281,-0.062 0.421,-0.094 0.141,-0.031 0.286,-0.062 0.426,-0.09 0.145,-0.031 0.289,-0.054 0.438,-0.082 0.289,-0.05 0.586,-0.097 0.886,-0.14 0.45,-0.059 0.911,-0.113 1.383,-0.149 0.313,-0.027 0.629,-0.046 0.953,-0.062 0.321,-0.016 0.649,-0.024 0.981,-0.027 0.164,0 0.332,0 0.5,0 0.254,0 0.504,0 0.75,0 0.492,0.007 0.957,0.015 1.406,0.035 0.223,0.008 0.441,0.015 0.652,0.027 0.211,0.012 0.422,0.027 0.625,0.039 0.606,0.047 1.164,0.102 1.68,0.172 0.043,-0.016 0.086,-0.035 0.129,-0.055 0.008,0 0.012,-0.008 0.016,-0.008 0.039,-0.019 0.074,-0.035 0.113,-0.054 0.246,-0.129 0.492,-0.293 0.738,-0.496 -0.539,0.73 -6.308,8.277 -14.781,10.297 -0.734,0.171 -1.273,0.429 -1.695,0.722 -0.004,0 -0.008,0.008 -0.008,0.008 -0.336,0.152 -0.66,0.313 -0.973,0.488 0,0 -0.004,0 -0.004,0 -0.082,0.047 -0.16,0.094 -0.242,0.145 0,0 0,-0.004 0,0 -0.082,0.047 -0.16,0.098 -0.238,0.144 C 9.641,56.083 9.48,56.188 9.324,56.298 9.246,56.349 9.168,56.407 9.09,56.462 8.938,56.575 8.785,56.688 8.633,56.81 8.559,56.868 8.484,56.927 8.41,56.989 8.336,57.052 8.262,57.114 8.188,57.177 8.113,57.243 8.043,57.306 7.969,57.372 7.605,57.7 7.25,58.048 6.91,58.423 c -0.07,0.074 -0.14,0.152 -0.207,0.23 -0.25,0.282 -0.496,0.578 -0.742,0.895 -0.031,0.039 -0.059,0.082 -0.09,0.121 -0.07,0.09 -0.141,0.18 -0.211,0.273 -0.344,0.461 -0.687,0.961 -1.027,1.493 -0.137,0.214 -0.274,0.433 -0.41,0.656 -0.067,0.113 -0.137,0.222 -0.203,0.34 -0.204,0.343 -0.407,0.699 -0.61,1.07 z" />
    </clipPath>
    <linearGradient
       id="linearGradient15629"
       spreadMethod="pad"
       gradientTransform="matrix(-0.599312,0,0,-0.599312,113.45784,91.962734)"
       gradientUnits="userSpaceOnUse"
       y2="69.791016"
       x2="177.04297"
       y1="63.65625"
       x1="142.96875">
      <stop
         id="stop15625"
         offset="0"
         style="stop-opacity:1;stop-color:#e34646" />
      <stop
         id="stop15627"
         offset="1"
         style="stop-opacity:1;stop-color:#ffbf2d" />
    </linearGradient>
  </defs>
  <sodipodi:namedview
     id="base"
     pagecolor="#ffffff"
     bordercolor="#f70bff"
     borderopacity="1"
     inkscape:pageopacity="0.0"
     inkscape:pageshadow="2"
     inkscape:zoom="0.49497475"
     inkscape:cx="874.3483"
     inkscape:cy="106.66694"
     inkscape:document-units="px"
     inkscape:current-layer="g9335-0"
     showgrid="false"
     units="px"
     borderlayer="true"
     inkscape:showpageshadow="false"
     inkscape:pagecheckerboard="true"
     inkscape:window-width="1920"
     inkscape:window-height="951"
     inkscape:window-x="0"
     inkscape:window-y="55"
     inkscape:window-maximized="1"
     showguides="false" />
  <metadata
     id="metadata5">
    <rdf:RDF>
      <cc:Work
         rdf:about="">
        <dc:format>image/svg+xml</dc:format>
        <dc:type
           rdf:resource="http://purl.org/dc/dcmitype/StillImage" />
        <dc:title />
        <cc:license
           rdf:resource="http://creativecommons.org/licenses/by-sa/4.0/" />
      </cc:Work>
      <cc:License
         rdf:about="http://creativecommons.org/licenses/by-sa/4.0/">
        <cc:permits
           rdf:resource="http://creativecommons.org/ns#Reproduction" />
        <cc:permits
           rdf:resource="http://creativecommons.org/ns#Distribution" />
        <cc:requires
           rdf:resource="http://creativecommons.org/ns#Notice" />
        <cc:requires
           rdf:resource="http://creativecommons.org/ns#Attribution" />
        <cc:permits
           rdf:resource="http://creativecommons.org/ns#DerivativeWorks" />
        <cc:requires
           rdf:resource="http://creativecommons.org/ns#ShareAlike" />
      </cc:License>
    </rdf:RDF>
  </metadata>
  <g
     inkscape:label="Layer 1"
     inkscape:groupmode="layer"
     id="layer1"
     transform="translate(0,-11.249975)">
    <rect
       style="color:#000000;clip-rule:nonzero;display:inline;overflow:visible;visibility:visible;opacity:1;isolation:auto;mix-blend-mode:normal;color-interpolation:sRGB;color-interpolation-filters:linearRGB;solid-color:#000000;solid-opacity:1;vector-effect:none;fill:#ffffff;fill-opacity:1;fill-rule:nonzero;stroke:none;stroke-width:0.3055087;stroke-linecap:round;stroke-linejoin:round;stroke-miterlimit:4;stroke-dasharray:none;stroke-dashoffset:0;stroke-opacity:1;color-rendering:auto;image-rendering:auto;shape-rendering:auto;text-rendering:auto;enable-background:accumulate"
       id="rect2926"
       width="512.95203"
       height="292.72192"
       x="-2.0354033"
       y="8.4516382" />
    <text
       xml:space="preserve"
       style="font-style:normal;font-variant:normal;font-weight:normal;font-stretch:normal;font-size:25.40000153px;line-height:6.61458349px;font-family:'Century Schoolbook L';-inkscape-font-specification:'Century Schoolbook L';letter-spacing:0px;word-spacing:0px;fill:#000000;fill-opacity:1;stroke:none;stroke-width:0.26458335px;stroke-linecap:butt;stroke-linejoin:miter;stroke-opacity:1;"
       x="238.13715"
       y="144.99043"
       id="text9454"><tspan
         sodipodi:role="line"
         id="tspan9452"
         x="238.13715"
         y="154.26672"
         style="font-style:normal;font-variant:normal;font-weight:normal;font-stretch:normal;font-family:'Century Schoolbook L';-inkscape-font-specification:'Century Schoolbook L';stroke-width:0.26458335px;" /></text>
    <flowRoot
       transform="matrix(0.42305208,0,0,0.42305208,-30.171396,-23.993117)"
       xml:space="preserve"
       id="flowRoot17214"
       style="font-style:normal;font-weight:normal;font-size:20px;line-height:25px;font-family:Sans;letter-spacing:0px;word-spacing:0px;fill:#000000;fill-opacity:1;stroke:none;stroke-width:1px;stroke-linecap:butt;stroke-linejoin:miter;stroke-opacity:1"><flowRegion
         id="flowRegion17216"><rect
           id="rect17218"
           width="32.251968"
           height="32.251968"
           x="378.96063"
           y="282.20471"
           style="fill:none;stroke:#000000;stroke-linecap:round;stroke-linejoin:round;stroke-miterlimit:10" /></flowRegion><flowPara
         id="flowPara17220" /></flowRoot>    <path
       style="color:#000000;clip-rule:nonzero;display:inline;overflow:visible;visibility:visible;opacity:1;isolation:auto;mix-blend-mode:normal;color-interpolation:sRGB;color-interpolation-filters:linearRGB;solid-color:#000000;solid-opacity:1;vector-effect:none;fill:#232323;fill-opacity:1;fill-rule:nonzero;stroke:none;stroke-width:3.94218278;stroke-linecap:round;stroke-linejoin:round;stroke-miterlimit:4;stroke-dasharray:none;stroke-dashoffset:0;stroke-opacity:1;color-rendering:auto;image-rendering:auto;shape-rendering:auto;text-rendering:auto;enable-background:accumulate"
       d="M -1.6045246,53.444864 509.85448,59.114916 509.33979,150.20912 -1.6045246,143.55753 Z"
       id="rect8432-9"
       inkscape:connector-curvature="0"
       sodipodi:nodetypes="ccccc" />
    <text
       xml:space="preserve"
       style="font-style:normal;font-weight:normal;font-size:14.09579372px;line-height:17.61974335px;font-family:Sans;letter-spacing:0px;word-spacing:0px;fill:#ffffff;fill-opacity:1;stroke:none;stroke-width:0.7047897px;stroke-linecap:butt;stroke-linejoin:miter;stroke-opacity:1"
       x="58.282906"
       y="95.894623"
       id="text7537-3"><tspan
         sodipodi:role="line"
         x="58.282906"
         y="95.894623"
         style="font-style:normal;font-variant:normal;font-weight:normal;font-stretch:normal;font-size:33.8666687px;line-height:100%;font-family:'League Gothic';-inkscape-font-specification:'League Gothic';fill:#ffffff;fill-opacity:1;stroke-width:0.7047897px"
         id="tspan13253">guix pack --format <tspan
   style="font-style:normal;font-variant:normal;font-weight:normal;font-stretch:normal;font-size:33.8666687px;line-height:100%;font-family:'League Gothic';-inkscape-font-specification:'League Gothic';fill:#ffbf2d;fill-opacity:1;stroke-width:0.7047897px"
   id="tspan13385">docker</tspan></tspan><tspan
         sodipodi:role="line"
         x="58.282906"
         y="129.76129"
         style="font-style:normal;font-variant:normal;font-weight:normal;font-stretch:normal;font-size:33.8666687px;line-height:100%;font-family:'League Gothic';-inkscape-font-specification:'League Gothic';fill:#ffffff;fill-opacity:1;stroke-width:0.7047897px"
         id="tspan13353">                    samtools bedtools</tspan></text>
    <text
       xml:space="preserve"
       style="font-style:normal;font-weight:normal;font-size:14.09579372px;line-height:17.61974335px;font-family:Sans;letter-spacing:0px;word-spacing:0px;fill:#000000;fill-opacity:1;stroke:none;stroke-width:0.7047897px;stroke-linecap:butt;stroke-linejoin:miter;stroke-opacity:1"
       x="65.385788"
       y="160.08018"
       id="text7537-3-8"><tspan
         sodipodi:role="line"
         id="tspan7535-6-1"
         x="65.385788"
         y="172.55167"
         style="font-style:normal;font-variant:normal;font-weight:normal;font-stretch:normal;font-size:30.07102776px;font-family:'League Gothic';-inkscape-font-specification:'League Gothic';fill:#000000;fill-opacity:1;stroke-width:0.7047897px" /><tspan
         sodipodi:role="line"
         x="65.385788"
         y="191.39194"
         style="font-style:normal;font-variant:normal;font-weight:normal;font-stretch:normal;font-size:18.79439163px;font-family:'DejaVu Sans Mono';-inkscape-font-specification:'DejaVu Sans Mono';fill:#000000;fill-opacity:1;stroke-width:0.7047897px"
         id="tspan13253-6">/gnu/store/</tspan><tspan
         sodipodi:role="line"
         x="65.385788"
         y="210.23221"
         style="font-style:normal;font-variant:normal;font-weight:normal;font-stretch:normal;font-size:18.79439163px;font-family:'DejaVu Sans Mono';-inkscape-font-specification:'DejaVu Sans Mono';fill:#000000;fill-opacity:1;stroke-width:0.7047897px"
         id="tspan13387">    …-docker-pack.tar.gz</tspan></text>
    <g
       id="g9335-0"
       transform="matrix(-0.19423393,0.112141,0.112141,0.19423393,347.89964,222.99932)">
      <path
         style="fill:#4e64f3;fill-opacity:1;stroke:none;stroke-width:1.94391859"
         id="path14-9"
         d="M -353.0824,356.43594 -364.31999,375.9 c -5.18932,8.9882 -12.12829,17.30885 -19.92704,24.15575 -3.83304,3.36376 -8.51719,6.91899 -13.38134,9.61173 -3.95748,-9.53022 -11.3142,-17.47667 -19.67298,-23.39175 -11.37014,-8.0432 -28.40193,-14.64633 -42.49542,-11.94461 l -7.0165,1.3443 1.09217,7.05964 c 2.74449,17.77152 10.4786,35.85001 24.9762,46.61968 -12.73942,12.1354 -21.63104,29.88478 -21.63365,47.06325 l -0.003,7.04717 7.03682,0.35286 c 27.55947,1.38212 47.30024,-17.59532 58.99353,-40.54097 102.25186,14.5976 183.44351,-35.27201 234.23747,-123.24971 26.24185,-45.45217 33.32728,-96.96336 6.71094,-143.9926 -1.70115,-2.83852 -3.63216,-5.54308 -5.47486,-8.2929 -13.11657,-18.27562 -31.0233,-32.16885 -51.49731,-41.578 l -6.13327,-2.81737 -19.00466,32.91705"
         inkscape:connector-curvature="0"
         sodipodi:nodetypes="cscccccccccccsccccc" />
      <path
         style="fill:#3c55f2;fill-opacity:1;stroke:none"
         id="path44-3"
         clip-path="url(#clipPath8-8-1)"
         d="m 222.5,53.9375 v 0.03125 c -20.86119,26.889144 -50.78312,50.37872 -82.90625,62.71875 -28.65478,11.00767 -53.638381,11.06039 -70.875,2.21875 -1.85607,-1.04832 -3.675701,-2.21152 -5.5,-3.3125 C 50.582097,106.76175 43.464274,92.152308 44.0625,72.90625 H 34 V 146 H 251 V 50 h -25 z"
         inkscape:connector-curvature="0"
         transform="matrix(-0.97195943,1.6834828,1.6834828,0.97195943,-303.8456,2.4796584)" />
      <path
         style="fill:#d4edf1;stroke:none;stroke-width:1.94391859"
         id="path48-4"
         d="m -223.08687,278.44156 c 5.08242,2.93433 11.58168,1.19286 14.51601,-3.88954 2.93483,-5.08329 1.19389,-11.58347 -3.88851,-14.51781 -5.08237,-2.93431 -11.58402,-1.19299 -14.51884,3.89032 -2.93432,5.0824 -1.19104,11.58272 3.89134,14.51703 z"
         inkscape:connector-curvature="0" />
      <path
         style="color:#000000;clip-rule:nonzero;display:inline;overflow:visible;visibility:visible;opacity:1;isolation:auto;mix-blend-mode:normal;color-interpolation:sRGB;color-interpolation-filters:linearRGB;solid-color:#000000;solid-opacity:1;vector-effect:none;fill:#ffffff;fill-opacity:1;fill-rule:nonzero;stroke:none;stroke-width:46.17539978;stroke-linecap:round;stroke-linejoin:round;stroke-miterlimit:4;stroke-dasharray:none;stroke-dashoffset:0;stroke-opacity:1;color-rendering:auto;image-rendering:auto;shape-rendering:auto;text-rendering:auto;enable-background:accumulate"
         d="m -83.927782,210.88181 c 24.830141,15.4113 -12.894621,37.24923 -29.686028,64.30299 -16.7914,27.05371 -53.67905,47.55216 -78.5092,32.14087 -24.83015,-15.41129 21.22514,3.24342 38.01659,-23.81032 16.79138,-27.05375 45.34847,-88.04483 70.178638,-72.63354 z"
         id="path15461"
         inkscape:connector-curvature="0"
         sodipodi:nodetypes="sssss" />
      <path
         style="color:#000000;clip-rule:nonzero;display:inline;overflow:visible;visibility:visible;opacity:1;isolation:auto;mix-blend-mode:normal;color-interpolation:sRGB;color-interpolation-filters:linearRGB;solid-color:#000000;solid-opacity:1;vector-effect:none;fill:#ffffff;fill-opacity:1;fill-rule:nonzero;stroke:#4e64f3;stroke-width:6.36982679;stroke-linecap:round;stroke-linejoin:round;stroke-miterlimit:4;stroke-dasharray:none;stroke-dashoffset:0;stroke-opacity:1;color-rendering:auto;image-rendering:auto;shape-rendering:auto;text-rendering:auto;enable-background:accumulate"
         id="path15480"
         transform="matrix(-0.55639101,0.8309206,0.8309206,0.55639101,0,0)"
         sodipodi:type="arc"
         sodipodi:cx="102.52755"
         sodipodi:cy="110.63986"
         sodipodi:rx="110.64338"
         sodipodi:ry="111.80804"
         sodipodi:start="0"
         sodipodi:end="5.8712292"
         sodipodi:open="true"
         d="M 213.17093,110.63986 A 110.64338,111.80804 0 0 1 113.90247,221.85546 110.64338,111.80804 0 0 1 -5.7769852,133.50736 110.64338,111.80804 0 0 1 68.883687,4.1261412 110.64338,111.80804 0 0 1 203.91443,65.871639" />
      <text
         xml:space="preserve"
         style="font-style:normal;font-weight:normal;font-size:63.69826889px;line-height:79.62284088px;font-family:Sans;letter-spacing:0px;word-spacing:0px;fill:#000000;fill-opacity:1;stroke:none;stroke-width:3.1849134px;stroke-linecap:butt;stroke-linejoin:miter;stroke-opacity:1"
         x="-13.907963"
         y="163.16696"
         id="text15484"
         transform="matrix(-0.86602542,0.49999998,0.49999998,0.86602542,0,0)"><tspan
           sodipodi:role="line"
           id="tspan15482"
           x="-13.907963"
           y="163.16696"
           style="font-style:normal;font-variant:normal;font-weight:normal;font-stretch:normal;font-family:'Adobe New Century Schoolbook';-inkscape-font-specification:'Adobe New Century Schoolbook';stroke-width:3.1849134px">LOL</tspan></text>
      <path
         style="fill:none;fill-rule:evenodd;stroke:#4e64f3;stroke-width:6.36982679;stroke-linecap:round;stroke-linejoin:round;stroke-miterlimit:4;stroke-dasharray:none;stroke-opacity:1"
         d="M -58.722048,206.08708 -97.928242,263.7756"
         id="path15486"
         inkscape:connector-curvature="0" />
      <path
         style="fill:none;fill-rule:evenodd;stroke:#4e64f3;stroke-width:6.36982679;stroke-linecap:butt;stroke-linejoin:round;stroke-miterlimit:4;stroke-dasharray:none;stroke-opacity:1"
         d="M -25.498431,238.00941 -97.928242,263.7756"
         id="path15488"
         inkscape:connector-curvature="0"
         sodipodi:nodetypes="cc" />
      <g
         transform="matrix(-4.6159585,2.6650246,-2.6650246,-4.6159585,412.53333,366.70879)"
         inkscape:label="Guix-horizontal-print"
         id="g15553">
        <g
           id="g15555">
          <path
             inkscape:connector-curvature="0"
             id="path15557"
             style="fill:#ffbf2d;fill-opacity:1;fill-rule:nonzero;stroke:none;stroke-width:0.3177737;stroke-linecap:round;stroke-linejoin:round;stroke-miterlimit:10"
             d="m 117.30251,100.00216 c -0.49349,-0.518168 -0.96284,-0.921734 -1.41106,-1.218132 -0.43205,-0.288881 -0.87855,-0.49296 -1.34047,-0.614606 -0.44805,-0.112875 -0.93116,-0.151527 -1.44731,-0.110938 -0.50223,0.04839 -1.06475,0.155354 -1.69429,0.324036 -0.4638,0.124275 -0.87484,0.260046 -1.22815,0.403735 -0.002,4.18e-4 -0.005,0.0016 -0.006,0.0016 -0.0461,0.01487 -0.13764,0.05724 -0.23165,0.09927 -0.10016,0.04365 -0.20248,0.08779 -0.36332,0.1641 -2.93091,1.397245 -4.52871,-0.469944 -4.90747,-1.000767 -0.0597,-0.08401 -0.0917,-0.135971 -0.0917,-0.135971 l -6.54868,-9.447503 -3.34695,-3.292461 4.593437,-1.230808 c 3.011553,3.694537 7.175793,11.979434 9.321963,12.234399 0.40511,-0.171384 0.91829,-0.338498 1.5463,-0.506779 0.82384,-0.220743 1.58745,-0.320072 2.29498,-0.288576 0.70753,0.03151 1.37925,0.193314 2.02228,0.487517 0.64592,0.304944 1.27431,0.745843 1.88166,1.319366 0.61898,0.569089 1.25136,1.283949 1.89856,2.141244 z" />
          <g
             id="g15559"
             transform="matrix(0.30694583,-0.08224589,0.08224589,0.30694583,80.836432,88.883753)">
            <g
               clip-path="url(#clipPath15565)"
               id="g15561">
              <g
                 id="g15567">
                <path
                   inkscape:connector-curvature="0"
                   id="path15575"
                   style="fill:url(#linearGradient15573);stroke:none;stroke-linecap:round;stroke-linejoin:round;stroke-miterlimit:10"
                   d="m 101.789,63.493 c -1.082,-1.973 -2.176,-3.582 -3.297,-4.848 -1.078,-1.23 -2.273,-2.214 -3.578,-2.96 -0.312,-0.176 -0.637,-0.336 -0.969,-0.485 -0.004,0 -0.007,-0.008 -0.011,-0.008 -0.418,-0.297 -0.961,-0.55 -1.696,-0.726 C 83.77,52.45 78,44.899 77.457,44.173 c 0.246,0.199 0.492,0.363 0.742,0.492 0.035,0.02 0.071,0.035 0.11,0.055 0.003,0 0.011,0.007 0.015,0.007 0.043,0.02 0.09,0.04 0.133,0.059 1.367,-0.195 3.066,-0.285 5.109,-0.285 2.684,0 5.086,0.324 7.211,0.996 2.125,0.672 4.035,1.711 5.75,3.125 1.715,1.453 3.266,3.309 4.645,5.547 1.418,2.234 2.762,4.922 4.027,8.055 z" />
              </g>
            </g>
          </g>
          <path
             inkscape:connector-curvature="0"
             id="path15577"
             style="fill:#ffbf2d;fill-opacity:1;fill-rule:nonzero;stroke:none;stroke-width:0.3177737;stroke-linecap:round;stroke-linejoin:round;stroke-miterlimit:10"
             d="m 87.105484,108.09343 c 0.168287,-0.69549 0.372984,-1.27967 0.61294,-1.76047 0.229731,-0.4662 0.514681,-0.86627 0.853581,-1.2025 0.331593,-0.32177 0.730641,-0.5968 1.197948,-0.81972 0.459123,-0.20923 0.99977,-0.39784 1.629313,-0.56653 0.464107,-0.12435 0.88765,-0.21221 1.265475,-0.26443 0.0016,-3.3e-4 0.0048,-0.002 0.0064,-0.002 0.04727,-0.0101 0.147829,-0.0192 0.250254,-0.0298 0.108567,-0.0123 0.219569,-0.0253 0.396693,-0.0395 3.236855,-0.2554 3.686999,-2.67134 3.749623,-3.32042 0.0097,-0.102614 0.01141,-0.163606 0.01141,-0.163606 l 0.947557,-11.456111 1.252324,-4.524837 -4.593445,1.23081 c -0.760506,4.705258 -0.22469,13.962389 -1.955857,15.256274 -0.436526,0.0541 -0.964206,0.16592 -1.592526,0.33427 -0.823837,0.22075 -1.534806,0.51653 -2.131798,0.89757 -0.596984,0.38104 -1.097798,0.85705 -1.507586,1.43335 -0.406911,0.58704 -0.730664,1.28307 -0.969876,2.08343 -0.251513,0.80234 -0.441436,1.73753 -0.573581,2.80365 z" />
          <g
             id="g15579"
             transform="matrix(0.30694583,-0.08224589,0.08224589,0.30694583,80.836432,88.883753)">
            <g
               clip-path="url(#clipPath15585)"
               id="g15581">
              <g
                 id="g15587">
                <path
                   inkscape:connector-curvature="0"
                   id="path15595"
                   style="fill:url(#linearGradient15593);stroke:none;stroke-linecap:round;stroke-linejoin:round;stroke-miterlimit:10"
                   d="m 3.41,63.497 c 1.078,-1.977 2.176,-3.586 3.293,-4.852 1.082,-1.23 2.274,-2.214 3.578,-2.96 1.27,-0.708 2.707,-1.219 4.309,-1.516 1.566,-0.262 3.363,-0.395 5.414,-0.395 1.512,0 2.867,0.078 4.062,0.227 0.004,0 0.012,0 0.02,0 0.148,0.012 0.461,0.062 0.785,0.113 0.34,0.051 0.688,0.102 1.238,0.203 10.047,1.86 13.379,-5.117 14.102,-7.039 0.113,-0.301 0.168,-0.488 0.168,-0.488 L 52.59,12.743 58.883,0.005 H 45.117 c -6.144,13.683 -12.055,42.258 -18.371,44.781 -1.371,-0.191 -3.07,-0.281 -5.113,-0.281 -2.684,0 -5.086,0.32 -7.211,0.992 -2.125,0.672 -4.035,1.711 -5.75,3.129 C 6.957,50.079 5.406,51.935 4.027,54.169 2.609,56.403 1.266,59.091 0,62.224 Z" />
              </g>
            </g>
          </g>
          <g
             id="g15597"
             transform="matrix(0.30694583,-0.08224589,0.08224589,0.30694583,80.836432,88.883753)">
            <g
               clip-path="url(#clipPath15603)"
               id="g15599">
              <g
                 id="g15605">
                <path
                   inkscape:connector-curvature="0"
                   id="path15613"
                   style="fill:url(#linearGradient15611);stroke:none;stroke-linecap:round;stroke-linejoin:round;stroke-miterlimit:10"
                   d="M 52.586,12.747 45.125,0.005 h 14.957" />
              </g>
            </g>
          </g>
          <g
             id="g15615"
             transform="matrix(0.30694583,-0.08224589,0.08224589,0.30694583,80.836432,88.883753)">
            <g
               clip-path="url(#clipPath15621)"
               id="g15617">
              <g
                 id="g15623">
                <path
                   inkscape:connector-curvature="0"
                   id="path15631"
                   style="fill:url(#linearGradient15629);stroke:none;stroke-linecap:round;stroke-linejoin:round;stroke-miterlimit:10"
                   d="M 3.41,63.493 0,62.224 c 0.398,-0.981 0.801,-1.914 1.211,-2.805 0.082,-0.18 0.164,-0.356 0.246,-0.531 0.082,-0.172 0.168,-0.344 0.25,-0.516 0.027,-0.055 0.055,-0.109 0.086,-0.168 0.137,-0.281 0.273,-0.562 0.414,-0.84 0.004,0 0.004,0 0.004,0 C 2.297,57.204 2.379,57.04 2.465,56.88 2.805,56.235 3.148,55.622 3.5,55.032 3.586,54.888 3.672,54.743 3.762,54.602 3.797,54.544 3.828,54.489 3.863,54.435 3.918,54.349 3.973,54.259 4.027,54.173 4.113,54.036 4.199,53.895 4.285,53.759 4.426,53.54 4.57,53.329 4.715,53.118 4.75,53.063 4.785,53.013 4.82,52.958 4.91,52.825 5,52.696 5.094,52.571 5.277,52.313 5.461,52.063 5.648,51.821 5.746,51.7 5.84,51.579 5.934,51.462 6.125,51.224 6.32,50.993 6.516,50.767 c 0.148,-0.168 0.3,-0.336 0.453,-0.5 0.047,-0.051 0.093,-0.102 0.144,-0.157 0.203,-0.211 0.407,-0.418 0.614,-0.621 0.101,-0.097 0.203,-0.195 0.308,-0.293 0.106,-0.097 0.211,-0.195 0.317,-0.289 0.105,-0.094 0.21,-0.183 0.32,-0.273 0.32,-0.266 0.648,-0.52 0.984,-0.758 0.895,-0.641 1.84,-1.184 2.836,-1.633 0.125,-0.058 0.246,-0.113 0.375,-0.168 0.254,-0.105 0.508,-0.207 0.77,-0.305 0.129,-0.046 0.258,-0.089 0.386,-0.136 0.133,-0.043 0.266,-0.086 0.399,-0.129 0.133,-0.043 0.266,-0.082 0.398,-0.121 0.274,-0.078 0.547,-0.153 0.825,-0.223 0.14,-0.031 0.281,-0.062 0.421,-0.094 0.141,-0.031 0.286,-0.062 0.426,-0.09 0.145,-0.031 0.289,-0.054 0.438,-0.082 0.289,-0.05 0.586,-0.097 0.886,-0.14 0.45,-0.059 0.911,-0.113 1.383,-0.149 0.313,-0.027 0.629,-0.046 0.953,-0.062 0.321,-0.016 0.649,-0.024 0.981,-0.027 0.164,0 0.332,0 0.5,0 0.254,0 0.504,0 0.75,0 0.492,0.007 0.957,0.015 1.406,0.035 0.223,0.008 0.441,0.015 0.652,0.027 0.211,0.012 0.422,0.027 0.625,0.039 0.606,0.047 1.164,0.102 1.68,0.172 0.043,-0.016 0.086,-0.035 0.129,-0.055 0.008,0 0.012,-0.008 0.016,-0.008 0.039,-0.019 0.074,-0.035 0.113,-0.054 0.246,-0.129 0.492,-0.293 0.738,-0.496 -0.539,0.73 -6.308,8.277 -14.781,10.297 -0.734,0.171 -1.273,0.429 -1.695,0.722 -0.004,0 -0.008,0.008 -0.008,0.008 -0.336,0.152 -0.66,0.313 -0.973,0.488 0,0 -0.004,0 -0.004,0 -0.082,0.047 -0.16,0.094 -0.242,0.145 0,0 0,-0.004 0,0 -0.082,0.047 -0.16,0.098 -0.238,0.144 C 9.641,56.083 9.48,56.188 9.324,56.298 9.246,56.349 9.168,56.407 9.09,56.462 8.938,56.575 8.785,56.688 8.633,56.81 8.559,56.868 8.484,56.927 8.41,56.989 8.336,57.052 8.262,57.114 8.188,57.177 8.113,57.243 8.043,57.306 7.969,57.372 7.605,57.7 7.25,58.048 6.91,58.423 c -0.07,0.074 -0.14,0.152 -0.207,0.23 -0.25,0.282 -0.496,0.578 -0.742,0.895 -0.031,0.039 -0.059,0.082 -0.09,0.121 -0.07,0.09 -0.141,0.18 -0.211,0.273 -0.344,0.461 -0.687,0.961 -1.027,1.493 -0.137,0.214 -0.274,0.433 -0.41,0.656 -0.067,0.113 -0.137,0.222 -0.203,0.34 -0.204,0.343 -0.407,0.699 -0.61,1.07 z" />
              </g>
            </g>
          </g>
        </g>
      </g>
    </g>
  </g>
  <style
     id="style10850"
     type="text/css">
	.st0{opacity:0.15;fill:#292F33;}
	.st1{fill:#FFFFFF;}
</style>
</svg>
