digraph "Guix bag" {
  "/gnu/store/xmqfk1h1725w6gbxfpvhdvv71ib9870s-make-boot0-4.2.1.drv" [label = "make-boot0@4.2.1", shape = box, fontname = Helvetica];
  "/gnu/store/xmqfk1h1725w6gbxfpvhdvv71ib9870s-make-boot0-4.2.1.drv" -> "/gnu/store/mw0skn92ac1nqhmh89qsqwm27jz3l1jq-glibc-mesboot-2.16.0.drv" [color = cyan3];
  "/gnu/store/xmqfk1h1725w6gbxfpvhdvv71ib9870s-make-boot0-4.2.1.drv" -> "/gnu/store/aiy6k5wlrjzl7kxd9zfpxb5nfjdxiq82-binutils-mesboot-2.20.1a.drv" [color = cyan3];
  "/gnu/store/xmqfk1h1725w6gbxfpvhdvv71ib9870s-make-boot0-4.2.1.drv" -> "/gnu/store/wmf4y32lq5jrci7q85pgrkq9bckkziqf-gcc-mesboot-wrapper-4.7.4.drv" [color = cyan3];
  "/gnu/store/xmqfk1h1725w6gbxfpvhdvv71ib9870s-make-boot0-4.2.1.drv" -> "/gnu/store/ghpg2libayj02dkm6hkp6d44ivkv894z-gcc-mesboot-4.9.4.drv" [color = cyan3];
  "/gnu/store/xmqfk1h1725w6gbxfpvhdvv71ib9870s-make-boot0-4.2.1.drv" -> "/gnu/store/vrq2a7h6ya4gws23hqn6ygi7wnib6496-linux-libre-headers-bootstrap-0.drv" [color = cyan3];
  "/gnu/store/xmqfk1h1725w6gbxfpvhdvv71ib9870s-make-boot0-4.2.1.drv" -> "/gnu/store/awv71y21ybrr68ygxd154ivaaclj4qg2-bootstrap-mescc-tools-0.5.2.drv" [color = cyan3];
  "/gnu/store/xmqfk1h1725w6gbxfpvhdvv71ib9870s-make-boot0-4.2.1.drv" -> "/gnu/store/fl6qxjcg355pagvngd96gf5nir678cwk-bootstrap-mes-0.drv" [color = cyan3];
  "/gnu/store/xmqfk1h1725w6gbxfpvhdvv71ib9870s-make-boot0-4.2.1.drv" -> "/gnu/store/n08bmic0cc7xsbxz7vapbh8rkk27qyis-bootstrap-binaries-0.drv" [color = cyan3];
  "/gnu/store/xmqfk1h1725w6gbxfpvhdvv71ib9870s-make-boot0-4.2.1.drv" -> "/gnu/store/n08bmic0cc7xsbxz7vapbh8rkk27qyis-bootstrap-binaries-0.drv" [color = cyan3];
  "/gnu/store/mw0skn92ac1nqhmh89qsqwm27jz3l1jq-glibc-mesboot-2.16.0.drv" [label = "glibc-mesboot@2.16.0", shape = box, fontname = Helvetica];
  "/gnu/store/mw0skn92ac1nqhmh89qsqwm27jz3l1jq-glibc-mesboot-2.16.0.drv" -> "/gnu/store/aiy6k5wlrjzl7kxd9zfpxb5nfjdxiq82-binutils-mesboot-2.20.1a.drv" [color = red];
  "/gnu/store/mw0skn92ac1nqhmh89qsqwm27jz3l1jq-glibc-mesboot-2.16.0.drv" -> "/gnu/store/zrnhglk67xc8701zbsw58c0fmnbp75z0-glibc-mesboot0-2.2.5.drv" [color = red];
  "/gnu/store/mw0skn92ac1nqhmh89qsqwm27jz3l1jq-glibc-mesboot-2.16.0.drv" -> "/gnu/store/27zvyk378j2vyyqv9l1dlqzp5ldqqkaz-glibc-headers-mesboot-2.16.0.drv" [color = red];
  "/gnu/store/mw0skn92ac1nqhmh89qsqwm27jz3l1jq-glibc-mesboot-2.16.0.drv" -> "/gnu/store/iynqblmi51xxnzr2i6vyb59lk0l6phzi-gcc-mesboot1-4.7.4.drv" [color = red];
  "/gnu/store/mw0skn92ac1nqhmh89qsqwm27jz3l1jq-glibc-mesboot-2.16.0.drv" -> "/gnu/store/n08bmic0cc7xsbxz7vapbh8rkk27qyis-bootstrap-binaries-0.drv" [color = red];
  "/gnu/store/mw0skn92ac1nqhmh89qsqwm27jz3l1jq-glibc-mesboot-2.16.0.drv" -> "/gnu/store/n08bmic0cc7xsbxz7vapbh8rkk27qyis-bootstrap-binaries-0.drv" [color = red];
  "/gnu/store/mw0skn92ac1nqhmh89qsqwm27jz3l1jq-glibc-mesboot-2.16.0.drv" -> "/gnu/store/17hzzynybbdnyiwg5cbh3y9ba8kb0vxg-diffutils-mesboot-2.7.drv" [color = red];
  "/gnu/store/mw0skn92ac1nqhmh89qsqwm27jz3l1jq-glibc-mesboot-2.16.0.drv" -> "/gnu/store/vrq2a7h6ya4gws23hqn6ygi7wnib6496-linux-libre-headers-bootstrap-0.drv" [color = red];
  "/gnu/store/mw0skn92ac1nqhmh89qsqwm27jz3l1jq-glibc-mesboot-2.16.0.drv" -> "/gnu/store/lkmx7360vlvfigz88s4y427m72w8as1a-make-mesboot-3.82.drv" [color = red];
  "/gnu/store/aiy6k5wlrjzl7kxd9zfpxb5nfjdxiq82-binutils-mesboot-2.20.1a.drv" [label = "binutils-mesboot@2.20.1a", shape = box, fontname = Helvetica];
  "/gnu/store/aiy6k5wlrjzl7kxd9zfpxb5nfjdxiq82-binutils-mesboot-2.20.1a.drv" -> "/gnu/store/xqp9xn8v370sf887rhrns68cvg3kz2n3-binutils-mesboot0-2.20.1a.drv" [color = magenta];
  "/gnu/store/aiy6k5wlrjzl7kxd9zfpxb5nfjdxiq82-binutils-mesboot-2.20.1a.drv" -> "/gnu/store/zrnhglk67xc8701zbsw58c0fmnbp75z0-glibc-mesboot0-2.2.5.drv" [color = magenta];
  "/gnu/store/aiy6k5wlrjzl7kxd9zfpxb5nfjdxiq82-binutils-mesboot-2.20.1a.drv" -> "/gnu/store/crfm7vmph6cw1chfnxxdf2f9pvg62knp-gcc-mesboot0-2.95.3.drv" [color = magenta];
  "/gnu/store/aiy6k5wlrjzl7kxd9zfpxb5nfjdxiq82-binutils-mesboot-2.20.1a.drv" -> "/gnu/store/n08bmic0cc7xsbxz7vapbh8rkk27qyis-bootstrap-binaries-0.drv" [color = magenta];
  "/gnu/store/aiy6k5wlrjzl7kxd9zfpxb5nfjdxiq82-binutils-mesboot-2.20.1a.drv" -> "/gnu/store/n08bmic0cc7xsbxz7vapbh8rkk27qyis-bootstrap-binaries-0.drv" [color = magenta];
  "/gnu/store/aiy6k5wlrjzl7kxd9zfpxb5nfjdxiq82-binutils-mesboot-2.20.1a.drv" -> "/gnu/store/17hzzynybbdnyiwg5cbh3y9ba8kb0vxg-diffutils-mesboot-2.7.drv" [color = magenta];
  "/gnu/store/aiy6k5wlrjzl7kxd9zfpxb5nfjdxiq82-binutils-mesboot-2.20.1a.drv" -> "/gnu/store/vrq2a7h6ya4gws23hqn6ygi7wnib6496-linux-libre-headers-bootstrap-0.drv" [color = magenta];
  "/gnu/store/aiy6k5wlrjzl7kxd9zfpxb5nfjdxiq82-binutils-mesboot-2.20.1a.drv" -> "/gnu/store/bkjm21s9f7797bb30dx56azmhd2gnvqa-make-mesboot0-3.80.drv" [color = magenta];
  "/gnu/store/xqp9xn8v370sf887rhrns68cvg3kz2n3-binutils-mesboot0-2.20.1a.drv" [label = "binutils-mesboot0@2.20.1a", shape = box, fontname = Helvetica];
  "/gnu/store/xqp9xn8v370sf887rhrns68cvg3kz2n3-binutils-mesboot0-2.20.1a.drv" -> "/gnu/store/zajwffxc2bi3kby5898rjwp3ycdx6sjy-tcc-boot-0.9.27.drv" [color = dimgrey];
  "/gnu/store/xqp9xn8v370sf887rhrns68cvg3kz2n3-binutils-mesboot0-2.20.1a.drv" -> "/gnu/store/n08bmic0cc7xsbxz7vapbh8rkk27qyis-bootstrap-binaries-0.drv" [color = dimgrey];
  "/gnu/store/xqp9xn8v370sf887rhrns68cvg3kz2n3-binutils-mesboot0-2.20.1a.drv" -> "/gnu/store/n08bmic0cc7xsbxz7vapbh8rkk27qyis-bootstrap-binaries-0.drv" [color = dimgrey];
  "/gnu/store/xqp9xn8v370sf887rhrns68cvg3kz2n3-binutils-mesboot0-2.20.1a.drv" -> "/gnu/store/17hzzynybbdnyiwg5cbh3y9ba8kb0vxg-diffutils-mesboot-2.7.drv" [color = dimgrey];
  "/gnu/store/xqp9xn8v370sf887rhrns68cvg3kz2n3-binutils-mesboot0-2.20.1a.drv" -> "/gnu/store/bkjm21s9f7797bb30dx56azmhd2gnvqa-make-mesboot0-3.80.drv" [color = dimgrey];
  "/gnu/store/zajwffxc2bi3kby5898rjwp3ycdx6sjy-tcc-boot-0.9.27.drv" [label = "tcc-boot@0.9.27", shape = box, fontname = Helvetica];
  "/gnu/store/zajwffxc2bi3kby5898rjwp3ycdx6sjy-tcc-boot-0.9.27.drv" -> "/gnu/store/cn42d0h7l8zc72sj20xnr3w47za4kw6s-mes-boot-0.19.drv" [color = red];
  "/gnu/store/zajwffxc2bi3kby5898rjwp3ycdx6sjy-tcc-boot-0.9.27.drv" -> "/gnu/store/dsn288nnc52x09mswnjs98y366k9brcq-tcc-boot0-0.9.26-6.c004e9a.drv" [color = red];
  "/gnu/store/zajwffxc2bi3kby5898rjwp3ycdx6sjy-tcc-boot-0.9.27.drv" -> "/gnu/store/n08bmic0cc7xsbxz7vapbh8rkk27qyis-bootstrap-binaries-0.drv" [color = red];
  "/gnu/store/cn42d0h7l8zc72sj20xnr3w47za4kw6s-mes-boot-0.19.drv" [label = "mes-boot@0.19", shape = box, fontname = Helvetica];
  "/gnu/store/cn42d0h7l8zc72sj20xnr3w47za4kw6s-mes-boot-0.19.drv" -> "/gnu/store/awv71y21ybrr68ygxd154ivaaclj4qg2-bootstrap-mescc-tools-0.5.2.drv" [color = dimgrey];
  "/gnu/store/cn42d0h7l8zc72sj20xnr3w47za4kw6s-mes-boot-0.19.drv" -> "/gnu/store/n08bmic0cc7xsbxz7vapbh8rkk27qyis-bootstrap-binaries-0.drv" [color = dimgrey];
  "/gnu/store/cn42d0h7l8zc72sj20xnr3w47za4kw6s-mes-boot-0.19.drv" -> "/gnu/store/fl6qxjcg355pagvngd96gf5nir678cwk-bootstrap-mes-0.drv" [color = dimgrey];
  "/gnu/store/awv71y21ybrr68ygxd154ivaaclj4qg2-bootstrap-mescc-tools-0.5.2.drv" [label = "bootstrap-mescc-tools@0.5.2", shape = box, fontname = Helvetica];
  "/gnu/store/n08bmic0cc7xsbxz7vapbh8rkk27qyis-bootstrap-binaries-0.drv" [label = "bootstrap-binaries@0", shape = box, fontname = Helvetica];
  "/gnu/store/fl6qxjcg355pagvngd96gf5nir678cwk-bootstrap-mes-0.drv" [label = "bootstrap-mes@0", shape = box, fontname = Helvetica];
  "/gnu/store/dsn288nnc52x09mswnjs98y366k9brcq-tcc-boot0-0.9.26-6.c004e9a.drv" [label = "tcc-boot0@0.9.26-6.c004e9a", shape = box, fontname = Helvetica];
  "/gnu/store/dsn288nnc52x09mswnjs98y366k9brcq-tcc-boot0-0.9.26-6.c004e9a.drv" -> "/gnu/store/cn42d0h7l8zc72sj20xnr3w47za4kw6s-mes-boot-0.19.drv" [color = darkviolet];
  "/gnu/store/dsn288nnc52x09mswnjs98y366k9brcq-tcc-boot0-0.9.26-6.c004e9a.drv" -> "/gnu/store/awv71y21ybrr68ygxd154ivaaclj4qg2-bootstrap-mescc-tools-0.5.2.drv" [color = darkviolet];
  "/gnu/store/dsn288nnc52x09mswnjs98y366k9brcq-tcc-boot0-0.9.26-6.c004e9a.drv" -> "/gnu/store/n08bmic0cc7xsbxz7vapbh8rkk27qyis-bootstrap-binaries-0.drv" [color = darkviolet];
  "/gnu/store/dsn288nnc52x09mswnjs98y366k9brcq-tcc-boot0-0.9.26-6.c004e9a.drv" -> "/gnu/store/fl6qxjcg355pagvngd96gf5nir678cwk-bootstrap-mes-0.drv" [color = darkviolet];
  "/gnu/store/17hzzynybbdnyiwg5cbh3y9ba8kb0vxg-diffutils-mesboot-2.7.drv" [label = "diffutils-mesboot@2.7", shape = box, fontname = Helvetica];
  "/gnu/store/17hzzynybbdnyiwg5cbh3y9ba8kb0vxg-diffutils-mesboot-2.7.drv" -> "/gnu/store/cn42d0h7l8zc72sj20xnr3w47za4kw6s-mes-boot-0.19.drv" [color = dimgrey];
  "/gnu/store/17hzzynybbdnyiwg5cbh3y9ba8kb0vxg-diffutils-mesboot-2.7.drv" -> "/gnu/store/zajwffxc2bi3kby5898rjwp3ycdx6sjy-tcc-boot-0.9.27.drv" [color = dimgrey];
  "/gnu/store/17hzzynybbdnyiwg5cbh3y9ba8kb0vxg-diffutils-mesboot-2.7.drv" -> "/gnu/store/n08bmic0cc7xsbxz7vapbh8rkk27qyis-bootstrap-binaries-0.drv" [color = dimgrey];
  "/gnu/store/17hzzynybbdnyiwg5cbh3y9ba8kb0vxg-diffutils-mesboot-2.7.drv" -> "/gnu/store/n08bmic0cc7xsbxz7vapbh8rkk27qyis-bootstrap-binaries-0.drv" [color = dimgrey];
  "/gnu/store/17hzzynybbdnyiwg5cbh3y9ba8kb0vxg-diffutils-mesboot-2.7.drv" -> "/gnu/store/bkjm21s9f7797bb30dx56azmhd2gnvqa-make-mesboot0-3.80.drv" [color = dimgrey];
  "/gnu/store/bkjm21s9f7797bb30dx56azmhd2gnvqa-make-mesboot0-3.80.drv" [label = "make-mesboot0@3.80", shape = box, fontname = Helvetica];
  "/gnu/store/bkjm21s9f7797bb30dx56azmhd2gnvqa-make-mesboot0-3.80.drv" -> "/gnu/store/zajwffxc2bi3kby5898rjwp3ycdx6sjy-tcc-boot-0.9.27.drv" [color = dimgrey];
  "/gnu/store/bkjm21s9f7797bb30dx56azmhd2gnvqa-make-mesboot0-3.80.drv" -> "/gnu/store/n08bmic0cc7xsbxz7vapbh8rkk27qyis-bootstrap-binaries-0.drv" [color = dimgrey];
  "/gnu/store/bkjm21s9f7797bb30dx56azmhd2gnvqa-make-mesboot0-3.80.drv" -> "/gnu/store/n08bmic0cc7xsbxz7vapbh8rkk27qyis-bootstrap-binaries-0.drv" [color = dimgrey];
  "/gnu/store/zrnhglk67xc8701zbsw58c0fmnbp75z0-glibc-mesboot0-2.2.5.drv" [label = "glibc-mesboot0@2.2.5", shape = box, fontname = Helvetica];
  "/gnu/store/zrnhglk67xc8701zbsw58c0fmnbp75z0-glibc-mesboot0-2.2.5.drv" -> "/gnu/store/xqp9xn8v370sf887rhrns68cvg3kz2n3-binutils-mesboot0-2.20.1a.drv" [color = magenta];
  "/gnu/store/zrnhglk67xc8701zbsw58c0fmnbp75z0-glibc-mesboot0-2.2.5.drv" -> "/gnu/store/pywx782lm7nrsbg2dxzzh6f3cgsyic35-gcc-core-mesboot-2.95.3.drv" [color = magenta];
  "/gnu/store/zrnhglk67xc8701zbsw58c0fmnbp75z0-glibc-mesboot0-2.2.5.drv" -> "/gnu/store/n08bmic0cc7xsbxz7vapbh8rkk27qyis-bootstrap-binaries-0.drv" [color = magenta];
  "/gnu/store/zrnhglk67xc8701zbsw58c0fmnbp75z0-glibc-mesboot0-2.2.5.drv" -> "/gnu/store/n08bmic0cc7xsbxz7vapbh8rkk27qyis-bootstrap-binaries-0.drv" [color = magenta];
  "/gnu/store/zrnhglk67xc8701zbsw58c0fmnbp75z0-glibc-mesboot0-2.2.5.drv" -> "/gnu/store/17hzzynybbdnyiwg5cbh3y9ba8kb0vxg-diffutils-mesboot-2.7.drv" [color = magenta];
  "/gnu/store/zrnhglk67xc8701zbsw58c0fmnbp75z0-glibc-mesboot0-2.2.5.drv" -> "/gnu/store/6wchqw6i2jlqvr29sgakznwr2vpz7g8y-mesboot-headers-0.19.drv" [color = magenta];
  "/gnu/store/zrnhglk67xc8701zbsw58c0fmnbp75z0-glibc-mesboot0-2.2.5.drv" -> "/gnu/store/bkjm21s9f7797bb30dx56azmhd2gnvqa-make-mesboot0-3.80.drv" [color = magenta];
  "/gnu/store/pywx782lm7nrsbg2dxzzh6f3cgsyic35-gcc-core-mesboot-2.95.3.drv" [label = "gcc-core-mesboot@2.95.3", shape = box, fontname = Helvetica];
  "/gnu/store/pywx782lm7nrsbg2dxzzh6f3cgsyic35-gcc-core-mesboot-2.95.3.drv" -> "/gnu/store/xqp9xn8v370sf887rhrns68cvg3kz2n3-binutils-mesboot0-2.20.1a.drv" [color = darkseagreen];
  "/gnu/store/pywx782lm7nrsbg2dxzzh6f3cgsyic35-gcc-core-mesboot-2.95.3.drv" -> "/gnu/store/zajwffxc2bi3kby5898rjwp3ycdx6sjy-tcc-boot-0.9.27.drv" [color = darkseagreen];
  "/gnu/store/pywx782lm7nrsbg2dxzzh6f3cgsyic35-gcc-core-mesboot-2.95.3.drv" -> "/gnu/store/n08bmic0cc7xsbxz7vapbh8rkk27qyis-bootstrap-binaries-0.drv" [color = darkseagreen];
  "/gnu/store/pywx782lm7nrsbg2dxzzh6f3cgsyic35-gcc-core-mesboot-2.95.3.drv" -> "/gnu/store/n08bmic0cc7xsbxz7vapbh8rkk27qyis-bootstrap-binaries-0.drv" [color = darkseagreen];
  "/gnu/store/pywx782lm7nrsbg2dxzzh6f3cgsyic35-gcc-core-mesboot-2.95.3.drv" -> "/gnu/store/17hzzynybbdnyiwg5cbh3y9ba8kb0vxg-diffutils-mesboot-2.7.drv" [color = darkseagreen];
  "/gnu/store/pywx782lm7nrsbg2dxzzh6f3cgsyic35-gcc-core-mesboot-2.95.3.drv" -> "/gnu/store/bkjm21s9f7797bb30dx56azmhd2gnvqa-make-mesboot0-3.80.drv" [color = darkseagreen];
  "/gnu/store/6wchqw6i2jlqvr29sgakznwr2vpz7g8y-mesboot-headers-0.19.drv" [label = "mesboot-headers@0.19", shape = box, fontname = Helvetica];
  "/gnu/store/6wchqw6i2jlqvr29sgakznwr2vpz7g8y-mesboot-headers-0.19.drv" -> "/gnu/store/n08bmic0cc7xsbxz7vapbh8rkk27qyis-bootstrap-binaries-0.drv" [color = darkgoldenrod];
  "/gnu/store/6wchqw6i2jlqvr29sgakznwr2vpz7g8y-mesboot-headers-0.19.drv" -> "/gnu/store/vrq2a7h6ya4gws23hqn6ygi7wnib6496-linux-libre-headers-bootstrap-0.drv" [color = darkgoldenrod];
  "/gnu/store/vrq2a7h6ya4gws23hqn6ygi7wnib6496-linux-libre-headers-bootstrap-0.drv" [label = "linux-libre-headers-bootstrap@0", shape = box, fontname = Helvetica];
  "/gnu/store/crfm7vmph6cw1chfnxxdf2f9pvg62knp-gcc-mesboot0-2.95.3.drv" [label = "gcc-mesboot0@2.95.3", shape = box, fontname = Helvetica];
  "/gnu/store/crfm7vmph6cw1chfnxxdf2f9pvg62knp-gcc-mesboot0-2.95.3.drv" -> "/gnu/store/xqp9xn8v370sf887rhrns68cvg3kz2n3-binutils-mesboot0-2.20.1a.drv" [color = darkviolet];
  "/gnu/store/crfm7vmph6cw1chfnxxdf2f9pvg62knp-gcc-mesboot0-2.95.3.drv" -> "/gnu/store/pywx782lm7nrsbg2dxzzh6f3cgsyic35-gcc-core-mesboot-2.95.3.drv" [color = darkviolet];
  "/gnu/store/crfm7vmph6cw1chfnxxdf2f9pvg62knp-gcc-mesboot0-2.95.3.drv" -> "/gnu/store/zrnhglk67xc8701zbsw58c0fmnbp75z0-glibc-mesboot0-2.2.5.drv" [color = darkviolet];
  "/gnu/store/crfm7vmph6cw1chfnxxdf2f9pvg62knp-gcc-mesboot0-2.95.3.drv" -> "/gnu/store/n08bmic0cc7xsbxz7vapbh8rkk27qyis-bootstrap-binaries-0.drv" [color = darkviolet];
  "/gnu/store/crfm7vmph6cw1chfnxxdf2f9pvg62knp-gcc-mesboot0-2.95.3.drv" -> "/gnu/store/n08bmic0cc7xsbxz7vapbh8rkk27qyis-bootstrap-binaries-0.drv" [color = darkviolet];
  "/gnu/store/crfm7vmph6cw1chfnxxdf2f9pvg62knp-gcc-mesboot0-2.95.3.drv" -> "/gnu/store/17hzzynybbdnyiwg5cbh3y9ba8kb0vxg-diffutils-mesboot-2.7.drv" [color = darkviolet];
  "/gnu/store/crfm7vmph6cw1chfnxxdf2f9pvg62knp-gcc-mesboot0-2.95.3.drv" -> "/gnu/store/vrq2a7h6ya4gws23hqn6ygi7wnib6496-linux-libre-headers-bootstrap-0.drv" [color = darkviolet];
  "/gnu/store/crfm7vmph6cw1chfnxxdf2f9pvg62knp-gcc-mesboot0-2.95.3.drv" -> "/gnu/store/bkjm21s9f7797bb30dx56azmhd2gnvqa-make-mesboot0-3.80.drv" [color = darkviolet];
  "/gnu/store/27zvyk378j2vyyqv9l1dlqzp5ldqqkaz-glibc-headers-mesboot-2.16.0.drv" [label = "glibc-headers-mesboot@2.16.0", shape = box, fontname = Helvetica];
  "/gnu/store/27zvyk378j2vyyqv9l1dlqzp5ldqqkaz-glibc-headers-mesboot-2.16.0.drv" -> "/gnu/store/aiy6k5wlrjzl7kxd9zfpxb5nfjdxiq82-binutils-mesboot-2.20.1a.drv" [color = dimgrey];
  "/gnu/store/27zvyk378j2vyyqv9l1dlqzp5ldqqkaz-glibc-headers-mesboot-2.16.0.drv" -> "/gnu/store/zrnhglk67xc8701zbsw58c0fmnbp75z0-glibc-mesboot0-2.2.5.drv" [color = dimgrey];
  "/gnu/store/27zvyk378j2vyyqv9l1dlqzp5ldqqkaz-glibc-headers-mesboot-2.16.0.drv" -> "/gnu/store/iynqblmi51xxnzr2i6vyb59lk0l6phzi-gcc-mesboot1-4.7.4.drv" [color = dimgrey];
  "/gnu/store/27zvyk378j2vyyqv9l1dlqzp5ldqqkaz-glibc-headers-mesboot-2.16.0.drv" -> "/gnu/store/6wchqw6i2jlqvr29sgakznwr2vpz7g8y-mesboot-headers-0.19.drv" [color = dimgrey];
  "/gnu/store/27zvyk378j2vyyqv9l1dlqzp5ldqqkaz-glibc-headers-mesboot-2.16.0.drv" -> "/gnu/store/n08bmic0cc7xsbxz7vapbh8rkk27qyis-bootstrap-binaries-0.drv" [color = dimgrey];
  "/gnu/store/27zvyk378j2vyyqv9l1dlqzp5ldqqkaz-glibc-headers-mesboot-2.16.0.drv" -> "/gnu/store/n08bmic0cc7xsbxz7vapbh8rkk27qyis-bootstrap-binaries-0.drv" [color = dimgrey];
  "/gnu/store/27zvyk378j2vyyqv9l1dlqzp5ldqqkaz-glibc-headers-mesboot-2.16.0.drv" -> "/gnu/store/17hzzynybbdnyiwg5cbh3y9ba8kb0vxg-diffutils-mesboot-2.7.drv" [color = dimgrey];
  "/gnu/store/27zvyk378j2vyyqv9l1dlqzp5ldqqkaz-glibc-headers-mesboot-2.16.0.drv" -> "/gnu/store/vrq2a7h6ya4gws23hqn6ygi7wnib6496-linux-libre-headers-bootstrap-0.drv" [color = dimgrey];
  "/gnu/store/27zvyk378j2vyyqv9l1dlqzp5ldqqkaz-glibc-headers-mesboot-2.16.0.drv" -> "/gnu/store/lkmx7360vlvfigz88s4y427m72w8as1a-make-mesboot-3.82.drv" [color = dimgrey];
  "/gnu/store/iynqblmi51xxnzr2i6vyb59lk0l6phzi-gcc-mesboot1-4.7.4.drv" [label = "gcc-mesboot1@4.7.4", shape = box, fontname = Helvetica];
  "/gnu/store/iynqblmi51xxnzr2i6vyb59lk0l6phzi-gcc-mesboot1-4.7.4.drv" -> "/gnu/store/aiy6k5wlrjzl7kxd9zfpxb5nfjdxiq82-binutils-mesboot-2.20.1a.drv" [color = dimgrey];
  "/gnu/store/iynqblmi51xxnzr2i6vyb59lk0l6phzi-gcc-mesboot1-4.7.4.drv" -> "/gnu/store/crfm7vmph6cw1chfnxxdf2f9pvg62knp-gcc-mesboot0-2.95.3.drv" [color = dimgrey];
  "/gnu/store/iynqblmi51xxnzr2i6vyb59lk0l6phzi-gcc-mesboot1-4.7.4.drv" -> "/gnu/store/zrnhglk67xc8701zbsw58c0fmnbp75z0-glibc-mesboot0-2.2.5.drv" [color = dimgrey];
  "/gnu/store/iynqblmi51xxnzr2i6vyb59lk0l6phzi-gcc-mesboot1-4.7.4.drv" -> "/gnu/store/n08bmic0cc7xsbxz7vapbh8rkk27qyis-bootstrap-binaries-0.drv" [color = dimgrey];
  "/gnu/store/iynqblmi51xxnzr2i6vyb59lk0l6phzi-gcc-mesboot1-4.7.4.drv" -> "/gnu/store/n08bmic0cc7xsbxz7vapbh8rkk27qyis-bootstrap-binaries-0.drv" [color = dimgrey];
  "/gnu/store/iynqblmi51xxnzr2i6vyb59lk0l6phzi-gcc-mesboot1-4.7.4.drv" -> "/gnu/store/17hzzynybbdnyiwg5cbh3y9ba8kb0vxg-diffutils-mesboot-2.7.drv" [color = dimgrey];
  "/gnu/store/iynqblmi51xxnzr2i6vyb59lk0l6phzi-gcc-mesboot1-4.7.4.drv" -> "/gnu/store/vrq2a7h6ya4gws23hqn6ygi7wnib6496-linux-libre-headers-bootstrap-0.drv" [color = dimgrey];
  "/gnu/store/iynqblmi51xxnzr2i6vyb59lk0l6phzi-gcc-mesboot1-4.7.4.drv" -> "/gnu/store/lkmx7360vlvfigz88s4y427m72w8as1a-make-mesboot-3.82.drv" [color = dimgrey];
  "/gnu/store/lkmx7360vlvfigz88s4y427m72w8as1a-make-mesboot-3.82.drv" [label = "make-mesboot@3.82", shape = box, fontname = Helvetica];
  "/gnu/store/lkmx7360vlvfigz88s4y427m72w8as1a-make-mesboot-3.82.drv" -> "/gnu/store/xqp9xn8v370sf887rhrns68cvg3kz2n3-binutils-mesboot0-2.20.1a.drv" [color = peachpuff4];
  "/gnu/store/lkmx7360vlvfigz88s4y427m72w8as1a-make-mesboot-3.82.drv" -> "/gnu/store/zrnhglk67xc8701zbsw58c0fmnbp75z0-glibc-mesboot0-2.2.5.drv" [color = peachpuff4];
  "/gnu/store/lkmx7360vlvfigz88s4y427m72w8as1a-make-mesboot-3.82.drv" -> "/gnu/store/crfm7vmph6cw1chfnxxdf2f9pvg62knp-gcc-mesboot0-2.95.3.drv" [color = peachpuff4];
  "/gnu/store/lkmx7360vlvfigz88s4y427m72w8as1a-make-mesboot-3.82.drv" -> "/gnu/store/bkjm21s9f7797bb30dx56azmhd2gnvqa-make-mesboot0-3.80.drv" [color = peachpuff4];
  "/gnu/store/lkmx7360vlvfigz88s4y427m72w8as1a-make-mesboot-3.82.drv" -> "/gnu/store/n08bmic0cc7xsbxz7vapbh8rkk27qyis-bootstrap-binaries-0.drv" [color = peachpuff4];
  "/gnu/store/lkmx7360vlvfigz88s4y427m72w8as1a-make-mesboot-3.82.drv" -> "/gnu/store/n08bmic0cc7xsbxz7vapbh8rkk27qyis-bootstrap-binaries-0.drv" [color = peachpuff4];
  "/gnu/store/lkmx7360vlvfigz88s4y427m72w8as1a-make-mesboot-3.82.drv" -> "/gnu/store/vrq2a7h6ya4gws23hqn6ygi7wnib6496-linux-libre-headers-bootstrap-0.drv" [color = peachpuff4];
  "/gnu/store/wmf4y32lq5jrci7q85pgrkq9bckkziqf-gcc-mesboot-wrapper-4.7.4.drv" [label = "gcc-mesboot-wrapper@4.7.4", shape = box, fontname = Helvetica];
  "/gnu/store/wmf4y32lq5jrci7q85pgrkq9bckkziqf-gcc-mesboot-wrapper-4.7.4.drv" -> "/gnu/store/n08bmic0cc7xsbxz7vapbh8rkk27qyis-bootstrap-binaries-0.drv" [color = cyan3];
  "/gnu/store/wmf4y32lq5jrci7q85pgrkq9bckkziqf-gcc-mesboot-wrapper-4.7.4.drv" -> "/gnu/store/mw0skn92ac1nqhmh89qsqwm27jz3l1jq-glibc-mesboot-2.16.0.drv" [color = cyan3];
  "/gnu/store/wmf4y32lq5jrci7q85pgrkq9bckkziqf-gcc-mesboot-wrapper-4.7.4.drv" -> "/gnu/store/ghpg2libayj02dkm6hkp6d44ivkv894z-gcc-mesboot-4.9.4.drv" [color = cyan3];
  "/gnu/store/ghpg2libayj02dkm6hkp6d44ivkv894z-gcc-mesboot-4.9.4.drv" [label = "gcc-mesboot@4.9.4", shape = box, fontname = Helvetica];
  "/gnu/store/ghpg2libayj02dkm6hkp6d44ivkv894z-gcc-mesboot-4.9.4.drv" -> "/gnu/store/aiy6k5wlrjzl7kxd9zfpxb5nfjdxiq82-binutils-mesboot-2.20.1a.drv" [color = peachpuff4];
  "/gnu/store/ghpg2libayj02dkm6hkp6d44ivkv894z-gcc-mesboot-4.9.4.drv" -> "/gnu/store/sbgi11hwbr41zd3hjg2w18w27fphisw1-gcc-mesboot1-wrapper-4.7.4.drv" [color = peachpuff4];
  "/gnu/store/ghpg2libayj02dkm6hkp6d44ivkv894z-gcc-mesboot-4.9.4.drv" -> "/gnu/store/iynqblmi51xxnzr2i6vyb59lk0l6phzi-gcc-mesboot1-4.7.4.drv" [color = peachpuff4];
  "/gnu/store/ghpg2libayj02dkm6hkp6d44ivkv894z-gcc-mesboot-4.9.4.drv" -> "/gnu/store/mw0skn92ac1nqhmh89qsqwm27jz3l1jq-glibc-mesboot-2.16.0.drv" [color = peachpuff4];
  "/gnu/store/ghpg2libayj02dkm6hkp6d44ivkv894z-gcc-mesboot-4.9.4.drv" -> "/gnu/store/n08bmic0cc7xsbxz7vapbh8rkk27qyis-bootstrap-binaries-0.drv" [color = peachpuff4];
  "/gnu/store/ghpg2libayj02dkm6hkp6d44ivkv894z-gcc-mesboot-4.9.4.drv" -> "/gnu/store/n08bmic0cc7xsbxz7vapbh8rkk27qyis-bootstrap-binaries-0.drv" [color = peachpuff4];
  "/gnu/store/ghpg2libayj02dkm6hkp6d44ivkv894z-gcc-mesboot-4.9.4.drv" -> "/gnu/store/17hzzynybbdnyiwg5cbh3y9ba8kb0vxg-diffutils-mesboot-2.7.drv" [color = peachpuff4];
  "/gnu/store/ghpg2libayj02dkm6hkp6d44ivkv894z-gcc-mesboot-4.9.4.drv" -> "/gnu/store/vrq2a7h6ya4gws23hqn6ygi7wnib6496-linux-libre-headers-bootstrap-0.drv" [color = peachpuff4];
  "/gnu/store/ghpg2libayj02dkm6hkp6d44ivkv894z-gcc-mesboot-4.9.4.drv" -> "/gnu/store/lkmx7360vlvfigz88s4y427m72w8as1a-make-mesboot-3.82.drv" [color = peachpuff4];
  "/gnu/store/sbgi11hwbr41zd3hjg2w18w27fphisw1-gcc-mesboot1-wrapper-4.7.4.drv" [label = "gcc-mesboot1-wrapper@4.7.4", shape = box, fontname = Helvetica];
  "/gnu/store/sbgi11hwbr41zd3hjg2w18w27fphisw1-gcc-mesboot1-wrapper-4.7.4.drv" -> "/gnu/store/n08bmic0cc7xsbxz7vapbh8rkk27qyis-bootstrap-binaries-0.drv" [color = darkviolet];
  "/gnu/store/sbgi11hwbr41zd3hjg2w18w27fphisw1-gcc-mesboot1-wrapper-4.7.4.drv" -> "/gnu/store/mw0skn92ac1nqhmh89qsqwm27jz3l1jq-glibc-mesboot-2.16.0.drv" [color = darkviolet];
  "/gnu/store/sbgi11hwbr41zd3hjg2w18w27fphisw1-gcc-mesboot1-wrapper-4.7.4.drv" -> "/gnu/store/iynqblmi51xxnzr2i6vyb59lk0l6phzi-gcc-mesboot1-4.7.4.drv" [color = darkviolet];

}
