digraph "Guix package" {
  "139865243951632" [label = "make-boot0@4.3", shape = box, fontname = sans];
  "139865243951632" -> "139865243951808" [color = dimgrey];
  "139865243951632" -> "139865243951984" [color = dimgrey];
  "139865243951632" -> "139865243952160" [color = dimgrey];
  "139865243951632" -> "139865243952512" [color = dimgrey];
  "139865243951632" -> "139865243952864" [color = dimgrey];
  "139865243951632" -> "139865243953216" [color = dimgrey];
  "139865243951632" -> "139865243954272" [color = dimgrey];
  "139865243951632" -> "139865243954624" [color = dimgrey];
  "139865243951632" -> "139865243914416" [color = dimgrey];
  "139865243951632" -> "139865243954800" [color = dimgrey];
  "139865243951632" -> "139865243954448" [color = dimgrey];
  "139865243951632" -> "139865243914592" [color = dimgrey];
  "139865243951632" -> "139865243916704" [color = dimgrey];
  "139865243951632" -> "139865243916176" [color = dimgrey];
  "139865243951632" -> "139865243917056" [color = dimgrey];
  "139865243951632" -> "139865243916000" [color = dimgrey];
  "139865243951808" [label = "coreutils-mesboot@8.32", shape = box, fontname = sans];
  "139865243951808" -> "139865243951984" [color = peachpuff4];
  "139865243951808" -> "139865243952160" [color = peachpuff4];
  "139865243951808" -> "139865243952512" [color = peachpuff4];
  "139865243951808" -> "139865243952864" [color = peachpuff4];
  "139865243951808" -> "139865243953216" [color = peachpuff4];
  "139865243951808" -> "139865243954272" [color = peachpuff4];
  "139865243951808" -> "139865243954976" [color = peachpuff4];
  "139865243951808" -> "139865243954624" [color = peachpuff4];
  "139865243951808" -> "139865243914416" [color = peachpuff4];
  "139865243951808" -> "139865243954800" [color = peachpuff4];
  "139865243951808" -> "139865243954448" [color = peachpuff4];
  "139865243951808" -> "139865243914592" [color = peachpuff4];
  "139865243951808" -> "139865424551360" [color = peachpuff4];
  "139865243951808" -> "139865243916704" [color = peachpuff4];
  "139865243951808" -> "139865243916176" [color = peachpuff4];
  "139865243951808" -> "139865243917056" [color = peachpuff4];
  "139865243951808" -> "139865243916000" [color = peachpuff4];
  "139865243951984" [label = "gcc-mesboot-wrapper@4.9.4", shape = box, fontname = sans];
  "139865243951984" -> "139865243954272" [color = darkseagreen];
  "139865243951984" -> "139865243954976" [color = darkseagreen];
  "139865243951984" -> "139865243952512" [color = darkseagreen];
  "139865243951984" -> "139865243952160" [color = darkseagreen];
  "139865243954272" [label = "bash-mesboot@4.4", shape = box, fontname = sans];
  "139865243954272" -> "139865243914768" [color = red];
  "139865243954272" -> "139865424551360" [color = red];
  "139865243954272" -> "139865243914944" [color = red];
  "139865243954272" -> "139865243915648" [color = red];
  "139865243954272" -> "139865243915120" [color = red];
  "139865243954272" -> "139865243916528" [color = red];
  "139865243954272" -> "139865243916704" [color = red];
  "139865243954272" -> "139865243916176" [color = red];
  "139865243954272" -> "139865243917056" [color = red];
  "139865243954272" -> "139865243916000" [color = red];
  "139865243954272" -> "139865243915824" [color = red];
  "139865243954272" -> "139865243916880" [color = red];
  "139865243954272" -> "139865243917936" [color = red];
  "139865243954272" -> "139865243917760" [color = red];
  "139865243954272" -> "139865243918112" [color = red];
  "139865243954272" -> "139865424551712" [color = red];
  "139865243914768" [label = "gcc-mesboot0@2.95.3", shape = box, fontname = sans];
  "139865243914768" -> "139865243914944" [color = darkgoldenrod];
  "139865243914768" -> "139865424551360" [color = darkgoldenrod];
  "139865243914768" -> "139865243915648" [color = darkgoldenrod];
  "139865243914768" -> "139865243915120" [color = darkgoldenrod];
  "139865243914768" -> "139865243915472" [color = darkgoldenrod];
  "139865243914768" -> "139865243916528" [color = darkgoldenrod];
  "139865243914768" -> "139865243916704" [color = darkgoldenrod];
  "139865243914768" -> "139865243916176" [color = darkgoldenrod];
  "139865243914768" -> "139865243917056" [color = darkgoldenrod];
  "139865243914768" -> "139865243916000" [color = darkgoldenrod];
  "139865243914768" -> "139865243915824" [color = darkgoldenrod];
  "139865243914768" -> "139865243916880" [color = darkgoldenrod];
  "139865243914768" -> "139865243917936" [color = darkgoldenrod];
  "139865243914768" -> "139865243917760" [color = darkgoldenrod];
  "139865243914768" -> "139865243918112" [color = darkgoldenrod];
  "139865243914768" -> "139865424551712" [color = darkgoldenrod];
  "139865243914944" [label = "glibc-mesboot0@2.2.5", shape = box, fontname = sans];
  "139865243914944" -> "139865243915296" [color = darkgoldenrod];
  "139865243914944" -> "139865243915648" [color = darkgoldenrod];
  "139865243914944" -> "139865243915120" [color = darkgoldenrod];
  "139865243914944" -> "139865243915472" [color = darkgoldenrod];
  "139865243914944" -> "139865243916528" [color = darkgoldenrod];
  "139865243914944" -> "139865243916704" [color = darkgoldenrod];
  "139865243914944" -> "139865243916176" [color = darkgoldenrod];
  "139865243914944" -> "139865243917056" [color = darkgoldenrod];
  "139865243914944" -> "139865243916000" [color = darkgoldenrod];
  "139865243914944" -> "139865243915824" [color = darkgoldenrod];
  "139865243914944" -> "139865243916880" [color = darkgoldenrod];
  "139865243914944" -> "139865243917936" [color = darkgoldenrod];
  "139865243914944" -> "139865243917760" [color = darkgoldenrod];
  "139865243914944" -> "139865243918112" [color = darkgoldenrod];
  "139865243914944" -> "139865424551712" [color = darkgoldenrod];
  "139865243915296" [label = "mesboot-headers@0.22", shape = box, fontname = sans];
  "139865243915296" -> "139865424551360" [color = magenta];
  "139865243915296" -> "139865243916528" [color = magenta];
  "139865243915296" -> "139865243916704" [color = magenta];
  "139865243915296" -> "139865243916176" [color = magenta];
  "139865243915296" -> "139865243917056" [color = magenta];
  "139865243915296" -> "139865243916000" [color = magenta];
  "139865243915296" -> "139865243915824" [color = magenta];
  "139865243915296" -> "139865243916352" [color = magenta];
  "139865243915296" -> "139865243916880" [color = magenta];
  "139865243915296" -> "139865243917936" [color = magenta];
  "139865243915296" -> "139865243917760" [color = magenta];
  "139865243915296" -> "139865243918112" [color = magenta];
  "139865243915296" -> "139865424551712" [color = magenta];
  "139865424551360" [label = "linux-libre-headers-bootstrap@0", shape = box, fontname = sans];
  "139865243916528" [label = "bash-mesboot0@2.05b", shape = box, fontname = sans];
  "139865243916528" -> "139865243916880" [color = darkviolet];
  "139865243916528" -> "139865243917232" [color = darkviolet];
  "139865243916528" -> "139865243917936" [color = darkviolet];
  "139865243916528" -> "139865243917760" [color = darkviolet];
  "139865243916528" -> "139865243918112" [color = darkviolet];
  "139865243916528" -> "139865424551712" [color = darkviolet];
  "139865243916880" [label = "make-mesboot0@3.80", shape = box, fontname = sans];
  "139865243916880" -> "139865243917232" [color = dimgrey];
  "139865243916880" -> "139865243917936" [color = dimgrey];
  "139865243916880" -> "139865243917760" [color = dimgrey];
  "139865243916880" -> "139865243918112" [color = dimgrey];
  "139865243916880" -> "139865424551712" [color = dimgrey];
  "139865243917232" [label = "tcc-boot0@0.9.26-1103-g6e62e0e", shape = box, fontname = sans];
  "139865243917232" -> "139865243917408" [color = darkviolet];
  "139865243917232" -> "139865424550656" [color = darkviolet];
  "139865243917232" -> "139865243917936" [color = darkviolet];
  "139865243917232" -> "139865243917760" [color = darkviolet];
  "139865243917232" -> "139865243918112" [color = darkviolet];
  "139865243917232" -> "139865424551712" [color = darkviolet];
  "139865243917408" [label = "mes-boot@0.22", shape = box, fontname = sans];
  "139865243917408" -> "139865243917584" [color = dimgrey];
  "139865243917408" -> "139865424550656" [color = dimgrey];
  "139865243917408" -> "139865243917936" [color = dimgrey];
  "139865243917408" -> "139865243917760" [color = dimgrey];
  "139865243917408" -> "139865243918112" [color = dimgrey];
  "139865243917408" -> "139865424551712" [color = dimgrey];
  "139865243917584" [label = "bootstrap-mes-rewired@0.19", shape = box, fontname = sans];
  "139865243917584" -> "139865424550480" [color = peachpuff4];
  "139865243917584" -> "139865243917936" [color = peachpuff4];
  "139865424550480" [label = "bootstrap-mes@0", shape = box, fontname = sans];
  "139865243917936" [label = "gash-boot@0.2.0", shape = box, fontname = sans];
  "139865243917936" -> "139865243918112" [color = red];
  "139865243917936" -> "139865424551712" [color = red];
  "139865243918112" [label = "bootar@1a", shape = box, fontname = sans];
  "139865243918112" -> "139865424551712" [color = magenta];
  "139865424551712" [label = "guile-bootstrap@2.0", shape = box, fontname = sans];
  "139865424550656" [label = "bootstrap-mescc-tools@0.5.2", shape = box, fontname = sans];
  "139865243917760" [label = "gash-utils-boot@0.1.0", shape = box, fontname = sans];
  "139865243917760" -> "139865243918112" [color = magenta];
  "139865243917760" -> "139865243917936" [color = magenta];
  "139865243917760" -> "139865424551712" [color = magenta];
  "139865243916704" [label = "bzip2-mesboot@1.0.8", shape = box, fontname = sans];
  "139865243916704" -> "139865243916880" [color = blue];
  "139865243916704" -> "139865243917232" [color = blue];
  "139865243916704" -> "139865243917936" [color = blue];
  "139865243916704" -> "139865243917760" [color = blue];
  "139865243916704" -> "139865243918112" [color = blue];
  "139865243916704" -> "139865424551712" [color = blue];
  "139865243916176" [label = "diffutils-mesboot@2.7", shape = box, fontname = sans];
  "139865243916176" -> "139865243916880" [color = peachpuff4];
  "139865243916176" -> "139865243917232" [color = peachpuff4];
  "139865243916176" -> "139865243917936" [color = peachpuff4];
  "139865243916176" -> "139865243917760" [color = peachpuff4];
  "139865243916176" -> "139865243918112" [color = peachpuff4];
  "139865243916176" -> "139865424551712" [color = peachpuff4];
  "139865243917056" [label = "gzip-mesboot@1.2.4", shape = box, fontname = sans];
  "139865243917056" -> "139865243917232" [color = magenta];
  "139865243917056" -> "139865243917936" [color = magenta];
  "139865243917056" -> "139865243917760" [color = magenta];
  "139865243917056" -> "139865243918112" [color = magenta];
  "139865243917056" -> "139865424551712" [color = magenta];
  "139865243916000" [label = "patch-mesboot@2.5.9", shape = box, fontname = sans];
  "139865243916000" -> "139865243916880" [color = magenta];
  "139865243916000" -> "139865243917232" [color = magenta];
  "139865243916000" -> "139865243917936" [color = magenta];
  "139865243916000" -> "139865243917760" [color = magenta];
  "139865243916000" -> "139865243918112" [color = magenta];
  "139865243916000" -> "139865424551712" [color = magenta];
  "139865243915824" [label = "sed-mesboot0@1.18", shape = box, fontname = sans];
  "139865243915824" -> "139865243916880" [color = darkviolet];
  "139865243915824" -> "139865243917232" [color = darkviolet];
  "139865243915824" -> "139865243917936" [color = darkviolet];
  "139865243915824" -> "139865243917760" [color = darkviolet];
  "139865243915824" -> "139865243918112" [color = darkviolet];
  "139865243915824" -> "139865424551712" [color = darkviolet];
  "139865243916352" [label = "tcc-boot@0.9.27", shape = box, fontname = sans];
  "139865243916352" -> "139865243916704" [color = blue];
  "139865243916352" -> "139865243916880" [color = blue];
  "139865243916352" -> "139865243917232" [color = blue];
  "139865243916352" -> "139865243917936" [color = blue];
  "139865243916352" -> "139865243917760" [color = blue];
  "139865243916352" -> "139865243918112" [color = blue];
  "139865243916352" -> "139865424551712" [color = blue];
  "139865243915648" [label = "binutils-mesboot0@2.14", shape = box, fontname = sans];
  "139865243915648" -> "139865243916528" [color = blue];
  "139865243915648" -> "139865243916704" [color = blue];
  "139865243915648" -> "139865243916176" [color = blue];
  "139865243915648" -> "139865243917056" [color = blue];
  "139865243915648" -> "139865243916000" [color = blue];
  "139865243915648" -> "139865243915824" [color = blue];
  "139865243915648" -> "139865243916352" [color = blue];
  "139865243915648" -> "139865243916880" [color = blue];
  "139865243915648" -> "139865243917936" [color = blue];
  "139865243915648" -> "139865243917760" [color = blue];
  "139865243915648" -> "139865243918112" [color = blue];
  "139865243915648" -> "139865424551712" [color = blue];
  "139865243915120" [label = "gawk-mesboot0@3.0.0", shape = box, fontname = sans];
  "139865243915120" -> "139865243916528" [color = magenta];
  "139865243915120" -> "139865243916704" [color = magenta];
  "139865243915120" -> "139865243916176" [color = magenta];
  "139865243915120" -> "139865243917056" [color = magenta];
  "139865243915120" -> "139865243916000" [color = magenta];
  "139865243915120" -> "139865243915824" [color = magenta];
  "139865243915120" -> "139865243916352" [color = magenta];
  "139865243915120" -> "139865243916880" [color = magenta];
  "139865243915120" -> "139865243917936" [color = magenta];
  "139865243915120" -> "139865243917760" [color = magenta];
  "139865243915120" -> "139865243918112" [color = magenta];
  "139865243915120" -> "139865424551712" [color = magenta];
  "139865243915472" [label = "gcc-core-mesboot0@2.95.3", shape = box, fontname = sans];
  "139865243915472" -> "139865243915648" [color = darkgoldenrod];
  "139865243915472" -> "139865243916528" [color = darkgoldenrod];
  "139865243915472" -> "139865243916704" [color = darkgoldenrod];
  "139865243915472" -> "139865243916176" [color = darkgoldenrod];
  "139865243915472" -> "139865243917056" [color = darkgoldenrod];
  "139865243915472" -> "139865243916000" [color = darkgoldenrod];
  "139865243915472" -> "139865243915824" [color = darkgoldenrod];
  "139865243915472" -> "139865243916352" [color = darkgoldenrod];
  "139865243915472" -> "139865243916880" [color = darkgoldenrod];
  "139865243915472" -> "139865243917936" [color = darkgoldenrod];
  "139865243915472" -> "139865243917760" [color = darkgoldenrod];
  "139865243915472" -> "139865243918112" [color = darkgoldenrod];
  "139865243915472" -> "139865424551712" [color = darkgoldenrod];
  "139865243954976" [label = "coreutils-mesboot0@5.0", shape = box, fontname = sans];
  "139865243954976" -> "139865243914768" [color = darkgoldenrod];
  "139865243954976" -> "139865424551360" [color = darkgoldenrod];
  "139865243954976" -> "139865243914944" [color = darkgoldenrod];
  "139865243954976" -> "139865243915648" [color = darkgoldenrod];
  "139865243954976" -> "139865243915120" [color = darkgoldenrod];
  "139865243954976" -> "139865243916528" [color = darkgoldenrod];
  "139865243954976" -> "139865243916704" [color = darkgoldenrod];
  "139865243954976" -> "139865243916176" [color = darkgoldenrod];
  "139865243954976" -> "139865243917056" [color = darkgoldenrod];
  "139865243954976" -> "139865243916000" [color = darkgoldenrod];
  "139865243954976" -> "139865243915824" [color = darkgoldenrod];
  "139865243954976" -> "139865243916880" [color = darkgoldenrod];
  "139865243954976" -> "139865243917936" [color = darkgoldenrod];
  "139865243954976" -> "139865243917760" [color = darkgoldenrod];
  "139865243954976" -> "139865243918112" [color = darkgoldenrod];
  "139865243954976" -> "139865424551712" [color = darkgoldenrod];
  "139865243952512" [label = "glibc-mesboot@2.16.0", shape = box, fontname = sans];
  "139865243952512" -> "139865243952688" [color = red];
  "139865243952512" -> "139865243952864" [color = red];
  "139865243952512" -> "139865243953216" [color = red];
  "139865243952512" -> "139865243953392" [color = red];
  "139865243952512" -> "139865243954272" [color = red];
  "139865243952512" -> "139865243954976" [color = red];
  "139865243952512" -> "139865243954624" [color = red];
  "139865243952512" -> "139865243914416" [color = red];
  "139865243952512" -> "139865243954800" [color = red];
  "139865243952512" -> "139865243954448" [color = red];
  "139865243952512" -> "139865243914592" [color = red];
  "139865243952512" -> "139865424551360" [color = red];
  "139865243952512" -> "139865243914944" [color = red];
  "139865243952512" -> "139865243916704" [color = red];
  "139865243952512" -> "139865243916176" [color = red];
  "139865243952512" -> "139865243917056" [color = red];
  "139865243952512" -> "139865243916000" [color = red];
  "139865243952688" [label = "glibc-headers-mesboot@2.16.0", shape = box, fontname = sans];
  "139865243952688" -> "139865243915296" [color = darkseagreen];
  "139865243952688" -> "139865243952864" [color = darkseagreen];
  "139865243952688" -> "139865243953216" [color = darkseagreen];
  "139865243952688" -> "139865243953392" [color = darkseagreen];
  "139865243952688" -> "139865243954272" [color = darkseagreen];
  "139865243952688" -> "139865243954976" [color = darkseagreen];
  "139865243952688" -> "139865243954624" [color = darkseagreen];
  "139865243952688" -> "139865243914416" [color = darkseagreen];
  "139865243952688" -> "139865243954800" [color = darkseagreen];
  "139865243952688" -> "139865243954448" [color = darkseagreen];
  "139865243952688" -> "139865243914592" [color = darkseagreen];
  "139865243952688" -> "139865424551360" [color = darkseagreen];
  "139865243952688" -> "139865243914944" [color = darkseagreen];
  "139865243952688" -> "139865243916704" [color = darkseagreen];
  "139865243952688" -> "139865243916176" [color = darkseagreen];
  "139865243952688" -> "139865243917056" [color = darkseagreen];
  "139865243952688" -> "139865243916000" [color = darkseagreen];
  "139865243952864" [label = "binutils-mesboot@2.20.1a", shape = box, fontname = sans];
  "139865243952864" -> "139865243953216" [color = cyan3];
  "139865243952864" -> "139865243953392" [color = cyan3];
  "139865243952864" -> "139865243954272" [color = cyan3];
  "139865243952864" -> "139865243914240" [color = cyan3];
  "139865243952864" -> "139865243954976" [color = cyan3];
  "139865243952864" -> "139865243954624" [color = cyan3];
  "139865243952864" -> "139865243914416" [color = cyan3];
  "139865243952864" -> "139865243954800" [color = cyan3];
  "139865243952864" -> "139865243954448" [color = cyan3];
  "139865243952864" -> "139865243914592" [color = cyan3];
  "139865243952864" -> "139865424551360" [color = cyan3];
  "139865243952864" -> "139865243914944" [color = cyan3];
  "139865243952864" -> "139865243916704" [color = cyan3];
  "139865243952864" -> "139865243916176" [color = cyan3];
  "139865243952864" -> "139865243917056" [color = cyan3];
  "139865243952864" -> "139865243916000" [color = cyan3];
  "139865243953216" [label = "xz-mesboot@5.0.0", shape = box, fontname = sans];
  "139865243953216" -> "139865243953392" [color = dimgrey];
  "139865243953216" -> "139865243954272" [color = dimgrey];
  "139865243953216" -> "139865243914240" [color = dimgrey];
  "139865243953216" -> "139865243954976" [color = dimgrey];
  "139865243953216" -> "139865243954624" [color = dimgrey];
  "139865243953216" -> "139865243914416" [color = dimgrey];
  "139865243953216" -> "139865243954800" [color = dimgrey];
  "139865243953216" -> "139865243954448" [color = dimgrey];
  "139865243953216" -> "139865243914592" [color = dimgrey];
  "139865243953216" -> "139865424551360" [color = dimgrey];
  "139865243953216" -> "139865243914944" [color = dimgrey];
  "139865243953216" -> "139865243916704" [color = dimgrey];
  "139865243953216" -> "139865243916176" [color = dimgrey];
  "139865243953216" -> "139865243917056" [color = dimgrey];
  "139865243953216" -> "139865243916000" [color = dimgrey];
  "139865243953392" [label = "gcc-mesboot1@4.6.4", shape = box, fontname = sans];
  "139865243953392" -> "139865243954272" [color = red];
  "139865243953392" -> "139865243914240" [color = red];
  "139865243953392" -> "139865243954976" [color = red];
  "139865243953392" -> "139865243954624" [color = red];
  "139865243953392" -> "139865243914416" [color = red];
  "139865243953392" -> "139865243954800" [color = red];
  "139865243953392" -> "139865243954448" [color = red];
  "139865243953392" -> "139865243914592" [color = red];
  "139865243953392" -> "139865243914768" [color = red];
  "139865243953392" -> "139865424551360" [color = red];
  "139865243953392" -> "139865243914944" [color = red];
  "139865243953392" -> "139865243916704" [color = red];
  "139865243953392" -> "139865243916176" [color = red];
  "139865243953392" -> "139865243917056" [color = red];
  "139865243953392" -> "139865243916000" [color = red];
  "139865243914240" [label = "binutils-mesboot1@2.14", shape = box, fontname = sans];
  "139865243914240" -> "139865243914768" [color = peachpuff4];
  "139865243914240" -> "139865424551360" [color = peachpuff4];
  "139865243914240" -> "139865243914944" [color = peachpuff4];
  "139865243914240" -> "139865243915648" [color = peachpuff4];
  "139865243914240" -> "139865243915120" [color = peachpuff4];
  "139865243914240" -> "139865243916528" [color = peachpuff4];
  "139865243914240" -> "139865243916704" [color = peachpuff4];
  "139865243914240" -> "139865243916176" [color = peachpuff4];
  "139865243914240" -> "139865243917056" [color = peachpuff4];
  "139865243914240" -> "139865243916000" [color = peachpuff4];
  "139865243914240" -> "139865243915824" [color = peachpuff4];
  "139865243914240" -> "139865243916880" [color = peachpuff4];
  "139865243914240" -> "139865243917936" [color = peachpuff4];
  "139865243914240" -> "139865243917760" [color = peachpuff4];
  "139865243914240" -> "139865243918112" [color = peachpuff4];
  "139865243914240" -> "139865424551712" [color = peachpuff4];
  "139865243954624" [label = "gawk-mesboot@3.1.8", shape = box, fontname = sans];
  "139865243954624" -> "139865243914768" [color = cyan3];
  "139865243954624" -> "139865424551360" [color = cyan3];
  "139865243954624" -> "139865243914944" [color = cyan3];
  "139865243954624" -> "139865243915648" [color = cyan3];
  "139865243954624" -> "139865243915120" [color = cyan3];
  "139865243954624" -> "139865243916528" [color = cyan3];
  "139865243954624" -> "139865243916704" [color = cyan3];
  "139865243954624" -> "139865243916176" [color = cyan3];
  "139865243954624" -> "139865243917056" [color = cyan3];
  "139865243954624" -> "139865243916000" [color = cyan3];
  "139865243954624" -> "139865243915824" [color = cyan3];
  "139865243954624" -> "139865243916880" [color = cyan3];
  "139865243954624" -> "139865243917936" [color = cyan3];
  "139865243954624" -> "139865243917760" [color = cyan3];
  "139865243954624" -> "139865243918112" [color = cyan3];
  "139865243954624" -> "139865424551712" [color = cyan3];
  "139865243954624" -> "139865243915296" [color = cyan3];
  "139865243914416" [label = "grep-mesboot@2.0", shape = box, fontname = sans];
  "139865243914416" -> "139865243914768" [color = darkgoldenrod];
  "139865243914416" -> "139865424551360" [color = darkgoldenrod];
  "139865243914416" -> "139865243914944" [color = darkgoldenrod];
  "139865243914416" -> "139865243915648" [color = darkgoldenrod];
  "139865243914416" -> "139865243915120" [color = darkgoldenrod];
  "139865243914416" -> "139865243916528" [color = darkgoldenrod];
  "139865243914416" -> "139865243916704" [color = darkgoldenrod];
  "139865243914416" -> "139865243916176" [color = darkgoldenrod];
  "139865243914416" -> "139865243917056" [color = darkgoldenrod];
  "139865243914416" -> "139865243916000" [color = darkgoldenrod];
  "139865243914416" -> "139865243915824" [color = darkgoldenrod];
  "139865243914416" -> "139865243916880" [color = darkgoldenrod];
  "139865243914416" -> "139865243917936" [color = darkgoldenrod];
  "139865243914416" -> "139865243917760" [color = darkgoldenrod];
  "139865243914416" -> "139865243918112" [color = darkgoldenrod];
  "139865243914416" -> "139865424551712" [color = darkgoldenrod];
  "139865243954800" [label = "make-mesboot@3.82", shape = box, fontname = sans];
  "139865243954800" -> "139865243914768" [color = magenta];
  "139865243954800" -> "139865424551360" [color = magenta];
  "139865243954800" -> "139865243914944" [color = magenta];
  "139865243954800" -> "139865243915648" [color = magenta];
  "139865243954800" -> "139865243915120" [color = magenta];
  "139865243954800" -> "139865243916528" [color = magenta];
  "139865243954800" -> "139865243916704" [color = magenta];
  "139865243954800" -> "139865243916176" [color = magenta];
  "139865243954800" -> "139865243917056" [color = magenta];
  "139865243954800" -> "139865243916000" [color = magenta];
  "139865243954800" -> "139865243915824" [color = magenta];
  "139865243954800" -> "139865243916880" [color = magenta];
  "139865243954800" -> "139865243917936" [color = magenta];
  "139865243954800" -> "139865243917760" [color = magenta];
  "139865243954800" -> "139865243918112" [color = magenta];
  "139865243954800" -> "139865424551712" [color = magenta];
  "139865243954448" [label = "sed-mesboot@4.0.6", shape = box, fontname = sans];
  "139865243954448" -> "139865243914768" [color = peachpuff4];
  "139865243954448" -> "139865424551360" [color = peachpuff4];
  "139865243954448" -> "139865243914944" [color = peachpuff4];
  "139865243954448" -> "139865243915648" [color = peachpuff4];
  "139865243954448" -> "139865243915120" [color = peachpuff4];
  "139865243954448" -> "139865243916528" [color = peachpuff4];
  "139865243954448" -> "139865243916704" [color = peachpuff4];
  "139865243954448" -> "139865243916176" [color = peachpuff4];
  "139865243954448" -> "139865243917056" [color = peachpuff4];
  "139865243954448" -> "139865243916000" [color = peachpuff4];
  "139865243954448" -> "139865243915824" [color = peachpuff4];
  "139865243954448" -> "139865243916880" [color = peachpuff4];
  "139865243954448" -> "139865243917936" [color = peachpuff4];
  "139865243954448" -> "139865243917760" [color = peachpuff4];
  "139865243954448" -> "139865243918112" [color = peachpuff4];
  "139865243954448" -> "139865424551712" [color = peachpuff4];
  "139865243914592" [label = "tar-mesboot@1.22", shape = box, fontname = sans];
  "139865243914592" -> "139865243914768" [color = cyan3];
  "139865243914592" -> "139865424551360" [color = cyan3];
  "139865243914592" -> "139865243914944" [color = cyan3];
  "139865243914592" -> "139865243915648" [color = cyan3];
  "139865243914592" -> "139865243915120" [color = cyan3];
  "139865243914592" -> "139865243916528" [color = cyan3];
  "139865243914592" -> "139865243916704" [color = cyan3];
  "139865243914592" -> "139865243916176" [color = cyan3];
  "139865243914592" -> "139865243917056" [color = cyan3];
  "139865243914592" -> "139865243916000" [color = cyan3];
  "139865243914592" -> "139865243915824" [color = cyan3];
  "139865243914592" -> "139865243916880" [color = cyan3];
  "139865243914592" -> "139865243917936" [color = cyan3];
  "139865243914592" -> "139865243917760" [color = cyan3];
  "139865243914592" -> "139865243918112" [color = cyan3];
  "139865243914592" -> "139865424551712" [color = cyan3];
  "139865243952160" [label = "gcc-mesboot@4.9.4", shape = box, fontname = sans];
  "139865243952160" -> "139865243952336" [color = darkviolet];
  "139865243952160" -> "139865243953392" [color = darkviolet];
  "139865243952160" -> "139865243952688" [color = darkviolet];
  "139865243952160" -> "139865243952512" [color = darkviolet];
  "139865243952160" -> "139865243952864" [color = darkviolet];
  "139865243952160" -> "139865243953216" [color = darkviolet];
  "139865243952160" -> "139865243953392" [color = darkviolet];
  "139865243952160" -> "139865243954272" [color = darkviolet];
  "139865243952160" -> "139865243954976" [color = darkviolet];
  "139865243952160" -> "139865243954624" [color = darkviolet];
  "139865243952160" -> "139865243914416" [color = darkviolet];
  "139865243952160" -> "139865243954800" [color = darkviolet];
  "139865243952160" -> "139865243954448" [color = darkviolet];
  "139865243952160" -> "139865243914592" [color = darkviolet];
  "139865243952160" -> "139865424551360" [color = darkviolet];
  "139865243952160" -> "139865243916704" [color = darkviolet];
  "139865243952160" -> "139865243916176" [color = darkviolet];
  "139865243952160" -> "139865243917056" [color = darkviolet];
  "139865243952160" -> "139865243916000" [color = darkviolet];
  "139865243952336" [label = "gcc-mesboot1-wrapper@4.6.4", shape = box, fontname = sans];
  "139865243952336" -> "139865243954272" [color = darkseagreen];
  "139865243952336" -> "139865243954976" [color = darkseagreen];
  "139865243952336" -> "139865243952512" [color = darkseagreen];
  "139865243952336" -> "139865243953392" [color = darkseagreen];

}
